<?xml version="1.0" encoding="UTF-8" standalone="no"?>
<!-- Created with Inkscape (http://www.inkscape.org/) -->

<svg
   width="210mm"
   height="297mm"
   viewBox="0 0 210 297"
   version="1.1"
   id="svg26818"
   inkscape:version="1.1 (c68e22c387, 2021-05-23)"
   sodipodi:docname="apls_fig_1_flowchart.svg"
   xmlns:inkscape="http://www.inkscape.org/namespaces/inkscape"
   xmlns:sodipodi="http://sodipodi.sourceforge.net/DTD/sodipodi-0.dtd"
   xmlns="http://www.w3.org/2000/svg"
   xmlns:svg="http://www.w3.org/2000/svg">
  <sodipodi:namedview
     id="namedview26820"
     pagecolor="#ffffff"
     bordercolor="#666666"
     borderopacity="1.0"
     inkscape:pageshadow="2"
     inkscape:pageopacity="0.0"
     inkscape:pagecheckerboard="0"
     inkscape:document-units="mm"
     showgrid="false"
     inkscape:zoom="0.69397447"
     inkscape:cx="396.26818"
     inkscape:cy="561.25984"
     inkscape:window-width="2560"
     inkscape:window-height="1513"
     inkscape:window-x="0"
     inkscape:window-y="0"
     inkscape:window-maximized="1"
     inkscape:current-layer="layer1" />
  <defs
     id="defs26815">
    <clipPath
       clipPathUnits="userSpaceOnUse"
       id="clipPath25790">
      <path
         d="M 0,0 H 595.276 V 841.89 H 0 Z"
         id="path25788" />
    </clipPath>
    <clipPath
       clipPathUnits="userSpaceOnUse"
       id="clipPath25934">
      <path
         d="M 0,0 H 595.276 V 841.89 H 0 Z"
         id="path25932" />
    </clipPath>
    <clipPath
       clipPathUnits="userSpaceOnUse"
       id="clipPath25954">
      <path
         d="M 0,0 H 595.276 V 841.89 H 0 Z"
         id="path25952" />
    </clipPath>
    <clipPath
       clipPathUnits="userSpaceOnUse"
       id="clipPath25978">
      <path
         d="M 0,0 H 595.276 V 841.89 H 0 Z"
         id="path25976" />
    </clipPath>
    <clipPath
       clipPathUnits="userSpaceOnUse"
       id="clipPath26054">
      <path
         d="M 0,0 H 595.276 V 841.89 H 0 Z"
         id="path26052" />
    </clipPath>
    <clipPath
       clipPathUnits="userSpaceOnUse"
       id="clipPath26106">
      <path
         d="M 0,0 H 595.276 V 841.89 H 0 Z"
         id="path26104" />
    </clipPath>
    <clipPath
       clipPathUnits="userSpaceOnUse"
       id="clipPath26180">
      <path
         d="M 0,0 H 595.276 V 841.89 H 0 Z"
         id="path26178" />
    </clipPath>
    <clipPath
       clipPathUnits="userSpaceOnUse"
       id="clipPath26196">
      <path
         d="M 0,0 H 595.276 V 841.89 H 0 Z"
         id="path26194" />
    </clipPath>
    <clipPath
       clipPathUnits="userSpaceOnUse"
       id="clipPath26224">
      <path
         d="M 0,0 H 595.276 V 841.89 H 0 Z"
         id="path26222" />
    </clipPath>
  </defs>
  <g
     inkscape:label="Layer 1"
     inkscape:groupmode="layer"
     id="layer1">
    <text
       style="font-variant:normal;font-weight:bold;font-stretch:normal;font-size:8.81944px;font-family:Resus;-inkscape-font-specification:Resus-Bold;writing-mode:lr-tb;fill:#1f5735;fill-opacity:1;fill-rule:nonzero;stroke:none;stroke-width:0.352778"
       id="text25766"
       x="37.07563"
       y="11.508721"><tspan
         x="37.07563 42.495186 47.279732 52.179817 57.436195 59.658699 64.333023 67.870499 71.333893 73.556396 77.96611 80.082779 84.894669 90.144882 94.817421 99.665512 104.94394 109.25572 114.1558 119.45631 121.57304 124.2444 126.4114 129.67111 134.53062 136.64729 140.69542 145.95268 151.23378 156.5228 161.78976 165.44719 169.10727"
         y="11.508721"
         sodipodi:role="line"
         id="tspan25764"
         style="stroke-width:0.352778">Paediatric advanced life support</tspan></text>
    <g
       id="g25768"
       transform="matrix(0.35277777,0,0,-0.35277777,58.4883,90.848134)">
      <path
         d="m 0,0 h -129.564 v -187.139 h 89.22 v 15.022"
         style="fill:none;stroke:#f69986;stroke-width:2.835;stroke-linecap:butt;stroke-linejoin:bevel;stroke-miterlimit:4;stroke-dasharray:none;stroke-opacity:1"
         id="path25770" />
    </g>
    <g
       id="g25772"
       transform="matrix(0.35277777,0,0,-0.35277777,60.28094,90.848134)">
      <path
         d="M 0,0 -7.69,-7.149 V 7.149 Z"
         style="fill:#f69986;fill-opacity:1;fill-rule:nonzero;stroke:none"
         id="path25774" />
    </g>
    <g
       id="g25776"
       transform="matrix(0.35277777,0,0,-0.35277777,103.28037,116.13699)">
      <path
         d="M 0,0 -0.167,58.839"
         style="fill:none;stroke:#f4ef92;stroke-width:2.835;stroke-linecap:butt;stroke-linejoin:miter;stroke-miterlimit:4;stroke-dasharray:none;stroke-opacity:1"
         id="path25778" />
    </g>
    <g
       id="g25780"
       transform="matrix(0.35277777,0,0,-0.35277777,103.28545,117.92963)">
      <path
         d="M 0,0 -7.171,7.669 7.128,7.71 Z"
         style="fill:#f4ef92;fill-opacity:1;fill-rule:nonzero;stroke:none"
         id="path25782" />
    </g>
    <g
       id="g25784"
       transform="matrix(0.35277777,0,0,-0.35277777,-1.7190456,268.45722)">
      <g
         id="g25786"
         clip-path="url(#clipPath25790)">
        <g
           id="g25792"
           transform="translate(233.0212,357.0396)">
          <path
             d="m 0,0 c -4.697,0 -8.504,-3.807 -8.504,-8.504 v -83.829 c 0,-4.696 3.807,-8.503 8.504,-8.503 h 129.969 c 4.696,0 8.503,3.807 8.503,8.503 v 83.829 c 0,4.697 -3.807,8.504 -8.503,8.504 z"
             style="fill:#f9f7c8;fill-opacity:1;fill-rule:nonzero;stroke:none"
             id="path25794" />
        </g>
      </g>
    </g>
    <text
       style="font-variant:normal;font-weight:bold;font-stretch:normal;font-size:3.35139px;font-family:Resus;-inkscape-font-specification:Resus-Bold;writing-mode:lr-tb;fill:#231f20;fill-opacity:1;fill-rule:nonzero;stroke:none;stroke-width:0.352778"
       id="text25798"
       x="84.25885"
       y="147.67918"><tspan
         x="84.25885 86.352798 88.391113 89.96962 91.360451 92.164772 93.867287 95.753815 97.099403 99.140358 100.03018 101.89354 103.56925 104.3736 106.26006 107.62175 108.9623 110.85285 112.43128 113.82217 114.62646 116.32897 118.2155 119.55637 121.39563"
         y="147.67918"
         sodipodi:role="line"
         id="tspan25796"
         style="stroke-width:0.352778">Post cardiac arrest care:</tspan></text>
    <text
       style="font-variant:normal;font-weight:normal;font-stretch:normal;font-size:3.35139px;font-family:Resus;-inkscape-font-specification:Resus-Regular;writing-mode:lr-tb;fill:#231f20;fill-opacity:1;fill-rule:nonzero;stroke:none;stroke-width:0.352778"
       id="text25802"
       x="79.485626"
       y="152.20699"><tspan
         x="79.485626 81.094299"
         y="152.20699"
         sodipodi:role="line"
         id="tspan25800"
         style="stroke-width:0.352778">•</tspan></text>
    <text
       style="font-variant:normal;font-weight:normal;font-stretch:normal;font-size:3.35139px;font-family:Resus;-inkscape-font-specification:Resus-Regular;writing-mode:lr-tb;fill:#231f20;fill-opacity:1;fill-rule:nonzero;stroke:none;stroke-width:0.352778"
       id="text25806"
       x="82.485657"
       y="152.20699"><tspan
         x="82.485657 85.032043 86.55423 88.353928 89.158264 90.991135 92.944992 93.749321 95.998116 98.195969 100.33115 102.75218 104.7563 105.56065 107.39386 109.37553 111.35725 112.61833 114.59602 116.4054 118.05428"
         y="152.20699"
         sodipodi:role="line"
         id="tspan25804"
         style="stroke-width:0.352778">Use an ABCDE approach</tspan></text>
    <text
       style="font-variant:normal;font-weight:normal;font-stretch:normal;font-size:3.35139px;font-family:Resus;-inkscape-font-specification:Resus-Regular;writing-mode:lr-tb;fill:#231f20;fill-opacity:1;fill-rule:nonzero;stroke:none;stroke-width:0.352778"
       id="text25810"
       x="79.485626"
       y="157.44031"><tspan
         x="79.485626 81.094299"
         y="157.44031"
         sodipodi:role="line"
         id="tspan25808"
         style="stroke-width:0.352778">•</tspan></text>
    <text
       style="font-variant:normal;font-weight:normal;font-stretch:normal;font-size:3.35139px;font-family:Resus;-inkscape-font-specification:Resus-Regular;writing-mode:lr-tb;fill:#231f20;fill-opacity:1;fill-rule:nonzero;stroke:none;stroke-width:0.352778"
       id="text25814"
       x="82.485657"
       y="157.44031"><tspan
         x="82.485657 84.761246 85.563232 88.596237 89.400574 90.614777 92.591446 93.875031 94.679375 96.628532 98.62561"
         y="157.44031"
         sodipodi:role="line"
         id="tspan25812"
         style="stroke-width:0.352778">Aim for SpO</tspan></text>
    <text
       style="font-variant:normal;font-weight:normal;font-stretch:normal;font-size:1.95386px;font-family:Resus;-inkscape-font-specification:Resus-Regular;writing-mode:lr-tb;fill:#231f20;fill-opacity:1;fill-rule:nonzero;stroke:none;stroke-width:0.352778"
       id="text25818"
       x="101.0826"
       y="158.55635"><tspan
         x="101.0826"
         y="158.55635"
         id="tspan25816"
         style="stroke-width:0.352778">2</tspan></text>
    <text
       style="font-variant:normal;font-weight:normal;font-stretch:normal;font-size:3.35139px;font-family:Resus;-inkscape-font-specification:Resus-Regular;writing-mode:lr-tb;fill:#231f20;fill-opacity:1;fill-rule:nonzero;stroke:none;stroke-width:0.352778"
       id="text25822"
       x="103.01231"
       y="157.44031"><tspan
         x="103.01231 104.94508 106.18176 106.9861 108.93964 111.00541 112.63587 114.59507 116.53722 119.43282"
         y="157.44031"
         sodipodi:role="line"
         id="tspan25820"
         style="stroke-width:0.352778">of 94–98%</tspan></text>
    <text
       style="font-variant:normal;font-weight:normal;font-stretch:normal;font-size:3.35139px;font-family:Resus;-inkscape-font-specification:Resus-Regular;writing-mode:lr-tb;fill:#231f20;fill-opacity:1;fill-rule:nonzero;stroke:none;stroke-width:0.352778"
       id="text25826"
       x="82.485657"
       y="161.67363"><tspan
         x="82.485657 84.318863 86.304565 88.258423 89.062744 91.048111 93.024773 94.327438 97.377907 99.196678 100.15186 100.95617 103.03403 104.84916 106.96356"
         y="161.67363"
         sodipodi:role="line"
         id="tspan25824"
         style="stroke-width:0.352778">and normal PaCO</tspan></text>
    <text
       style="font-variant:normal;font-weight:normal;font-stretch:normal;font-size:1.95386px;font-family:Resus;-inkscape-font-specification:Resus-Regular;writing-mode:lr-tb;fill:#231f20;fill-opacity:1;fill-rule:nonzero;stroke:none;stroke-width:0.352778"
       id="text25830"
       x="109.42138"
       y="162.78969"><tspan
         x="109.42138"
         y="162.78969"
         id="tspan25828"
         style="stroke-width:0.352778">2</tspan></text>
    <text
       style="font-variant:normal;font-weight:normal;font-stretch:normal;font-size:3.35139px;font-family:Resus;-inkscape-font-specification:Resus-Regular;writing-mode:lr-tb;fill:#231f20;fill-opacity:1;fill-rule:nonzero;stroke:none;stroke-width:0.352778"
       id="text25834"
       x="79.485672"
       y="166.20143"><tspan
         x="79.485672 81.094345"
         y="166.20143"
         sodipodi:role="line"
         id="tspan25832"
         style="stroke-width:0.352778">•</tspan></text>
    <text
       style="font-variant:normal;font-weight:normal;font-stretch:normal;font-size:3.35139px;font-family:Resus;-inkscape-font-specification:Resus-Regular;writing-mode:lr-tb;fill:#231f20;fill-opacity:1;fill-rule:nonzero;stroke:none;stroke-width:0.352778"
       id="text25838"
       x="82.485657"
       y="166.20143"><tspan
         x="82.485657 84.64093 86.341431 88.310699 89.124084 91.077934 91.882278 93.790573 95.544342 97.540443 99.473206 100.77353 102.60342 104.56464 106.06905 106.87574 108.85239"
         y="166.20143"
         sodipodi:role="line"
         id="tspan25836"
         style="stroke-width:0.352778">Avoid hypotension</tspan></text>
    <text
       style="font-variant:normal;font-weight:normal;font-stretch:normal;font-size:3.35139px;font-family:Resus;-inkscape-font-specification:Resus-Regular;writing-mode:lr-tb;fill:#231f20;fill-opacity:1;fill-rule:nonzero;stroke:none;stroke-width:0.352778"
       id="text25842"
       x="79.485672"
       y="170.7292"><tspan
         x="79.485672 81.094345"
         y="170.7292"
         sodipodi:role="line"
         id="tspan25840"
         style="stroke-width:0.352778">•</tspan></text>
    <text
       style="font-variant:normal;font-weight:normal;font-stretch:normal;font-size:3.35139px;font-family:Resus;-inkscape-font-specification:Resus-Regular;writing-mode:lr-tb;fill:#231f20;fill-opacity:1;fill-rule:nonzero;stroke:none;stroke-width:0.352778"
       id="text25846"
       x="82.485657"
       y="170.7292"><tspan
         x="82.485657 84.212952 86.046173 87.316681 89.293991 91.099731 92.400063 94.247688 96.201576 97.00589 98.306229 100.13577 103.19225 105.14613 105.95045 109.00084 110.83408 112.79533 114.60503 116.58236 118.4119 121.48007 123.30997 125.25074"
         y="170.7292"
         sodipodi:role="line"
         id="tspan25844"
         style="stroke-width:0.352778">Targeted temp management</tspan></text>
    <text
       style="font-variant:normal;font-weight:normal;font-stretch:normal;font-size:3.35139px;font-family:Resus;-inkscape-font-specification:Resus-Regular;writing-mode:lr-tb;fill:#231f20;fill-opacity:1;fill-rule:nonzero;stroke:none;stroke-width:0.352778"
       id="text25850"
       x="79.485672"
       y="175.25696"><tspan
         x="79.485672 81.094345"
         y="175.25696"
         sodipodi:role="line"
         id="tspan25848"
         style="stroke-width:0.352778">•</tspan></text>
    <text
       style="font-variant:normal;font-weight:normal;font-stretch:normal;font-size:3.35139px;font-family:Resus;-inkscape-font-specification:Resus-Regular;writing-mode:lr-tb;fill:#231f20;fill-opacity:1;fill-rule:nonzero;stroke:none;stroke-width:0.352778"
       id="text25854"
       x="82.485657"
       y="175.25696"><tspan
         x="82.485657 84.877869 85.826309 87.804306 89.411301 91.376221 92.898422 94.69812 95.502449 97.109436 99.085785 101.0266 102.36878 103.62994 105.60117"
         y="175.25696"
         sodipodi:role="line"
         id="tspan25852"
         style="stroke-width:0.352778">Glucose control</tspan></text>
    <g
       id="g25856"
       transform="matrix(0.35277777,0,0,-0.35277777,77.35595,117.92963)">
      <path
         d="M 0,0 V 0 -51.786 H 146.976 V 0 Z"
         style="fill:#f4ef92;fill-opacity:1;fill-rule:nonzero;stroke:none"
         id="path25858" />
    </g>
    <text
       style="font-variant:normal;font-weight:bold;font-stretch:normal;font-size:4.23333px;font-family:Resus;-inkscape-font-specification:Resus-Bold;writing-mode:lr-tb;fill:#231f20;fill-opacity:1;fill-rule:nonzero;stroke:none;stroke-width:0.352778"
       id="text25862"
       x="80.636856"
       y="123.96832"><tspan
         x="80.636856 83.348724 85.669022 87.373352 89.912933 91.591888 94.136116 95.15213 97.654457 99.275818 100.29181 102.25605 104.81091 107.35507 109.86168 111.5999 113.94308 116.49996 118.85796 121.4115 123.9651 125.92519"
         y="123.96832"
         sodipodi:role="line"
         id="tspan25860"
         style="stroke-width:0.352778">Return of spontaneous</tspan></text>
    <text
       style="font-variant:normal;font-weight:bold;font-stretch:normal;font-size:4.23333px;font-family:Resus;-inkscape-font-specification:Resus-Bold;writing-mode:lr-tb;fill:#231f20;fill-opacity:1;fill-rule:nonzero;stroke:none;stroke-width:0.352778"
       id="text25866"
       x="92.798943"
       y="128.5545"><tspan
         x="92.798943 94.90715 95.995102 97.642303 99.750549 102.28625 103.60957 105.87064 107.58514 108.66846 111.2127 113.75692"
         y="128.5545"
         sodipodi:role="line"
         id="tspan25864"
         style="stroke-width:0.352778">circulation</tspan></text>
    <text
       style="font-variant:normal;font-weight:bold;font-stretch:normal;font-size:4.23333px;font-family:Resus;-inkscape-font-specification:Resus-Bold;writing-mode:lr-tb;fill:#231f20;fill-opacity:1;fill-rule:nonzero;stroke:none;stroke-width:0.352778"
       id="text25870"
       x="96.252213"
       y="133.14062"><tspan
         x="96.252213 97.664467 100.38226 103.64278 106.09684 108.82351"
         y="133.14062"
         sodipodi:role="line"
         id="tspan25868"
         style="stroke-width:0.352778">(ROSC)</tspan></text>
    <g
       id="g25872"
       transform="matrix(0.35277777,0,0,-0.35277777,71.97358,108.40551)">
      <path
         d="M 0,0 H 73.875 L 73.699,37.25"
         style="fill:none;stroke:#f58d7a;stroke-width:2.835;stroke-linecap:butt;stroke-linejoin:bevel;stroke-miterlimit:4;stroke-dasharray:none;stroke-opacity:1"
         id="path25874" />
    </g>
    <g
       id="g25876"
       transform="matrix(0.35277777,0,0,-0.35277777,70.18094,108.40551)">
      <path
         d="M 0,0 7.69,7.149 V -7.149 Z"
         style="fill:#f58d7a;fill-opacity:1;fill-rule:nonzero;stroke:none"
         id="path25878" />
    </g>
    <g
       id="g25880"
       transform="matrix(0.35277777,0,0,-0.35277777,134.58827,108.40551)">
      <path
         d="m 0,0 h -73.7 l -0.175,37.25"
         style="fill:none;stroke:#9fc88a;stroke-width:2.835;stroke-linecap:butt;stroke-linejoin:bevel;stroke-miterlimit:4;stroke-dasharray:none;stroke-opacity:1"
         id="path25882" />
    </g>
    <g
       id="g25884"
       transform="matrix(0.35277777,0,0,-0.35277777,136.38091,108.40551)">
      <path
         d="M 0,0 -7.69,7.149 V -7.149 Z"
         style="fill:#9fc88a;fill-opacity:1;fill-rule:nonzero;stroke:none"
         id="path25886" />
    </g>
    <g
       id="g25888"
       transform="matrix(0.35277777,0,0,-0.35277777,44.25594,119.76121)">
      <path
         d="M 0,0 V 11.926"
         style="fill:none;stroke:#f69986;stroke-width:2.835;stroke-linecap:butt;stroke-linejoin:miter;stroke-miterlimit:4;stroke-dasharray:none;stroke-opacity:1"
         id="path25890" />
    </g>
    <g
       id="g25892"
       transform="matrix(0.35277777,0,0,-0.35277777,44.25594,121.55389)">
      <path
         d="M 0,0 -7.149,7.69 H 7.149 Z"
         style="fill:#f69986;fill-opacity:1;fill-rule:nonzero;stroke:none"
         id="path25894" />
    </g>
    <g
       id="g25896"
       transform="matrix(0.35277777,0,0,-0.35277777,44.25594,135.89822)">
      <path
         d="M 0,0 V 11.926"
         style="fill:none;stroke:#f69986;stroke-width:2.835;stroke-linecap:butt;stroke-linejoin:miter;stroke-miterlimit:4;stroke-dasharray:none;stroke-opacity:1"
         id="path25898" />
    </g>
    <g
       id="g25900"
       transform="matrix(0.35277777,0,0,-0.35277777,44.25594,137.69086)">
      <path
         d="M 0,0 -7.149,7.69 H 7.149 Z"
         style="fill:#f69986;fill-opacity:1;fill-rule:nonzero;stroke:none"
         id="path25902" />
    </g>
    <g
       id="g25904"
       transform="matrix(0.35277777,0,0,-0.35277777,103.09132,140.58406)">
      <path
         d="M 0,0 V 11.926"
         style="fill:none;stroke:#f4ef92;stroke-width:2.835;stroke-linecap:butt;stroke-linejoin:miter;stroke-miterlimit:4;stroke-dasharray:none;stroke-opacity:1"
         id="path25906" />
    </g>
    <g
       id="g25908"
       transform="matrix(0.35277777,0,0,-0.35277777,103.09132,142.3767)">
      <path
         d="M 0,0 -7.149,7.69 H 7.149 Z"
         style="fill:#f4ef92;fill-opacity:1;fill-rule:nonzero;stroke:none"
         id="path25910" />
    </g>
    <g
       id="g25912"
       transform="matrix(0.35277777,0,0,-0.35277777,162.30591,119.89816)">
      <path
         d="M 0,0 V 11.926"
         style="fill:none;stroke:#9fc88a;stroke-width:2.835;stroke-linecap:butt;stroke-linejoin:miter;stroke-miterlimit:4;stroke-dasharray:none;stroke-opacity:1"
         id="path25914" />
    </g>
    <g
       id="g25916"
       transform="matrix(0.35277777,0,0,-0.35277777,162.30591,121.6908)">
      <path
         d="M 0,0 -7.149,7.69 H 7.149 Z"
         style="fill:#9fc88a;fill-opacity:1;fill-rule:nonzero;stroke:none"
         id="path25918" />
    </g>
    <g
       id="g25920"
       transform="matrix(0.35277777,0,0,-0.35277777,162.30591,141.21056)">
      <path
         d="M 0,0 V 11.926"
         style="fill:none;stroke:#9fc88a;stroke-width:2.835;stroke-linecap:butt;stroke-linejoin:miter;stroke-miterlimit:4;stroke-dasharray:none;stroke-opacity:1"
         id="path25922" />
    </g>
    <g
       id="g25924"
       transform="matrix(0.35277777,0,0,-0.35277777,162.30591,143.0032)">
      <path
         d="M 0,0 -7.149,7.69 H 7.149 Z"
         style="fill:#9fc88a;fill-opacity:1;fill-rule:nonzero;stroke:none"
         id="path25926" />
    </g>
    <g
       id="g25928"
       transform="matrix(0.35277777,0,0,-0.35277777,-1.7190456,268.45722)">
      <g
         id="g25930"
         clip-path="url(#clipPath25934)">
        <g
           id="g25936"
           transform="translate(65.3386,416.0308)">
          <path
             d="m 0,0 c -4.697,0 -8.504,-3.807 -8.504,-8.504 v -11.338 c 0,-4.697 3.807,-8.504 8.504,-8.504 h 129.969 c 4.696,0 8.503,3.807 8.503,8.504 v 11.338 c 0,4.697 -3.807,8.504 -8.503,8.504 z"
             style="fill:#fcd7cc;fill-opacity:1;fill-rule:nonzero;stroke:none"
             id="path25938" />
        </g>
      </g>
    </g>
    <text
       style="font-variant:normal;font-weight:bold;font-stretch:normal;font-size:3.35139px;font-family:Resus;-inkscape-font-specification:Resus-Bold;writing-mode:lr-tb;fill:#231f20;fill-opacity:1;fill-rule:nonzero;stroke:none;stroke-width:0.352778"
       id="text25942"
       x="32.498238"
       y="127.87067"><tspan
         x="32.498238 34.428627 35.232964 36.819847 38.869896 40.916252 42.628136 44.407722 45.212059 47.142464 47.9468 49.461617 50.265953 52.002983"
         y="127.87067"
         sodipodi:role="line"
         id="tspan25940"
         style="stroke-width:0.352778">1 shock 4 J kg</tspan></text>
    <text
       style="font-variant:normal;font-weight:bold;font-stretch:normal;font-size:1.95386px;font-family:Resus;-inkscape-font-specification:Resus-Bold;writing-mode:lr-tb;fill:#231f20;fill-opacity:1;fill-rule:nonzero;stroke:none;stroke-width:0.352778"
       id="text25946"
       x="54.114021"
       y="126.75465"><tspan
         x="54.114021 54.663063"
         y="126.75465"
         sodipodi:role="line"
         id="tspan25944"
         style="stroke-width:0.352778">-1</tspan></text>
    <g
       id="g25948"
       transform="matrix(0.35277777,0,0,-0.35277777,-1.7190456,268.45722)">
      <g
         id="g25950"
         clip-path="url(#clipPath25954)">
        <g
           id="g25956"
           transform="translate(65.3207,370.3223)">
          <path
             d="m 0,0 c -4.697,0 -8.504,-3.807 -8.504,-8.504 v -25.512 c 0,-4.696 3.807,-8.504 8.504,-8.504 h 129.969 c 4.696,0 8.503,3.808 8.503,8.504 v 25.512 c 0,4.697 -3.807,8.504 -8.503,8.504 z"
             style="fill:#fcd7cc;fill-opacity:1;fill-rule:nonzero;stroke:none"
             id="path25958" />
        </g>
      </g>
    </g>
    <text
       style="font-variant:normal;font-weight:bold;font-stretch:normal;font-size:3.35139px;font-family:Resus;-inkscape-font-specification:Resus-Bold;writing-mode:lr-tb;fill:#231f20;fill-opacity:1;fill-rule:nonzero;stroke:none;stroke-width:0.352778"
       id="text25962"
       x="24.197701"
       y="142.96785"><tspan
         x="24.197701 25.223885 28.347054 31.473228 33.378151 35.420494 36.31028 38.134102 39.500801 41.390648 42.365242 44.16494 44.969261 46.310158 48.20034 49.783531 51.82621 54.952385 56.799004 57.60334 59.77906 61.864616 64.076553"
         y="142.96785"
         sodipodi:role="line"
         id="tspan25960"
         style="stroke-width:0.352778">Immediately resume CPR</tspan></text>
    <text
       style="font-variant:normal;font-weight:bold;font-stretch:normal;font-size:3.35139px;font-family:Resus;-inkscape-font-specification:Resus-Bold;writing-mode:lr-tb;fill:#231f20;fill-opacity:1;fill-rule:nonzero;stroke:none;stroke-width:0.352778"
       id="text25966"
       x="37.018227"
       y="146.49562"><tspan
         x="37.018227 38.301811 40.347832 41.69175 42.496086 44.426476 45.230812 48.34861 49.243095"
         y="146.49562"
         sodipodi:role="line"
         id="tspan25964"
         style="stroke-width:0.352778">for 2 min</tspan></text>
    <text
       style="font-variant:normal;font-weight:normal;font-stretch:normal;font-size:3.35139px;font-family:Resus;-inkscape-font-specification:Resus-Regular;writing-mode:lr-tb;fill:#231f20;fill-opacity:1;fill-rule:nonzero;stroke:none;stroke-width:0.352778"
       id="text25970"
       x="26.939049"
       y="150.02339"><tspan
         x="26.939049 29.808174 30.609154 32.576424 33.377403 36.426842 37.219444 38.741646 40.541328 41.345665 42.146645 44.087105 45.387444 47.217308 48.519981 49.835411 51.798317 53.740776 55.083015 55.889687 57.866341 59.826897"
         y="150.02339"
         sodipodi:role="line"
         id="tspan25968"
         style="stroke-width:0.352778">Minimise interruptions</tspan></text>
    <g
       id="g25972"
       transform="matrix(0.35277777,0,0,-0.35277777,-1.7190456,268.45722)">
      <g
         id="g25974"
         clip-path="url(#clipPath25978)">
        <g
           id="g25980"
           transform="translate(65.3207,296.229)">
          <path
             d="M 0,0 C -4.697,0 -8.504,-3.807 -8.504,-8.504 V -86.43 c 0,-4.696 3.807,-8.504 8.504,-8.504 h 129.969 c 4.696,0 8.503,3.808 8.503,8.504 v 77.926 c 0,4.697 -3.807,8.504 -8.503,8.504 z"
             style="fill:#f9f7c8;fill-opacity:1;fill-rule:nonzero;stroke:none"
             id="path25982" />
        </g>
      </g>
    </g>
    <text
       style="font-variant:normal;font-weight:bold;font-stretch:normal;font-size:3.35139px;font-family:Resus;-inkscape-font-specification:Resus-Bold;writing-mode:lr-tb;fill:#231f20;fill-opacity:1;fill-rule:nonzero;stroke:none;stroke-width:0.352778"
       id="text25986"
       x="28.546776"
       y="168.66653"><tspan
         x="28.546776 30.79287 32.15052 33.51722 35.412086 36.756004 37.560341 39.49073 40.295067 41.881615 43.931664 45.97802 47.689903 49.541878 51.093575 51.897911 53.940239 54.831047 56.59388 58.433113"
         y="168.66653"
         sodipodi:role="line"
         id="tspan25984"
         style="stroke-width:0.352778">After 3 shocks give:</tspan></text>
    <text
       style="font-variant:normal;font-weight:normal;font-stretch:normal;font-size:3.35139px;font-family:Resus;-inkscape-font-specification:Resus-Regular;writing-mode:lr-tb;fill:#231f20;fill-opacity:1;fill-rule:nonzero;stroke:none;stroke-width:0.352778"
       id="text25990"
       x="20.32461"
       y="173.19431"><tspan
         x="20.32461 21.933283"
         y="173.19431"
         sodipodi:role="line"
         id="tspan25988"
         style="stroke-width:0.352778">•</tspan></text>
    <text
       style="font-variant:normal;font-weight:normal;font-stretch:normal;font-size:3.35139px;font-family:Resus;-inkscape-font-specification:Resus-Regular;writing-mode:lr-tb;fill:#231f20;fill-opacity:1;fill-rule:nonzero;stroke:none;stroke-width:0.352778"
       id="text25994"
       x="23.324638"
       y="173.19431"><tspan
         x="23.324638 25.560677 27.523582 28.789406 30.61927 32.580498 34.398964 35.38427 36.186256 38.171959 39.971657 40.775978 41.717049 43.761406 45.050682 46.008507 48.579018 49.383354 51.201149 53.131554 53.93589 57.003746 58.618782 60.572639 61.376976 63.01815"
         y="173.19431"
         sodipodi:role="line"
         id="tspan25992"
         style="stroke-width:0.352778">Adrenaline IV/IO 10 mcg kg</tspan></text>
    <text
       style="font-variant:normal;font-weight:normal;font-stretch:normal;font-size:1.95386px;font-family:Resus;-inkscape-font-specification:Resus-Regular;writing-mode:lr-tb;fill:#231f20;fill-opacity:1;fill-rule:nonzero;stroke:none;stroke-width:0.352778"
       id="text25998"
       x="65.062057"
       y="172.07829"><tspan
         x="65.062057 65.599365"
         y="172.07829"
         sodipodi:role="line"
         id="tspan25996"
         style="stroke-width:0.352778">-1</tspan></text>
    <text
       style="font-variant:normal;font-weight:normal;font-stretch:normal;font-size:3.35139px;font-family:Resus;-inkscape-font-specification:Resus-Regular;writing-mode:lr-tb;fill:#231f20;fill-opacity:1;fill-rule:nonzero;stroke:none;stroke-width:0.352778"
       id="text26002"
       x="23.324638"
       y="176.72208"><tspan
         x="23.324638 24.320335 26.153542 28.139244 30.093102 30.897438 32.677361 34.379524 36.209389 37.601891 39.341255 40.145592 41.964394 42.846809 44.147148 45.977013 47.279686 49.240593 51.00811 52.308449 54.108147 54.912483 56.631737 58.333916 59.982796 60.922859 62.722557"
         y="176.72208"
         sodipodi:role="line"
         id="tspan26000"
         style="stroke-width:0.352778">(and every alternate cycle</tspan></text>
    <text
       style="font-variant:normal;font-weight:normal;font-stretch:normal;font-size:3.35139px;font-family:Resus;-inkscape-font-specification:Resus-Regular;writing-mode:lr-tb;fill:#231f20;fill-opacity:1;fill-rule:nonzero;stroke:none;stroke-width:0.352778"
       id="text26006"
       x="23.324638"
       y="180.24986"><tspan
         x="23.324638 24.666862 26.650887 28.480751 29.746559 31.561684 33.329201 34.657356 35.957695 37.78756 38.980644"
         y="180.24986"
         sodipodi:role="line"
         id="tspan26004"
         style="stroke-width:0.352778">thereafter)</tspan></text>
    <text
       style="font-variant:normal;font-weight:bold;font-stretch:normal;font-size:3.35139px;font-family:Resus;-inkscape-font-specification:Resus-Bold;writing-mode:lr-tb;fill:#231f20;fill-opacity:1;fill-rule:nonzero;stroke:none;stroke-width:0.352778"
       id="text26010"
       x="40.459694"
       y="183.77763"><tspan
         x="40.459694 42.756065 45.370155"
         y="183.77763"
         sodipodi:role="line"
         id="tspan26008"
         style="stroke-width:0.352778">AND</tspan></text>
    <text
       style="font-variant:normal;font-weight:normal;font-stretch:normal;font-size:3.35139px;font-family:Resus;-inkscape-font-specification:Resus-Regular;writing-mode:lr-tb;fill:#231f20;fill-opacity:1;fill-rule:nonzero;stroke:none;stroke-width:0.352778"
       id="text26014"
       x="20.32461"
       y="187.80544"><tspan
         x="20.32461 21.933283"
         y="187.80544"
         sodipodi:role="line"
         id="tspan26012"
         style="stroke-width:0.352778">•</tspan></text>
    <text
       style="font-variant:normal;font-weight:normal;font-stretch:normal;font-size:3.35139px;font-family:Resus;-inkscape-font-specification:Resus-Regular;writing-mode:lr-tb;fill:#231f20;fill-opacity:1;fill-rule:nonzero;stroke:none;stroke-width:0.352778"
       id="text26018"
       x="23.324638"
       y="187.80544"><tspan
         x="23.324638 25.600227 28.649651 29.456337 31.452751 33.41433 35.247536 36.508659 38.485313 40.47068 42.270363 43.074699 44.01577 46.060127 47.349403 48.307228 50.877739 51.682076 53.61248 54.416801 57.485008 59.438866 60.243202 61.884041"
         y="187.80544"
         sodipodi:role="line"
         id="tspan26016"
         style="stroke-width:0.352778">Amiodarone IV/IO 5 mg kg</tspan></text>
    <text
       style="font-variant:normal;font-weight:normal;font-stretch:normal;font-size:1.95386px;font-family:Resus;-inkscape-font-specification:Resus-Regular;writing-mode:lr-tb;fill:#231f20;fill-opacity:1;fill-rule:nonzero;stroke:none;stroke-width:0.352778"
       id="text26022"
       x="63.928101"
       y="186.68942"><tspan
         x="63.928101 64.465408"
         y="186.68942"
         sodipodi:role="line"
         id="tspan26020"
         style="stroke-width:0.352778">-1</tspan></text>
    <text
       style="font-variant:normal;font-weight:normal;font-stretch:normal;font-size:3.35139px;font-family:Resus;-inkscape-font-specification:Resus-Regular;writing-mode:lr-tb;fill:#231f20;fill-opacity:1;fill-rule:nonzero;stroke:none;stroke-width:0.352778"
       id="text26026"
       x="23.324638"
       y="191.33322"><tspan
         x="23.324638 24.320335 26.153542 28.139244 30.093102 30.897438 32.163246 33.992775 35.989204 37.804649 39.572166 40.916069 41.720406 43.65081 44.455147 47.523003 49.47686 50.281197 51.922371"
         y="191.33322"
         sodipodi:role="line"
         id="tspan26024"
         style="stroke-width:0.352778">(and repeat 5 mg kg</tspan></text>
    <text
       style="font-variant:normal;font-weight:normal;font-stretch:normal;font-size:1.95386px;font-family:Resus;-inkscape-font-specification:Resus-Regular;writing-mode:lr-tb;fill:#231f20;fill-opacity:1;fill-rule:nonzero;stroke:none;stroke-width:0.352778"
       id="text26030"
       x="53.966423"
       y="190.21721"><tspan
         x="53.966423 54.503731"
         y="190.21721"
         sodipodi:role="line"
         id="tspan26028"
         style="stroke-width:0.352778">-1</tspan></text>
    <text
       style="font-variant:normal;font-weight:normal;font-stretch:normal;font-size:3.35139px;font-family:Resus;-inkscape-font-specification:Resus-Regular;writing-mode:lr-tb;fill:#231f20;fill-opacity:1;fill-rule:nonzero;stroke:none;stroke-width:0.352778"
       id="text26034"
       x="56.43325"
       y="191.33322"><tspan
         x="56.43325 58.409904 60.395607 62.004265 63.80397"
         y="191.33322"
         sodipodi:role="line"
         id="tspan26032"
         style="stroke-width:0.352778">once</tspan></text>
    <text
       style="font-variant:normal;font-weight:normal;font-stretch:normal;font-size:3.35139px;font-family:Resus;-inkscape-font-specification:Resus-Regular;writing-mode:lr-tb;fill:#231f20;fill-opacity:1;fill-rule:nonzero;stroke:none;stroke-width:0.352778"
       id="text26038"
       x="23.324638"
       y="194.86099"><tspan
         x="23.324638 26.39283 28.369484 29.635292 31.43499 32.239326 34.215981 36.183571 37.071022 38.810402 39.614723 41.382256 42.710411 44.01075 45.840599 47.124184 47.92852 49.760048 51.102287 53.056145 53.860481 55.369606 57.355309 59.344353 60.993233 62.666252"
         y="194.86099"
         sodipodi:role="line"
         id="tspan26036"
         style="stroke-width:0.352778">more only after 5th shock)</tspan></text>
    <g
       id="g26040"
       transform="matrix(0.35277777,0,0,-0.35277777,148.07355,90.848134)">
      <path
         d="M 0,0 H 129.023 V -224.247 H 40.344 v 17.861"
         style="fill:none;stroke:#9fc88a;stroke-width:2.835;stroke-linecap:butt;stroke-linejoin:bevel;stroke-miterlimit:4;stroke-dasharray:none;stroke-opacity:1"
         id="path26042" />
    </g>
    <g
       id="g26044"
       transform="matrix(0.35277777,0,0,-0.35277777,146.28091,90.848134)">
      <path
         d="M 0,0 7.69,-7.149 V 7.149 Z"
         style="fill:#9fc88a;fill-opacity:1;fill-rule:nonzero;stroke:none"
         id="path26046" />
    </g>
    <g
       id="g26048"
       transform="matrix(0.35277777,0,0,-0.35277777,-1.7190456,268.45722)">
      <g
         id="g26050"
         clip-path="url(#clipPath26054)">
        <g
           id="g26056"
           transform="translate(399.9685,415.145)">
          <path
             d="m 0,0 c -4.697,0 -8.504,-3.807 -8.504,-8.504 v -25.512 c 0,-4.696 3.807,-8.504 8.504,-8.504 h 129.969 c 4.696,0 8.503,3.808 8.503,8.504 v 25.512 c 0,4.697 -3.807,8.504 -8.503,8.504 z"
             style="fill:#e6f1de;fill-opacity:1;fill-rule:nonzero;stroke:none"
             id="path26058" />
        </g>
      </g>
    </g>
    <text
       style="font-variant:normal;font-weight:bold;font-stretch:normal;font-size:3.35139px;font-family:Resus;-inkscape-font-specification:Resus-Bold;writing-mode:lr-tb;fill:#231f20;fill-opacity:1;fill-rule:nonzero;stroke:none;stroke-width:0.352778"
       id="text26062"
       x="142.25414"
       y="127.15538"><tspan
         x="142.25414 143.28032 146.40349 149.52966 151.43459 153.47693 154.36671 156.19055 157.55724 159.4471 160.42168 162.22137 163.02571 164.36659 166.25677 167.83998 169.88264 173.00882 174.85544 175.65977 177.83549 179.92107 182.13298"
         y="127.15538"
         sodipodi:role="line"
         id="tspan26060"
         style="stroke-width:0.352778">Immediately resume CPR</tspan></text>
    <text
       style="font-variant:normal;font-weight:bold;font-stretch:normal;font-size:3.35139px;font-family:Resus;-inkscape-font-specification:Resus-Bold;writing-mode:lr-tb;fill:#231f20;fill-opacity:1;fill-rule:nonzero;stroke:none;stroke-width:0.352778"
       id="text26066"
       x="155.07468"
       y="130.68317"><tspan
         x="155.07468 156.35826 158.40428 159.74818 160.55252 162.48293 163.28726 166.40504 167.29953"
         y="130.68317"
         sodipodi:role="line"
         id="tspan26064"
         style="stroke-width:0.352778">for 2 min</tspan></text>
    <text
       style="font-variant:normal;font-weight:normal;font-stretch:normal;font-size:3.35139px;font-family:Resus;-inkscape-font-specification:Resus-Regular;writing-mode:lr-tb;fill:#231f20;fill-opacity:1;fill-rule:nonzero;stroke:none;stroke-width:0.352778"
       id="text26070"
       x="144.9955"
       y="134.21095"><tspan
         x="144.9955 147.86462 148.6656 150.63287 151.43385 154.48328 155.27588 156.79808 158.59778 159.40211 160.20309 162.14355 163.44389 165.27374 166.57643 167.89185 169.85477 171.79723 173.13945 173.94614 175.92279 177.88335"
         y="134.21095"
         sodipodi:role="line"
         id="tspan26068"
         style="stroke-width:0.352778">Minimise interruptions</tspan></text>
    <g
       id="g26072"
       transform="matrix(0.35277777,0,0,-0.35277777,136.38091,100.55395)">
      <path
         d="M 0,0 V 0 -42.52 H 146.976 V 0 Z"
         style="fill:#68a853;fill-opacity:1;fill-rule:nonzero;stroke:none"
         id="path26074" />
    </g>
    <text
       style="font-variant:normal;font-weight:bold;font-stretch:normal;font-size:4.23333px;font-family:Resus;-inkscape-font-specification:Resus-Bold;writing-mode:lr-tb;fill:#ffffff;fill-opacity:1;fill-rule:nonzero;stroke:none;stroke-width:0.352778"
       id="text26078"
       x="144.07495"
       y="107.28018"><tspan
         x="144.07495 147.35495 150.63916 154.02583 155.36441 157.82822 161.10777 164.40935 167.11446 170.13959 172.99709 175.77458 177.98692 180.53539"
         y="107.28018"
         sodipodi:role="line"
         id="tspan26076"
         style="stroke-width:0.352778">NON-SHOCKABLE</tspan></text>
    <text
       style="font-variant:normal;font-weight:bold;font-stretch:normal;font-size:3.35139px;font-family:Resus;-inkscape-font-specification:Resus-Bold;writing-mode:lr-tb;fill:#ffffff;fill-opacity:1;fill-rule:nonzero;stroke:none;stroke-width:0.352778"
       id="text26082"
       x="138.54683"
       y="111.80798"><tspan
         x="138.54683 140.6324 142.72801 145.10783 146.33276 148.25647 149.85341 151.66115 153.23965 154.60333 156.64433 157.67152 159.52016 160.8654 162.91644 164.2798 166.15321 168.19421 169.99358 170.79791 172.72832 173.53264 175.52271 177.45309 178.25743 181.37556 182.27039"
         y="111.80798"
         sodipodi:role="line"
         id="tspan26080"
         style="stroke-width:0.352778">PEA/asystole/brady &lt; 60 min</tspan></text>
    <text
       style="font-variant:normal;font-weight:bold;font-stretch:normal;font-size:1.95386px;font-family:Resus;-inkscape-font-specification:Resus-Bold;writing-mode:lr-tb;fill:#ffffff;fill-opacity:1;fill-rule:nonzero;stroke:none;stroke-width:0.352778"
       id="text26086"
       x="184.39072"
       y="110.69196"><tspan
         x="184.39072 184.93976"
         y="110.69196"
         sodipodi:role="line"
         id="tspan26084"
         style="stroke-width:0.352778">-1</tspan></text>
    <g
       id="g26088"
       transform="matrix(0.35277777,0,0,-0.35277777,18.33093,100.55395)">
      <path
         d="M 0,0 V 0 -42.52 H 146.976 V 0 Z"
         style="fill:#ed413c;fill-opacity:1;fill-rule:nonzero;stroke:none"
         id="path26090" />
    </g>
    <text
       style="font-variant:normal;font-weight:bold;font-stretch:normal;font-size:4.23333px;font-family:Resus;-inkscape-font-specification:Resus-Bold;writing-mode:lr-tb;fill:#ffffff;fill-opacity:1;fill-rule:nonzero;stroke:none;stroke-width:0.352778"
       id="text26094"
       x="31.669487"
       y="107.28018"><tspan
         x="31.669487 34.133293 37.413277 40.714851 43.41996 46.445091 49.302589 52.079659 54.292"
         y="107.28018"
         sodipodi:role="line"
         id="tspan26092"
         style="stroke-width:0.352778">SHOCKABLE</tspan></text>
    <text
       style="font-variant:normal;font-weight:bold;font-stretch:normal;font-size:3.35139px;font-family:Resus;-inkscape-font-specification:Resus-Bold;writing-mode:lr-tb;fill:#ffffff;fill-opacity:1;fill-rule:nonzero;stroke:none;stroke-width:0.352778"
       id="text26098"
       x="31.559532"
       y="111.80798"><tspan
         x="31.559532 33.855904 35.658623 36.967339 39.083733 41.124733 42.227333 43.802498 45.692345 46.719536 48.609718 50.184883 51.736565 52.540901 54.936806"
         y="111.80798"
         sodipodi:role="line"
         id="tspan26096"
         style="stroke-width:0.352778">VF/Pulseless VT</tspan></text>
    <g
       id="g26100"
       transform="matrix(0.35277777,0,0,-0.35277777,-1.7190456,268.45722)">
      <g
         id="g26102"
         clip-path="url(#clipPath26106)">
        <g
           id="g26108"
           transform="translate(399.9685,354.7593)">
          <path
             d="m 0,0 c -4.697,0 -8.504,-3.807 -8.504,-8.504 v -45.783 c 0,-4.696 3.807,-8.504 8.504,-8.504 h 129.969 c 4.696,0 8.503,3.808 8.503,8.504 v 45.783 c 0,4.697 -3.807,8.504 -8.503,8.504 z"
             style="fill:#e6f1de;fill-opacity:1;fill-rule:nonzero;stroke:none"
             id="path26110" />
        </g>
      </g>
    </g>
    <text
       style="font-variant:normal;font-weight:bold;font-stretch:normal;font-size:3.35139px;font-family:Resus;-inkscape-font-specification:Resus-Bold;writing-mode:lr-tb;fill:#231f20;fill-opacity:1;fill-rule:nonzero;stroke:none;stroke-width:0.352778"
       id="text26114"
       x="145.42503"
       y="149.74068"><tspan
         x="145.42503 147.86418 148.75565 150.51848 152.3651 153.16943 155.04253 157.08519 158.42609 160.32095 162.36497 164.23505 165.29442 166.18857 168.24464 170.09093 170.89526 171.91508 174.01976 175.32848 176.35835"
         y="149.74068"
         sodipodi:role="line"
         id="tspan26112"
         style="stroke-width:0.352778">Give adrenaline IV/IO</tspan></text>
    <text
       style="font-variant:normal;font-weight:bold;font-stretch:normal;font-size:3.35139px;font-family:Resus;-inkscape-font-specification:Resus-Bold;writing-mode:lr-tb;fill:#231f20;fill-opacity:1;fill-rule:nonzero;stroke:none;stroke-width:0.352778"
       id="text26118"
       x="153.33047"
       y="153.62123"><tspan
         x="153.33047 155.17004 157.10045 157.90479 161.03096 162.71536 164.72955 165.53389 167.2709"
         y="153.62123"
         sodipodi:role="line"
         id="tspan26116"
         style="stroke-width:0.352778">10 mcg kg</tspan></text>
    <text
       style="font-variant:normal;font-weight:bold;font-stretch:normal;font-size:1.95386px;font-family:Resus;-inkscape-font-specification:Resus-Bold;writing-mode:lr-tb;fill:#231f20;fill-opacity:1;fill-rule:nonzero;stroke:none;stroke-width:0.352778"
       id="text26122"
       x="169.38206"
       y="152.50522"><tspan
         x="169.38206 169.93111"
         y="152.50522"
         sodipodi:role="line"
         id="tspan26120"
         style="stroke-width:0.352778">-1</tspan></text>
    <text
       style="font-variant:normal;font-weight:bold;font-stretch:normal;font-size:3.35139px;font-family:Resus;-inkscape-font-specification:Resus-Bold;writing-mode:lr-tb;fill:#231f20;fill-opacity:1;fill-rule:nonzero;stroke:none;stroke-width:0.352778"
       id="text26126"
       x="147.13947"
       y="157.5018"><tspan
         x="147.13947 149.06317 150.61485 151.41919 152.99333 155.0397 157.08572 159.0999 159.90424 161.82761 163.37929 164.18362 166.23769 168.276 169.85016 171.43335 172.32784 174.37386 175.40106 177.24768"
         y="157.5018"
         sodipodi:role="line"
         id="tspan26124"
         style="stroke-width:0.352778">as soon as possible</tspan></text>
    <text
       style="font-variant:normal;font-weight:bold;font-stretch:normal;font-size:3.35139px;font-family:Resus;-inkscape-font-specification:Resus-Bold;writing-mode:lr-tb;fill:#231f20;fill-opacity:1;fill-rule:nonzero;stroke:none;stroke-width:0.352778"
       id="text26130"
       x="143.75034"
       y="161.38235"><tspan
         x="143.75034 145.63683 147.69257 149.70676 150.51109 151.90192 153.95766 155.85254 157.86671 158.67105 160.50125 162.26407 164.15895 165.61044 167.41013 168.21446 170.22899 171.87552 173.80592 174.61026 177.72806 178.62254"
         y="161.38235"
         sodipodi:role="line"
         id="tspan26128"
         style="stroke-width:0.352778">and then every 3–5 min</tspan></text>
    <g
       id="g26132"
       transform="matrix(0.35277777,0,0,-0.35277777,44.24962,160.01407)">
      <path
         d="M 0,0 V 3.043"
         style="fill:none;stroke:#f4ef92;stroke-width:2.835;stroke-linecap:round;stroke-linejoin:round;stroke-miterlimit:4;stroke-dasharray:0, 6.087;stroke-dashoffset:0;stroke-opacity:1"
         id="path26134" />
    </g>
    <g
       id="g26136"
       transform="matrix(0.35277777,0,0,-0.35277777,44.24962,162.16157)">
      <path
         d="m 0,0 v 0 m 0,12.175 v 0"
         style="fill:none;stroke:#f4ef92;stroke-width:2.835;stroke-linecap:round;stroke-linejoin:round;stroke-miterlimit:4;stroke-dasharray:none;stroke-opacity:1"
         id="path26138" />
    </g>
    <g
       id="g26140"
       transform="matrix(0.35277777,0,0,-0.35277777,44.24962,163.95421)">
      <path
         d="M 0,0 -7.149,7.69 H 7.149 Z"
         style="fill:#f4ef92;fill-opacity:1;fill-rule:nonzero;stroke:none"
         id="path26142" />
    </g>
    <g
       id="g26144"
       transform="matrix(0.35277777,0,0,-0.35277777,103.27871,38.293828)">
      <path
         d="M 0,0 V 11.926"
         style="fill:none;stroke:#90a6c8;stroke-width:2.835;stroke-linecap:butt;stroke-linejoin:miter;stroke-miterlimit:4;stroke-dasharray:none;stroke-opacity:1"
         id="path26146" />
    </g>
    <g
       id="g26148"
       transform="matrix(0.35277777,0,0,-0.35277777,103.27871,40.086504)">
      <path
         d="M 0,0 -7.149,7.689 H 7.149 Z"
         style="fill:#90a6c8;fill-opacity:1;fill-rule:nonzero;stroke:none"
         id="path26150" />
    </g>
    <g
       id="g26152"
       transform="matrix(0.35277777,0,0,-0.35277777,103.27871,54.65485)">
      <path
         d="M 0,0 V 11.926"
         style="fill:none;stroke:#90a6c8;stroke-width:2.835;stroke-linecap:butt;stroke-linejoin:miter;stroke-miterlimit:4;stroke-dasharray:none;stroke-opacity:1"
         id="path26154" />
    </g>
    <g
       id="g26156"
       transform="matrix(0.35277777,0,0,-0.35277777,103.27871,56.44749)">
      <path
         d="M 0,0 -7.149,7.69 H 7.149 Z"
         style="fill:#90a6c8;fill-opacity:1;fill-rule:nonzero;stroke:none"
         id="path26158" />
    </g>
    <g
       id="g26160"
       transform="matrix(0.35277777,0,0,-0.35277777,103.27871,83.783446)">
      <path
         d="M 0,0 V 11.926"
         style="fill:none;stroke:#90a6c8;stroke-width:2.835;stroke-linecap:butt;stroke-linejoin:miter;stroke-miterlimit:4;stroke-dasharray:none;stroke-opacity:1"
         id="path26162" />
    </g>
    <g
       id="g26164"
       transform="matrix(0.35277777,0,0,-0.35277777,103.27871,85.57612)">
      <path
         d="M 0,0 -7.149,7.69 H 7.149 Z"
         style="fill:#90a6c8;fill-opacity:1;fill-rule:nonzero;stroke:none"
         id="path26166" />
    </g>
    <path
       d="m 60.27882,34.086565 h 86.00012 V 19.935239 H 60.27882 Z"
       style="fill:#1f5735;fill-opacity:1;fill-rule:nonzero;stroke:none;stroke-width:0.352778"
       id="path26168" />
    <text
       style="font-variant:normal;font-weight:bold;font-stretch:normal;font-size:4.93889px;font-family:Resus;-inkscape-font-specification:Resus-Bold;writing-mode:lr-tb;fill:#ffffff;fill-opacity:1;fill-rule:nonzero;stroke:none;stroke-width:0.352778"
       id="text26172"
       x="75.268494"
       y="28.749352"><tspan
         x="75.268494 78.427902 81.1754 83.590027 86.566696 89.525085 92.491875 93.761177 96.029129 98.750458 99.935776 102.39534 105.12505 107.05518 110.01357 111.27353 113.96768 116.43715 117.62244 120.3522 122.307 124.22921 126.96494 129.2388"
         y="28.749352"
         sodipodi:role="line"
         id="tspan26170"
         style="stroke-width:0.352778">Recognise cardiac arrest</tspan></text>
    <g
       id="g26174"
       transform="matrix(0.35277777,0,0,-0.35277777,-1.7190456,268.45722)">
      <g
         id="g26176"
         clip-path="url(#clipPath26180)">
        <g
           id="g26182"
           transform="translate(184.2458,647.3501)">
          <path
             d="m 0,0 c -4.697,0 -8.504,-3.807 -8.504,-8.504 v -12.361 c 0,-4.697 3.807,-8.504 8.504,-8.504 h 226.772 c 4.696,0 8.504,3.807 8.504,8.504 v 12.361 c 0,4.697 -3.808,8.504 -8.504,8.504 z"
             style="fill:#90a6c8;fill-opacity:1;fill-rule:nonzero;stroke:none"
             id="path26184" />
        </g>
      </g>
    </g>
    <text
       style="font-variant:normal;font-weight:bold;font-stretch:normal;font-size:4.93889px;font-family:Resus;-inkscape-font-specification:Resus-Bold;writing-mode:lr-tb;fill:#231f20;fill-opacity:1;fill-rule:nonzero;stroke:none;stroke-width:0.352778"
       id="text26188"
       x="82.994858"
       y="47.005386"><tspan
         x="82.994858 86.205124 88.910645 90.386398 91.902649 93.087982 94.92424 97.888084 99.868576 101.05391 104.03302 106.76775 108.278 111.24627 112.43159 115.14211 117.85254 120.56305"
         y="47.005386"
         sodipodi:role="line"
         id="tspan26186"
         style="stroke-width:0.352778">Call for help 2222</tspan></text>
    <g
       id="g26190"
       transform="matrix(0.35277777,0,0,-0.35277777,-1.7190456,268.45722)">
      <g
         id="g26192"
         clip-path="url(#clipPath26196)">
        <g
           id="g26198"
           transform="translate(184.2458,600.9727)">
          <path
             d="m 0,0 c -4.697,0 -8.504,-3.807 -8.504,-8.504 v -48.554 c 0,-4.696 3.807,-8.504 8.504,-8.504 h 226.772 c 4.696,0 8.504,3.808 8.504,8.504 v 48.554 c 0,4.697 -3.808,8.504 -8.504,8.504 z"
             style="fill:#cbd5e6;fill-opacity:1;fill-rule:nonzero;stroke:none"
             id="path26200" />
        </g>
      </g>
    </g>
    <text
       style="font-variant:normal;font-weight:bold;font-stretch:normal;font-size:4.93889px;font-family:Resus;-inkscape-font-specification:Resus-Bold;writing-mode:lr-tb;fill:#231f20;fill-opacity:1;fill-rule:nonzero;stroke:none;stroke-width:0.352778"
       id="text26204"
       x="73.765686"
       y="62.252968"><tspan
         x="73.765686 76.878677 79.842987 84.396149 88.953262 91.696312 94.664635 97.094543 99.76548 101.43583 103.85046 106.8148 109.73464 111.73143 112.99878 115.97744 118.94561 121.66702 122.85239 126.00438 129.02258"
         y="62.252968"
         sodipodi:role="line"
         id="tspan26202"
         style="stroke-width:0.352778">Commence/continue CPR</tspan></text>
    <text
       style="font-variant:normal;font-weight:bold;font-stretch:normal;font-size:4.93889px;font-family:Resus;-inkscape-font-specification:Resus-Bold;writing-mode:lr-tb;fill:#231f20;fill-opacity:1;fill-rule:nonzero;stroke:none;stroke-width:0.352778"
       id="text26208"
       x="62.667717"
       y="67.191856"><tspan
         x="62.667717 64.283737 67.12854 68.313873 69.581192 72.549454 73.777756 75.774551 77.03447 79.73999 81.256226 82.441559 85.414276 87.33699 90.047455 92.681366 94.678154 97.657333 99.944016 101.12938 103.12615 106.10524 108.84787 111.81614 113.00146 116.27792 119.64132 120.82662 122.78442 125.41837 127.41518 128.67511 131.64339 132.82872 135.38855 138.08371 139.37671 142.00221"
         y="67.191856"
         sodipodi:role="line"
         id="tspan26206"
         style="stroke-width:0.352778">(5 initial breaths then CV ratio 15:2)</tspan></text>
    <text
       style="font-variant:normal;font-weight:bold;font-stretch:normal;font-size:3.35139px;font-family:Resus;-inkscape-font-specification:Resus-Bold;writing-mode:lr-tb;fill:#231f20;fill-opacity:1;fill-rule:nonzero;stroke:none;stroke-width:0.352778"
       id="text26212"
       x="80.934387"
       y="72.719604"><tspan
         x="80.934387 83.165741 84.604828 86.013412 87.876785 89.588669 91.602852 92.407196 94.45491 96.324303 97.667213 98.561722 100.61271 101.9744 102.86118 103.89812 104.97686 106.80109 108.16477 110.21076 111.39283 112.63049 115.75101 117.79669 119.84435 120.71373 122.07745 124.12347"
         y="72.719604"
         sodipodi:role="line"
         id="tspan26210"
         style="stroke-width:0.352778">Attach defibrillator/monitor</tspan></text>
    <text
       style="font-variant:normal;font-weight:bold;font-stretch:normal;font-size:3.35139px;font-family:Resus;-inkscape-font-specification:Resus-Bold;writing-mode:lr-tb;fill:#231f20;fill-opacity:1;fill-rule:nonzero;stroke:none;stroke-width:0.352778"
       id="text26216"
       x="85.071518"
       y="77.247398"><tspan
         x="85.071518 87.993591 88.888412 90.936111 91.830925 94.949081 95.84388 97.418037 99.264648 100.06902 100.96383 102.98137 104.34801 106.24292 107.60462 108.97897 111.01999 113.04216 114.43303 115.32285 117.36887 119.42453"
         y="77.247398"
         sodipodi:role="line"
         id="tspan26214"
         style="stroke-width:0.352778">Minimise interruptions</tspan></text>
    <g
       id="g26218"
       transform="matrix(0.35277777,0,0,-0.35277777,-1.7190456,268.45722)">
      <g
         id="g26220"
         clip-path="url(#clipPath26224)">
        <g
           id="g26226"
           transform="translate(184.252,518.4033)">
          <path
             d="m 0,0 c -4.697,0 -8.504,-3.807 -8.504,-8.504 v -12.361 c 0,-4.697 3.807,-8.504 8.504,-8.504 h 226.772 c 4.696,0 8.504,3.807 8.504,8.504 v 12.361 c 0,4.697 -3.808,8.504 -8.504,8.504 z"
             style="fill:#cbd5e6;fill-opacity:1;fill-rule:nonzero;stroke:none"
             id="path26228" />
        </g>
      </g>
    </g>
    <text
       style="font-variant:normal;font-weight:bold;font-stretch:normal;font-size:4.93889px;font-family:Resus;-inkscape-font-specification:Resus-Bold;writing-mode:lr-tb;fill:#231f20;fill-opacity:1;fill-rule:nonzero;stroke:none;stroke-width:0.352778"
       id="text26232"
       x="86.44223"
       y="92.494919"><tspan
         x="86.44223 89.87674 92.143684 94.410645 97.146286 99.413269 101.69997 102.88529 104.83961 107.70319 110.4487 112.4455 115.4207"
         y="92.494919"
         sodipodi:role="line"
         id="tspan26230"
         style="stroke-width:0.352778">Assess rhythm</tspan></text>
    <text
       style="font-variant:normal;font-weight:bold;font-stretch:normal;font-size:3.35139px;font-family:Resus;-inkscape-font-specification:Resus-Bold;writing-mode:lr-tb;fill:#231f20;fill-opacity:1;fill-rule:nonzero;stroke:none;stroke-width:0.352778"
       id="text26236"
       x="18.32461"
       y="204.03903"><tspan
         x="18.32461 20.829447 22.87211 24.233788 25.128273 27.183678 29.197853 30.00219 32.178246 34.26281"
         y="204.03903"
         sodipodi:role="line"
         id="tspan26234"
         style="stroke-width:0.352778">During CPR</tspan></text>
    <text
       style="font-variant:normal;font-weight:bold;font-stretch:normal;font-size:2.99861px;font-family:Resus;-inkscape-font-specification:Resus-Bold;writing-mode:lr-tb;fill:#231f20;fill-opacity:1;fill-rule:nonzero;stroke:none;stroke-width:0.352778"
       id="text26240"
       x="18.32461"
       y="208.39041"><tspan
         x="18.32461 19.763956"
         y="208.39041"
         sodipodi:role="line"
         id="tspan26238"
         style="stroke-width:0.352778">•</tspan></text>
    <text
       style="font-variant:normal;font-weight:bold;font-stretch:normal;font-size:2.99861px;font-family:Resus;-inkscape-font-specification:Resus-Bold;writing-mode:lr-tb;fill:#231f20;fill-opacity:1;fill-rule:nonzero;stroke:none;stroke-width:0.352778"
       id="text26244"
       x="21.32464"
       y="208.39041"><tspan
         x="21.32464 23.166985 25.018318 26.447166 28.287102 29.499748 31.151985 31.871651 33.716087 34.53051 36.370461 38.17263 38.892296 40.740044 42.580284 44.266701 45.227455 46.018501 47.336678 48.946938 49.666603 51.210289 53.061638 54.765144 56.189186 57.433601 58.153267 59.664574 61.507515 64.314529 66.162277 67.374908 69.078415 70.499466 71.928604 72.737625 74.580566 76.431915 77.820267 78.539948 80.240143 81.452484 83.104721 83.824387 85.669434 87.372345 88.333099 89.142731 90.73349 92.441216 93.653824 95.369942 97.18412 98.026733"
         y="208.39041"
         sodipodi:role="line"
         id="tspan26242"
         style="stroke-width:0.352778">Ensure high quality chest compressions are delivered:</tspan></text>
    <text
       style="font-variant:normal;font-weight:normal;font-stretch:normal;font-size:2.99861px;font-family:Resus;-inkscape-font-specification:Resus-Regular;writing-mode:lr-tb;fill:#231f20;fill-opacity:1;fill-rule:nonzero;stroke:none;stroke-width:0.352778"
       id="text26248"
       x="21.32464"
       y="211.74181"><tspan
         x="21.32464 22.763971 24.32325 26.249855 28.031624 29.210381 30.356453 32.022179 33.585655 34.788094 35.507759 36.693413 38.288673 39.466225 41.089684 41.83033 42.549995 44.333275 45.983406 47.734901 48.949043 50.697227 51.416893 53.07003 54.859596 56.607796 57.327461 58.464226 60.233116 61.111107 61.965706 62.685371 63.831451 65.497177 66.949112 68.724289 69.448151"
         y="211.74181"
         sodipodi:role="line"
         id="tspan26246"
         style="stroke-width:0.352778">– Correct rate, depth and full recoil</tspan></text>
    <text
       style="font-variant:normal;font-weight:normal;font-stretch:normal;font-size:2.99861px;font-family:Resus;-inkscape-font-specification:Resus-Regular;writing-mode:lr-tb;fill:#231f20;fill-opacity:1;fill-rule:nonzero;stroke:none;stroke-width:0.352778"
       id="text26252"
       x="18.32461"
       y="216.0932"><tspan
         x="18.32461 19.763956 21.323221 23.188667 24.330528 26.056831 27.638893 28.379555 30.162834 31.773079 32.492744 34.466133 37.046135 39.058205 39.77787 42.119194 42.847252 44.061394 45.809578 46.529243 48.171593 50.000435 51.773521 54.364326 55.083992 56.804893 58.450523 59.990318 61.773582 63.424026 65.172226 65.891891 66.891922 68.619125 69.338791 71.13736 72.787796 73.986038 75.361206 77.142975 78.891159 79.61084 81.263962 83.049942 84.835907 85.977478 87.760162 89.392593 90.881119 92.546532"
         y="216.0932"
         sodipodi:role="line"
         id="tspan26250"
         style="stroke-width:0.352778">• Provide BMV with 100% oxygen (2 person approach)</tspan></text>
    <text
       style="font-variant:normal;font-weight:normal;font-stretch:normal;font-size:2.99861px;font-family:Resus;-inkscape-font-specification:Resus-Regular;writing-mode:lr-tb;fill:#231f20;fill-opacity:1;fill-rule:nonzero;stroke:none;stroke-width:0.352778"
       id="text26256"
       x="18.32461"
       y="220.44458"><tspan
         x="18.32461 19.763956 21.323221 23.188667 24.330528 26.056831 27.638893 28.379555 30.162834 31.773079 32.492744 33.944374 35.726158 37.476143 38.690285 39.421043 41.201912 42.985191 44.768761 46.537041 47.883415 48.603096 50.091301 51.880867 53.528313 54.920555 56.123009 56.842674 58.294594 60.076378 62.823708 64.609375 65.755447 67.402893 68.763962 70.12352 70.858185 72.639969 74.407944 75.754318 76.473984 78.815308 80.604874 82.255005 84.003204 84.72287 86.333115 87.052795 88.266922 89.452576 91.085014 92.573524 94.363098 96.000366 97.640907 98.495499 99.215195 100.4251 102.19492 103.99371 105.60397 106.32368 107.04578 108.39211 109.11182 109.84253 111.59076 112.3104 114.09219 115.00644 116.63892 118.09354 119.7188"
         y="220.44458"
         sodipodi:role="line"
         id="tspan26254"
         style="stroke-width:0.352778">• Provide continuous chest compressions when a tracheal tube is in place.</tspan></text>
    <text
       style="font-variant:normal;font-weight:normal;font-stretch:normal;font-size:2.99861px;font-family:Resus;-inkscape-font-specification:Resus-Regular;writing-mode:lr-tb;fill:#231f20;fill-opacity:1;fill-rule:nonzero;stroke:none;stroke-width:0.352778"
       id="text26260"
       x="18.32461"
       y="224.79599"><tspan
         x="18.32461 19.763956 21.323221 23.24984 25.031609 27.778938 29.577797 31.206947 32.384499 34.03463 35.78463 36.987068 37.706734 39.492714 40.634575 42.360878 43.94294 44.683601 46.466881 48.117317 49.315559 50.661934 51.381599 52.891396 54.544533 56.292732 57.012398 58.464317 60.246101 62.014076 63.373657 64.114014 65.897293 67.547714 68.696198 69.415848 71.068985 72.817184 73.53685 75.169296 76.943268 78.528336 80.181473 81.970734 83.425369 85.091095 86.839279 87.55896 89.212082 89.942841 91.189362 93.534874 95.10437 96.660637 97.380341 99.033142 100.82272 102.5709 103.2906 104.80037 106.45351 108.23948 110.02905 111.82794 113.59739 114.78302 116.43616 118.22215 119.94394 121.36567 122.10629"
         y="224.79599"
         sodipodi:role="line"
         id="tspan26258"
         style="stroke-width:0.352778">• Competent providers can consider an advanced airway and capnography,</tspan></text>
    <text
       style="font-variant:normal;font-weight:normal;font-stretch:normal;font-size:2.99861px;font-family:Resus;-inkscape-font-specification:Resus-Regular;writing-mode:lr-tb;fill:#231f20;fill-opacity:1;fill-rule:nonzero;stroke:none;stroke-width:0.352778"
       id="text26264"
       x="21.32464"
       y="228.14737"><tspan
         x="21.32464 22.977777 24.767342 26.515526 27.235191 28.772285 30.422417 32.172401 33.386543 34.110405 35.024681 36.619942 37.797508 39.407753 40.127419 41.722679 42.925133 43.644798 45.255043 45.974724 47.160362 48.755623 49.933189 51.543434 52.2631 53.293724 55.079704 56.225761 57.863304 59.458565 60.672707 62.440697 63.787079 64.506744 67.248077 67.979126 69.759705 71.52948 72.707047"
         y="228.14737"
         sodipodi:role="line"
         id="tspan26262"
         style="stroke-width:0.352778">and ventilate at a rate (breaths minute</tspan></text>
    <text
       style="font-variant:normal;font-weight:normal;font-stretch:normal;font-size:1.74819px;font-family:Resus;-inkscape-font-specification:Resus-Regular;writing-mode:lr-tb;fill:#231f20;fill-opacity:1;fill-rule:nonzero;stroke:none;stroke-width:0.352778"
       id="text26268"
       x="74.450745"
       y="227.14883"><tspan
         x="74.450745 74.931503"
         y="227.14883"
         sodipodi:role="line"
         id="tspan26266"
         style="stroke-width:0.352778">-1</tspan></text>
    <text
       style="font-variant:normal;font-weight:normal;font-stretch:normal;font-size:2.99861px;font-family:Resus;-inkscape-font-specification:Resus-Regular;writing-mode:lr-tb;fill:#231f20;fill-opacity:1;fill-rule:nonzero;stroke:none;stroke-width:0.352778"
       id="text26272"
       x="75.872665"
       y="228.14737"><tspan
         x="75.872665 76.883194 77.602859 79.345047 80.481827"
         y="228.14737"
         sodipodi:role="line"
         id="tspan26270"
         style="stroke-width:0.352778">) of:</tspan></text>
    <g
       id="g26274"
       transform="matrix(0.35277777,0,0,-0.35277777,21.32464,229.60817)">
      <path
         d="M 0,0 H 55.626"
         style="fill:none;stroke:#918f90;stroke-width:0.283;stroke-linecap:butt;stroke-linejoin:miter;stroke-miterlimit:10;stroke-dasharray:none;stroke-opacity:1"
         id="path26276" />
    </g>
    <g
       id="g26278"
       transform="matrix(0.35277777,0,0,-0.35277777,21.37463,234.49139)">
      <path
         d="M 0,0 V 13.7"
         style="fill:none;stroke:#918f90;stroke-width:0.283;stroke-linecap:butt;stroke-linejoin:miter;stroke-miterlimit:10;stroke-dasharray:none;stroke-opacity:1"
         id="path26280" />
    </g>
    <g
       id="g26282"
       transform="matrix(0.35277777,0,0,-0.35277777,40.94826,229.60817)">
      <path
         d="M 0,0 H 59.502"
         style="fill:none;stroke:#918f90;stroke-width:0.283;stroke-linecap:butt;stroke-linejoin:miter;stroke-miterlimit:10;stroke-dasharray:none;stroke-opacity:1"
         id="path26284" />
    </g>
    <g
       id="g26286"
       transform="matrix(0.35277777,0,0,-0.35277777,40.94826,234.49139)">
      <path
         d="M 0,0 V 13.7"
         style="fill:none;stroke:#918f90;stroke-width:0.283;stroke-linecap:butt;stroke-linejoin:miter;stroke-miterlimit:10;stroke-dasharray:none;stroke-opacity:1"
         id="path26288" />
    </g>
    <g
       id="g26290"
       transform="matrix(0.35277777,0,0,-0.35277777,61.93906,229.60817)">
      <path
         d="M 0,0 H 67.819"
         style="fill:none;stroke:#918f90;stroke-width:0.283;stroke-linecap:butt;stroke-linejoin:miter;stroke-miterlimit:10;stroke-dasharray:none;stroke-opacity:1"
         id="path26292" />
    </g>
    <g
       id="g26294"
       transform="matrix(0.35277777,0,0,-0.35277777,61.93906,234.49139)">
      <path
         d="M 0,0 V 13.7"
         style="fill:none;stroke:#918f90;stroke-width:0.283;stroke-linecap:butt;stroke-linejoin:miter;stroke-miterlimit:10;stroke-dasharray:none;stroke-opacity:1"
         id="path26296" />
    </g>
    <g
       id="g26298"
       transform="matrix(0.35277777,0,0,-0.35277777,85.86406,229.60817)">
      <path
         d="M 0,0 H 77.717"
         style="fill:none;stroke:#918f90;stroke-width:0.283;stroke-linecap:butt;stroke-linejoin:miter;stroke-miterlimit:10;stroke-dasharray:none;stroke-opacity:1"
         id="path26300" />
    </g>
    <g
       id="g26302"
       transform="matrix(0.35277777,0,0,-0.35277777,85.86406,234.49139)">
      <path
         d="M 0,0 V 13.7"
         style="fill:none;stroke:#918f90;stroke-width:0.283;stroke-linecap:butt;stroke-linejoin:miter;stroke-miterlimit:10;stroke-dasharray:none;stroke-opacity:1"
         id="path26304" />
    </g>
    <g
       id="g26306"
       transform="matrix(0.35277777,0,0,-0.35277777,113.23089,234.49139)">
      <path
         d="M 0,0 V 13.7"
         style="fill:none;stroke:#918f90;stroke-width:0.283;stroke-linecap:butt;stroke-linejoin:miter;stroke-miterlimit:10;stroke-dasharray:none;stroke-opacity:1"
         id="path26308" />
    </g>
    <g
       id="g26310"
       transform="matrix(0.35277777,0,0,-0.35277777,21.32464,234.54141)">
      <path
         d="M 0,0 H 55.626"
         style="fill:none;stroke:#918f90;stroke-width:0.283;stroke-linecap:butt;stroke-linejoin:miter;stroke-miterlimit:10;stroke-dasharray:none;stroke-opacity:1"
         id="path26312" />
    </g>
    <g
       id="g26314"
       transform="matrix(0.35277777,0,0,-0.35277777,40.94826,234.54141)">
      <path
         d="M 0,0 H 59.502"
         style="fill:none;stroke:#918f90;stroke-width:0.283;stroke-linecap:butt;stroke-linejoin:miter;stroke-miterlimit:10;stroke-dasharray:none;stroke-opacity:1"
         id="path26316" />
    </g>
    <g
       id="g26318"
       transform="matrix(0.35277777,0,0,-0.35277777,61.93906,234.54141)">
      <path
         d="M 0,0 H 67.819"
         style="fill:none;stroke:#918f90;stroke-width:0.283;stroke-linecap:butt;stroke-linejoin:miter;stroke-miterlimit:10;stroke-dasharray:none;stroke-opacity:1"
         id="path26320" />
    </g>
    <g
       id="g26322"
       transform="matrix(0.35277777,0,0,-0.35277777,85.86406,234.54141)">
      <path
         d="M 0,0 H 77.717"
         style="fill:none;stroke:#918f90;stroke-width:0.283;stroke-linecap:butt;stroke-linejoin:miter;stroke-miterlimit:10;stroke-dasharray:none;stroke-opacity:1"
         id="path26324" />
    </g>
    <text
       style="font-variant:normal;font-weight:normal;font-stretch:normal;font-size:2.99861px;font-family:Resus;-inkscape-font-specification:Resus-Regular;writing-mode:lr-tb;fill:#040606;fill-opacity:1;fill-rule:nonzero;stroke:none;stroke-width:0.352778"
       id="text26328"
       x="22.78573"
       y="233.1306"><tspan
         x="22.78573 23.639442 25.390633 26.524406 28.177238 29.928429 31.190544 32.527626 33.316261 34.035927 35.731331"
         y="233.1306"
         sodipodi:role="line"
         id="tspan26326"
         style="stroke-width:0.352778">Infants: 25</tspan></text>
    <text
       style="font-variant:normal;font-weight:normal;font-stretch:normal;font-size:2.99861px;font-family:Resus;-inkscape-font-specification:Resus-Regular;writing-mode:lr-tb;fill:#040606;fill-opacity:1;fill-rule:nonzero;stroke:none;stroke-width:0.352778"
       id="text26332"
       x="42.359367"
       y="233.1306"><tspan
         x="42.359367 44.048485 45.611061 47.338264 48.05793 49.596214 51.233452 52.886589 54.084831 55.421913 56.210548 56.930214 58.631325"
         y="233.1306"
         sodipodi:role="line"
         id="tspan26330"
         style="stroke-width:0.352778">1–8 years: 20</tspan></text>
    <text
       style="font-variant:normal;font-weight:normal;font-stretch:normal;font-size:2.99861px;font-family:Resus;-inkscape-font-specification:Resus-Regular;writing-mode:lr-tb;fill:#040606;fill-opacity:1;fill-rule:nonzero;stroke:none;stroke-width:0.352778"
       id="text26336"
       x="64.069839"
       y="233.1306"><tspan
         x="64.069839 65.920288 67.181503 68.737183 70.464386 71.184052 72.722031 74.359573 76.012711 77.210953 78.548035 79.33667 80.056335 81.641708"
         y="233.1306"
         sodipodi:role="line"
         id="tspan26334"
         style="stroke-width:0.352778">8–12 years: 15</tspan></text>
    <text
       style="font-variant:normal;font-weight:normal;font-stretch:normal;font-size:2.99861px;font-family:Resus;-inkscape-font-specification:Resus-Regular;writing-mode:lr-tb;fill:#040606;fill-opacity:1;fill-rule:nonzero;stroke:none;stroke-width:0.352778"
       id="text26340"
       x="87.275177"
       y="233.1306"><tspan
         x="87.275177 89.002365 89.722031 91.27771 93.004929 93.724617 95.262619 96.900116 98.553238 99.75148 101.08856 101.8772 102.59692 104.23921 106.13226 107.39346 108.94913"
         y="233.1306"
         sodipodi:role="line"
         id="tspan26338"
         style="stroke-width:0.352778">&gt; 12 years: 10–12</tspan></text>
    <text
       style="font-variant:normal;font-weight:normal;font-stretch:normal;font-size:2.99861px;font-family:Resus;-inkscape-font-specification:Resus-Regular;writing-mode:lr-tb;fill:#231f20;fill-opacity:1;fill-rule:nonzero;stroke:none;stroke-width:0.352778"
       id="text26344"
       x="18.32461"
       y="238.53192"><tspan
         x="18.32461 19.763956 21.323221 23.266624 24.967735 26.342903 27.842812 29.611687 30.525963 32.1791 33.327568 34.047234 35.67968 37.133095 38.58773 40.235161 41.59623 42.942604 43.662285 44.518684 46.365227 47.53289 48.403984"
         y="238.53192"
         sodipodi:role="line"
         id="tspan26342"
         style="stroke-width:0.352778">• Vascular access IV/IO</tspan></text>
    <text
       style="font-variant:normal;font-weight:normal;font-stretch:normal;font-size:2.99861px;font-family:Resus;-inkscape-font-specification:Resus-Regular;writing-mode:lr-tb;fill:#231f20;fill-opacity:1;fill-rule:nonzero;stroke:none;stroke-width:0.352778"
       id="text26348"
       x="18.32461"
       y="242.88322"><tspan
         x="18.32461 19.763956 21.323221 23.67234 25.461906 26.916527 28.526787 29.246452 30.638405 31.872337 33.525475 34.778893 35.956444 37.622169 39.397346 40.138008 40.857674 42.62986 43.362114 44.899498 46.509758 47.229424 49.243599 51.013374 52.159447 53.809883 55.577858 57.218391 58.112892 58.843651 60.632912 62.243172 62.962837 64.569199 66.106293 67.756729 69.014343 70.570618 71.290283 73.091248 74.0811 75.808289 76.527969 79.269287 80.000061"
         y="242.88322"
         sodipodi:role="line"
         id="tspan26346"
         style="stroke-width:0.352778">• Once started, give Adrenaline every 3-5 min</tspan></text>
    <text
       style="font-variant:normal;font-weight:normal;font-stretch:normal;font-size:2.99861px;font-family:Resus;-inkscape-font-specification:Resus-Regular;writing-mode:lr-tb;fill:#231f20;fill-opacity:1;fill-rule:nonzero;stroke:none;stroke-width:0.352778"
       id="text26352"
       x="18.32461"
       y="247.2346"><tspan
         x="18.32461 19.763956 21.323221 23.899925 25.629234 27.206505 27.938164 30.687584 32.456764 35.170204 35.889885 37.249443 37.981102 39.770683 41.539864 42.394768 44.005013 44.724678 46.507957 48.279243 49.654396 51.264656 51.984322 53.998787 55.767967 56.91404 58.564171 60.333351 61.9739 62.868385 63.600052 65.389618 66.999878 67.719543 69.446442 70.166107 72.924225"
         y="247.2346"
         sodipodi:role="line"
         id="tspan26350"
         style="stroke-width:0.352778">• Maximum single dose Adrenaline 1 mg</tspan></text>
    <text
       style="font-variant:normal;font-weight:normal;font-stretch:normal;font-size:2.99861px;font-family:Resus;-inkscape-font-specification:Resus-Regular;writing-mode:lr-tb;fill:#231f20;fill-opacity:1;fill-rule:nonzero;stroke:none;stroke-width:0.352778"
       id="text26356"
       x="18.32461"
       y="251.58586"><tspan
         x="18.32461 19.763956 21.323221 23.899925 25.629234 27.2071 27.937859 30.687294 32.457069 35.170815 35.89048 37.249748 37.980507 39.770073 41.539253 42.393867 44.004112 44.723778 46.507057 48.278343 49.653496 51.263756 51.983421 54.032677 56.7743 57.508965 59.307823 61.076103 62.72924 63.871124 65.652893 67.442474 69.052719 69.772385 71.516083 73.34494 75.072144 75.791794 78.549927"
         y="251.58586"
         sodipodi:role="line"
         id="tspan26354"
         style="stroke-width:0.352778">• Maximum single dose Amiodarone 300 mg</tspan></text>
    <text
       style="font-variant:normal;font-weight:bold;font-stretch:normal;font-size:3.35139px;font-family:Resus;-inkscape-font-specification:Resus-Bold;writing-mode:lr-tb;fill:#231f20;fill-opacity:1;fill-rule:nonzero;stroke:none;stroke-width:0.352778"
       id="text26360"
       x="136.38106"
       y="204.03903"><tspan
         x="136.38106 137.42166 139.4697 141.36456 143.3821 144.77293 145.64093 147.01903 148.81873 149.62306 151.50955 153.56529 155.57948 156.38382 157.77464 159.11554 160.98962 162.8138 164.20462 165.00896 166.3495 168.18004 169.94287 171.83774 173.21884 174.80205 175.69653 177.74255 178.76976 180.61636 181.4207 183.12354 184.9906 187.04333 188.61781 190.50766"
         y="204.03903"
         sodipodi:role="line"
         id="tspan26358"
         style="stroke-width:0.352778">Identify and treat reversible causes</tspan></text>
    <text
       style="font-variant:normal;font-weight:normal;font-stretch:normal;font-size:2.99861px;font-family:Resus;-inkscape-font-specification:Resus-Regular;writing-mode:lr-tb;fill:#231f20;fill-opacity:1;fill-rule:nonzero;stroke:none;stroke-width:0.352778"
       id="text26364"
       x="136.38106"
       y="208.21402"><tspan
         x="136.38106 137.82039 139.37965 141.6832 143.26526 145.06413 146.78532 148.3632 149.08557"
         y="208.21402"
         sodipodi:role="line"
         id="tspan26362"
         style="stroke-width:0.352778">• Hypoxia</tspan></text>
    <text
       style="font-variant:normal;font-weight:normal;font-stretch:normal;font-size:2.99861px;font-family:Resus;-inkscape-font-specification:Resus-Regular;writing-mode:lr-tb;fill:#231f20;fill-opacity:1;fill-rule:nonzero;stroke:none;stroke-width:0.352778"
       id="text26368"
       x="136.38106"
       y="212.38904"><tspan
         x="136.38106 137.82039 139.37965 141.6832 143.26526 145.06413 146.79134 148.32661 150.10359 151.01787 152.65031 154.30075 157.04239 157.76474"
         y="212.38904"
         sodipodi:role="line"
         id="tspan26366"
         style="stroke-width:0.352778">• Hypovolaemia</tspan></text>
    <text
       style="font-variant:normal;font-weight:normal;font-stretch:normal;font-size:2.99861px;font-family:Resus;-inkscape-font-specification:Resus-Regular;writing-mode:lr-tb;fill:#231f20;fill-opacity:1;fill-rule:nonzero;stroke:none;stroke-width:0.352778"
       id="text26372"
       x="136.38106"
       y="216.56403"><tspan
         x="136.38106 137.82039 139.37965 141.6832 143.26646 145.06532 146.71576 147.89452 149.43071 151.07124 151.98552 153.61797 155.2684 158.00914 158.73151 160.41461 161.15527 161.87494 163.59674 165.18001 166.97888 168.62932 169.77269 171.28249 172.92302 173.77913 175.28893 176.92137 178.57181 181.31255 182.03491 183.71802 184.45868"
         y="216.56403"
         sodipodi:role="line"
         id="tspan26370"
         style="stroke-width:0.352778">• Hyperkalaemia, hypercalcaemia,</tspan></text>
    <text
       style="font-variant:normal;font-weight:normal;font-stretch:normal;font-size:2.99861px;font-family:Resus;-inkscape-font-specification:Resus-Regular;writing-mode:lr-tb;fill:#231f20;fill-opacity:1;fill-rule:nonzero;stroke:none;stroke-width:0.352778"
       id="text26376"
       x="139.38107"
       y="219.73903"><tspan
         x="139.38107 141.10287 142.68494 144.48381 146.13394 147.3127 150.05522 151.68648 153.45566 155.24522 156.89267 158.26782 159.91797 162.65959 163.38196 165.06508 165.80574 166.52541 168.24721 169.82927 171.62814 173.427 175.19618 176.00432 177.5414 179.05119 180.68245 182.33289 185.07451 185.79688"
         y="219.73903"
         sodipodi:role="line"
         id="tspan26374"
         style="stroke-width:0.352778">hypermagnesemia, hypoglycaemia</tspan></text>
    <text
       style="font-variant:normal;font-weight:normal;font-stretch:normal;font-size:2.99861px;font-family:Resus;-inkscape-font-specification:Resus-Regular;writing-mode:lr-tb;fill:#231f20;fill-opacity:1;fill-rule:nonzero;stroke:none;stroke-width:0.352778"
       id="text26380"
       x="136.38106"
       y="223.91405"><tspan
         x="136.38106 137.82039 139.37965 141.6832 143.26526 145.06413 146.94545 147.91701 149.11855 150.84035 152.42242 154.22128 155.87172 157.12485 158.33928 160.12885 161.77928 162.95804 165.69968 166.42233"
         y="223.91405"
         sodipodi:role="line"
         id="tspan26378"
         style="stroke-width:0.352778">• Hypo-/hyperthermia</tspan></text>
    <text
       style="font-variant:normal;font-weight:normal;font-stretch:normal;font-size:2.99861px;font-family:Resus;-inkscape-font-specification:Resus-Regular;writing-mode:lr-tb;fill:#231f20;fill-opacity:1;fill-rule:nonzero;stroke:none;stroke-width:0.352778"
       id="text26384"
       x="136.38106"
       y="228.08904"><tspan
         x="136.38106 137.82039 139.37965 141.20161 142.98039 144.12227 145.90344 148.65016 150.44904 152.22002 153.57959 154.30196 155.64833 156.368 157.80733 158.52699 159.97893 161.7601 162.90196 164.68314 166.45082 168.10396 169.36157 170.91785 171.63753 173.4187 174.56717 175.28683 177.0752 178.84438 179.73888 182.49699 184.27817 186.04614 187.69928 188.95689"
         y="228.08904"
         sodipodi:role="line"
         id="tspan26382"
         style="stroke-width:0.352778">• Thrombosis – coronary or pulmonary</tspan></text>
    <text
       style="font-variant:normal;font-weight:normal;font-stretch:normal;font-size:2.99861px;font-family:Resus;-inkscape-font-specification:Resus-Regular;writing-mode:lr-tb;fill:#231f20;fill-opacity:1;fill-rule:nonzero;stroke:none;stroke-width:0.352778"
       id="text26388"
       x="136.38106"
       y="232.26405"><tspan
         x="136.38106 137.82039 139.37965 140.95813 142.60857 144.37625 145.73582 146.47047 148.25226 150.00044 150.72011 152.50609 154.29625 155.94849 157.71828 160.47639 162.21918 163.43332 165.2235 167.00497 168.19061 169.91992"
         y="232.26405"
         sodipodi:role="line"
         id="tspan26386"
         style="stroke-width:0.352778">• Tension pneumothorax</tspan></text>
    <text
       style="font-variant:normal;font-weight:normal;font-stretch:normal;font-size:2.99861px;font-family:Resus;-inkscape-font-specification:Resus-Regular;writing-mode:lr-tb;fill:#231f20;fill-opacity:1;fill-rule:nonzero;stroke:none;stroke-width:0.352778"
       id="text26392"
       x="136.38106"
       y="236.43901"><tspan
         x="136.38106 137.82039 139.37965 140.94313 142.59627 145.3436 147.14247 148.92424 150.69221 152.32437 154.10764 155.7179 156.43756 157.87689 158.59656 160.10637 161.75949 162.90976 164.68224 165.4046 167.03705"
         y="236.43901"
         sodipodi:role="line"
         id="tspan26390"
         style="stroke-width:0.352778">• Tamponade – cardiac</tspan></text>
    <text
       style="font-variant:normal;font-weight:normal;font-stretch:normal;font-size:2.99861px;font-family:Resus;-inkscape-font-specification:Resus-Regular;writing-mode:lr-tb;fill:#231f20;fill-opacity:1;fill-rule:nonzero;stroke:none;stroke-width:0.352778"
       id="text26396"
       x="136.38106"
       y="240.61394"><tspan
         x="136.38106 137.82039 139.37965 140.95813 142.67903 144.2569 144.99156 146.46687 147.18654 148.81898 150.60196 152.2524 154.00238 155.26451"
         y="240.61394"
         sodipodi:role="line"
         id="tspan26394"
         style="stroke-width:0.352778">• Toxic agents</tspan></text>
    <text
       style="font-variant:normal;font-weight:normal;font-stretch:normal;font-size:2.99861px;font-family:Resus;-inkscape-font-specification:Resus-Regular;writing-mode:lr-tb;fill:#231f20;fill-opacity:1;fill-rule:nonzero;stroke:none;stroke-width:0.352778"
       id="text26400"
       x="136.38106"
       y="244.78891"><tspan
         x="136.38106 138.39552 140.1608 140.91615 142.68443 144.07669 145.27913 145.99879 147.63933 148.50293 150.28621 152.06798 153.24673 153.97481 155.18893 156.96771 159.68146 160.40112 161.13188 162.88008 163.59975 164.96321 166.76208 168.42781 169.91632 170.64438 171.81624 172.5509 174.02621 174.74588 176.12074 177.74989 179.02341 180.23753 180.96831 182.75787 184.52615 185.87253"
         y="244.78891"
         sodipodi:role="line"
         id="tspan26398"
         style="stroke-width:0.352778">Adjust algorithm in specific settings</tspan></text>
    <text
       style="font-variant:normal;font-weight:normal;font-stretch:normal;font-size:2.99861px;font-family:Resus;-inkscape-font-specification:Resus-Regular;writing-mode:lr-tb;fill:#231f20;fill-opacity:1;fill-rule:nonzero;stroke:none;stroke-width:0.352778"
       id="text26404"
       x="136.38106"
       y="247.96387"><tspan
         x="136.38106 137.29863 138.92387 139.65224 141.43071 142.17137 142.89104 144.2545 146.05307 147.7188 149.20612 149.92877 151.56932 152.42392 153.14359 154.63089 155.36166 156.50504 158.00494 159.77472 162.51724 163.9095 165.14313 166.79626 168.58583 170.04047 171.6879 172.93323"
         y="247.96387"
         sodipodi:role="line"
         id="tspan26402"
         style="stroke-width:0.352778">(e.g. special circumstances)</tspan></text>
  </g>
</svg>
