<?xml version="1.0" encoding="UTF-8" standalone="no"?>
<!-- Created with Inkscape (http://www.inkscape.org/) -->

<svg
   width="179.05286mm"
   height="460.11429mm"
   viewBox="0 0 179.05286 460.11429"
   version="1.1"
   id="svg48281"
   inkscape:version="1.1 (c68e22c387, 2021-05-23)"
   sodipodi:docname="asthma_fig_2_formulary.svg"
   xmlns:inkscape="http://www.inkscape.org/namespaces/inkscape"
   xmlns:sodipodi="http://sodipodi.sourceforge.net/DTD/sodipodi-0.dtd"
   xmlns="http://www.w3.org/2000/svg"
   xmlns:svg="http://www.w3.org/2000/svg">
  <sodipodi:namedview
     id="namedview48283"
     pagecolor="#ffffff"
     bordercolor="#666666"
     borderopacity="1.0"
     inkscape:pageshadow="2"
     inkscape:pageopacity="0.0"
     inkscape:pagecheckerboard="0"
     inkscape:document-units="mm"
     showgrid="false"
     inkscape:zoom="0.69397447"
     inkscape:cx="367.44868"
     inkscape:cy="958.969"
     inkscape:window-width="2560"
     inkscape:window-height="1513"
     inkscape:window-x="0"
     inkscape:window-y="0"
     inkscape:window-maximized="1"
     inkscape:current-layer="layer1" />
  <defs
     id="defs48278" />
  <g
     inkscape:label="Layer 1"
     inkscape:groupmode="layer"
     id="layer1"
     transform="translate(-7.7998389,-7.8380632)">
    <text
       style="font-variant:normal;font-weight:bold;font-stretch:normal;font-size:5.63033px;font-family:Arial;-inkscape-font-specification:Arial-BoldMT;writing-mode:lr-tb;fill:#0072c6;fill-opacity:1;fill-rule:nonzero;stroke:none;stroke-width:0.352778"
       id="text47508"
       x="7.799839"
       y="11.884863"><tspan
         x="7.799839 11.779358 15.250458 18.722122 21.897068 25.325941 28.754812 30.321173 33.496113 35.061348 38.198006 39.763237 41.626881 43.237156 46.666027 50.137691 52.338589 57.332695 60.761566 62.327927 65.46064 67.746559 70.797638"
         y="11.884863"
         sodipodi:role="line"
         id="tspan47506"
         style="stroke-width:0.352778">Appendix 1 - Formulary</tspan></text>
    <text
       style="font-variant:normal;font-weight:bold;font-stretch:normal;font-size:4.23333px;font-family:Arial;-inkscape-font-specification:Arial-BoldMT;writing-mode:lr-tb;fill:#000000;fill-opacity:1;fill-rule:nonzero;stroke:none;stroke-width:0.352778"
       id="text47512"
       x="7.799839"
       y="21.960196"><tspan
         x="7.799839 11.313505 13.684172 16.266506 18.848839 21.219505 23.590172 24.775503 27.35784 31.125505 32.310837 35.147167 37.729504 38.914837 41.497169 44.03717 46.407837 47.804836 50.133171"
         y="21.960196"
         sodipodi:role="line"
         id="tspan47510"
         style="stroke-width:0.352778">Magnesium Sulphate</tspan></text>
    <text
       style="font-variant:normal;font-weight:normal;font-stretch:normal;font-size:4.23333px;font-family:Arial;-inkscape-font-specification:ArialMT;writing-mode:lr-tb;fill:#000000;fill-opacity:1;fill-rule:nonzero;stroke:none;stroke-width:0.352778"
       id="text47520"
       x="7.799839"
       y="31.061861"><tspan
         x="7.799839 11.313505 13.684172 15.800838 18.171505 19.356838 21.727505 24.05584 25.241171 27.611837 28.754839 31.125505 33.49617 35.824505 37.009838 40.565834 42.894173 44.03717 47.59317 48.524502 49.667503 51.784168 54.154835 55.086166 57.456833 58.642166 59.573502 61.944168 64.272926 65.45826 67.828926 69.903259 71.088593 73.459259 74.390594 75.321922 77.692589 78.87793 79.809258 82.179924 84.508255 85.693588 88.064255 89.249588 91.577927 92.974922 95.345589 98.901588 101.01826 102.16126 104.48959 105.71725 106.86026 110.41626 112.78692 115.11526 117.48592 119.85659 121.97327 122.90459 125.23293 128.78893 129.97426 132.0486 134.41927 135.30826 137.67892 140.04959 142.42026 143.56325 145.93391 147.11926 148.05058 150.42125 151.56468 153.93535 156.30602 157.44945 161.00502 161.93678 164.05344 165.23877 167.56711 168.75243 169.93777 172.30844 173.45143 175.77977 179.54744"
         y="31.061861"
         sodipodi:role="line"
         id="tspan47514"
         style="stroke-width:0.352778">Make up a 100 mg/ml solution by diluting 2 grams of magnesium sulphate in 20 mls of 0.9%</tspan><tspan
         x="7.799839 9.9165058 12.287172 14.657839 15.589172 17.917505 21.473505 22.658838 24.775503 27.146173 28.077505 30.448172 31.845175 32.776505 35.104836 37.475506 38.660839 40.057838 42.428505 43.825504 46.196167 49.201836 50.387169 52.757835 55.128506 56.313839 58.642166 59.827499 63.383926 64.315262 66.431923 67.574921 69.903259 71.13092 72.316254 73.459259 75.829926 78.200592 79.34359 81.714256 82.89959 85.227928 86.624924 88.99559 92.509262 94.625923 95.811249 96.742592 99.113251 100.29859 102.66927 104.99759 106.18292 109.73893 110.67027 112.78692 113.97226 116.04659 118.41725 119.34859 121.71925 122.90459 123.83592 126.16426 128.53493 129.72026 132.0486 133.23392 134.37692 137.93292 140.30359 142.63193 145.00259 147.37326 149.48993 150.42125 152.75002 156.30559 157.49092 159.56526 161.93593 162.86725 165.23792 167.56625 169.93692 171.12227 173.49294 174.63593 176.96426 179.33493 181.7056"
         y="35.930195"
         sodipodi:role="line"
         id="tspan47516"
         style="stroke-width:0.352778">sodium chloride (draw up 4 mls of the 5 grams in 10 mls solution of magnesium sulphate and</tspan><tspan
         x="7.799839 10.170506 12.541172 14.911839 16.054838 17.240171 19.610838 20.753839 23.124504 25.495173 26.638174 30.19417 31.125505 33.242172 34.427505 36.755836 37.94117 39.126503 41.497169 42.640171 45.010838 48.778503 49.921505 52.03817 54.408833 56.779503 57.710831 60.039169 63.595169 64.780502 66.897171 69.267838 70.199173 72.569839 73.966835 74.89817 77.226501 79.597168 80.994164 82.137169"
         y="40.798527"
         sodipodi:role="line"
         id="tspan47518"
         style="stroke-width:0.352778">add to 16 mls of 0.9% sodium chloride).</tspan></text>
    <text
       style="font-variant:normal;font-weight:normal;font-stretch:normal;font-size:4.23333px;font-family:Symbol;-inkscape-font-specification:SymbolMT;writing-mode:lr-tb;fill:#000000;fill-opacity:1;fill-rule:nonzero;stroke:none;stroke-width:0.352778"
       id="text47524"
       x="14.149839"
       y="50.196526"><tspan
         x="14.149839"
         y="50.196526"
         id="tspan47522"
         style="stroke-width:0.352778">•</tspan></text>
    <text
       style="font-variant:normal;font-weight:normal;font-stretch:normal;font-size:4.23333px;font-family:Arial;-inkscape-font-specification:ArialMT;writing-mode:lr-tb;fill:#000000;fill-opacity:1;fill-rule:nonzero;stroke:none;stroke-width:0.352778"
       id="text47530"
       x="20.49984"
       y="50.196526"><tspan
         x="20.49984 21.685173 24.013506 25.241171 27.611837 29.686171 32.056835 33.242168 35.570503 37.94117 39.126503 42.682503 45.010838 46.196167 48.312836 50.641171 51.826504 53.223503 55.59417 56.779503 59.107834 60.293167 63.806839 64.738167 66.854836 68.040596 70.157257 72.485168 73.882591 75.11026 77.184593 78.115929 80.486595 81.671928 84.042595 85.227928 87.344589 89.41893 90.815926 91.747261 94.160255 96.488594 98.859261 100.04459 102.41526 103.81226 104.74359 106.86025 109.23092 110.62792 111.81326 114.18392 116.25826 118.62892 120.02592 121.21126 123.58192 125.95259 127.0956 130.6516 131.58292 133.95358 136.32426 137.46725 139.83792 141.95459 143.13992 144.53693 146.90759 149.23593 150.42125 151.6066 153.72327 156.09393 158.4646 159.60759 161.97826 164.34892 165.53426 167.86302 168.79434 170.86868 173.23935 175.61002 176.79535 179.16602 181.24034 183.61101 185.00801"
         y="50.196526"
         sodipodi:role="line"
         id="tspan47526"
         style="stroke-width:0.352778">Infuse 40 mg/kg (0.4 mls/kg) via a syringe driver over 20 minutes (but can be given over</tspan><tspan
         x="20.49984 22.870506 25.241171 26.384172 29.940172 30.871504 33.242168 35.612835 36.755836 39.126503 41.243168 42.428505 43.359837 45.730503 46.915836 47.847168 48.736172 49.921505 52.292171 53.689171 54.874504 57.245171 58.642174 61.012833 63.341171 64.526505 66.897171 69.267838 70.199173 72.569839 74.89817 76.083504 78.45417 80.570839 81.713837 84.084503 87.598167 89.968834 91.365837"
         y="55.02253"
         sodipodi:role="line"
         id="tspan47528"
         style="stroke-width:0.352778">10 minutes in life-threatening asthma)</tspan></text>
    <text
       style="font-variant:normal;font-weight:normal;font-stretch:normal;font-size:4.23333px;font-family:Symbol;-inkscape-font-specification:SymbolMT;writing-mode:lr-tb;fill:#000000;fill-opacity:1;fill-rule:nonzero;stroke:none;stroke-width:0.352778"
       id="text47534"
       x="14.149839"
       y="60.187195"><tspan
         x="14.149839"
         y="60.187195"
         id="tspan47532"
         style="stroke-width:0.352778">•</tspan></text>
    <text
       style="font-variant:normal;font-weight:normal;font-stretch:normal;font-size:4.23333px;font-family:Arial;-inkscape-font-specification:ArialMT;writing-mode:lr-tb;fill:#000000;fill-opacity:1;fill-rule:nonzero;stroke:none;stroke-width:0.352778"
       id="text47538"
       x="20.49984"
       y="60.187195"><tspan
         x="20.49984 24.013506 26.384172 28.458506 29.389837 32.945835 35.316502 38.872505 40.057835 42.386169 44.756836 46.873505 49.244171 50.429501 51.360836 53.477505 54.620502 56.991173 58.176506 60.504837 61.901833 64.272507 67.828506 69.945587 71.088165 73.458832 74.856262 76.041588 78.412254 80.74102 81.926353 85.482346 86.413681 88.53035 89.673347 92.001686 93.229355 94.41468 95.557686 97.928352 100.29901 101.44201 103.77036 106.14101 108.51168 109.65468 113.21069 115.53901 116.72434 120.28035 121.21169 122.39702 124.51369 126.88435 127.81567 130.14401 131.32935 132.26068 134.63135 136.95883"
         y="60.187195"
         sodipodi:role="line"
         id="tspan47536"
         style="stroke-width:0.352778">Maximum dose is 2 grams or 20 mls of the 100 mg/ml solution</tspan></text>
    <text
       style="font-variant:normal;font-weight:normal;font-stretch:normal;font-size:4.23333px;font-family:Symbol;-inkscape-font-specification:SymbolMT;writing-mode:lr-tb;fill:#000000;fill-opacity:1;fill-rule:nonzero;stroke:none;stroke-width:0.352778"
       id="text47542"
       x="14.149839"
       y="65.35186"><tspan
         x="14.149839"
         y="65.35186"
         id="tspan47540"
         style="stroke-width:0.352778">•</tspan></text>
    <text
       style="font-variant:normal;font-weight:normal;font-stretch:normal;font-size:4.23333px;font-family:Arial;-inkscape-font-specification:ArialMT;writing-mode:lr-tb;fill:#000000;fill-opacity:1;fill-rule:nonzero;stroke:none;stroke-width:0.352778"
       id="text47546"
       x="20.49984"
       y="65.35186"><tspan
         x="20.49984 23.336172 25.706839 27.823507 30.194174 31.591173 33.961838 35.104836 36.290169 38.660835 40.98917 42.174503 43.359837 46.196167 49.244171 52.546169 53.689171 56.059837 58.430504 60.758835 61.901833 64.018501 66.389168 67.574501 69.945168 71.342171 73.712837 74.89817 75.829498 78.157837 80.528503 81.671501 85.227501 87.598167 89.968834 90.900169 92.043167 94.413834 95.810829 96.742165 99.112831 101.44117 102.62608 104.95483 106.35184 108.7225 109.90741 110.83916 113.20983 114.39475 116.76542 117.69674 120.06741 122.14175 124.4705"
         y="65.35186"
         sodipodi:role="line"
         id="tspan47544"
         style="stroke-width:0.352778">Ensure that ECG and saturation monitoring are in place</tspan></text>
    <text
       style="font-variant:normal;font-weight:bold;font-stretch:normal;font-size:4.23333px;font-family:Arial;-inkscape-font-specification:Arial-BoldMT;writing-mode:lr-tb;fill:#000000;fill-opacity:1;fill-rule:nonzero;stroke:none;stroke-width:0.352778"
       id="text47550"
       x="7.799839"
       y="79.321861"><tspan
         x="7.799839 10.636171 13.00684 14.657839 15.843172 18.425507 21.007837 23.378929 24.987597 27.358263 28.543596 29.72893 30.914263 33.496593 34.893593 36.544594 38.91526 41.20126 43.571926 46.154259 48.736591 51.318924 53.690014 54.875347 57.712105 60.082771 61.268105 63.850441 66.43277 67.829773 70.200439 73.968102 76.550438 77.692169"
         y="79.321861"
         sodipodi:role="line"
         id="tspan47548"
         style="stroke-width:0.352778">Peripheral Intravenous Salbutamol</tspan></text>
    <text
       style="font-variant:normal;font-weight:normal;font-stretch:normal;font-size:4.23333px;font-family:Symbol;-inkscape-font-specification:SymbolMT;writing-mode:lr-tb;fill:#000000;fill-opacity:1;fill-rule:nonzero;stroke:none;stroke-width:0.352778"
       id="text47554"
       x="14.149839"
       y="88.719856"><tspan
         x="14.149839"
         y="88.719856"
         id="tspan47552"
         style="stroke-width:0.352778">•</tspan></text>
    <text
       style="font-variant:normal;font-weight:normal;font-stretch:normal;font-size:4.23333px;font-family:Arial;-inkscape-font-specification:ArialMT;writing-mode:lr-tb;fill:#000000;fill-opacity:1;fill-rule:nonzero;stroke:none;stroke-width:0.352778"
       id="text47558"
       x="20.49984"
       y="88.719856"><tspan
         x="20.49984 23.336172 24.267506 25.198839 26.384172 28.500837 30.871504 31.802839 32.734169 35.104836 36.501839 38.872505 41.243168 42.428505 43.825504 46.196167 48.524506 50.895172 51.826504 53.223503 54.154839 56.525505 58.854256 60.039589 61.224503 64.060837 65.24617 67.363258 69.733925 70.66526 73.035927 75.364258 76.549591 78.87793 82.433929 84.804596 85.735924 86.921257 89.037926 91.366257 93.736923 96.10759 97.038925 99.367249 100.55259 102.88092 105.25158 106.43692 107.83392 110.20459 112.27892 113.21026 115.58092 118.58659 120.95726 123.32793 124.51326 126.88393 128.95825 130.1436 132.51427 134.88493 136.07025 138.44092 140.51526 142.88593 145.25659 146.65359 147.58493 149.9556 152.32626 154.44334 156.81401 159.18468 160.32809 162.69876 165.06943 167.18652 168.32953 170.7002 172.0955"
         y="88.719856"
         sodipodi:role="line"
         id="tspan47556"
         style="stroke-width:0.352778">All children requiring IV salbutamol should be reviewed by an experienced doctor</tspan></text>
    <text
       style="font-variant:normal;font-weight:normal;font-stretch:normal;font-size:4.23333px;font-family:Symbol;-inkscape-font-specification:SymbolMT;writing-mode:lr-tb;fill:#000000;fill-opacity:1;fill-rule:nonzero;stroke:none;stroke-width:0.352778"
       id="text47562"
       x="14.149839"
       y="93.842194"><tspan
         x="14.149839"
         y="93.842194"
         id="tspan47560"
         style="stroke-width:0.352778">•</tspan></text>
    <text
       style="font-variant:normal;font-weight:normal;font-stretch:normal;font-size:4.23333px;font-family:Arial;-inkscape-font-specification:ArialMT;writing-mode:lr-tb;fill:#000000;fill-opacity:1;fill-rule:nonzero;stroke:none;stroke-width:0.352778"
       id="text47568"
       x="20.49984"
       y="93.842194"><tspan
         x="20.49984 23.336172 25.706839 26.892172 27.823507 30.194174 32.522503 33.707836 35.824501 37.009838 39.126503 41.454838 43.825504 46.196167 47.127502 49.498169 50.683502 52.080502 54.451168 56.525505 58.896172 59.827507 61.901833 64.272507 65.45784 67.574501 69.945168 72.273926 73.459259 74.390594 76.761261 79.131927 81.460258 83.830925 85.947594 87.132927 89.969261 93.017265 96.276924 97.462265 100.97593 103.30426 105.67492 106.60626 107.7916 110.16225 111.55925 112.49059 114.86126 117.18959 118.37492 119.56026 121.93092 123.11626 125.4446 127.81526 129.93193 132.3026 133.69958 136.07025 137.21326 139.58392 141.95459 144.02892 145.21426 147.58493 148.98192 150.37892 152.74959 154.82393 156.00925 158.37991 161.9355 162.86725 165.23792 167.35458 168.53993 170.9106 172.30759 174.67825"
         y="93.842194"
         sodipodi:role="line"
         id="tspan47564"
         style="stroke-width:0.352778">Patients should receive continuous ECG monitoring to ensure any arrhythmias are</tspan><tspan
         x="20.49984 22.870506 25.241171 26.426504 28.797171 30.871504 32.056835 34.427502 36.755836 37.94117 39.126503 41.454838 43.825504 46.196167 47.3815 49.498169 51.826504 54.19717 56.567833 57.499168 59.827507 61.012833 63.341591 64.272507 66.389595 68.760254 69.945587 72.316261 74.686928 76.761261 79.131927 80.317261 82.433929 84.804596 85.947594 88.31826 89.715263 92.08593 93.271263 94.202591 96.530922 98.901588 100.08692 103.60059 105.92892 108.29959 109.23092 110.41626 112.78692 114.18392 115.11526 117.48592 119.81426 120.99959 121.93092 124.30159 125.48692 127.85759 128.78893 131.15959 133.23392 135.56183"
         y="98.710526"
         sodipodi:role="line"
         id="tspan47566"
         style="stroke-width:0.352778">detected, and should also have saturation monitoring in place</tspan></text>
    <text
       style="font-variant:normal;font-weight:normal;font-stretch:normal;font-size:4.23333px;font-family:Symbol;-inkscape-font-specification:SymbolMT;writing-mode:lr-tb;fill:#000000;fill-opacity:1;fill-rule:nonzero;stroke:none;stroke-width:0.352778"
       id="text47572"
       x="14.149839"
       y="103.87519"><tspan
         x="14.149839"
         y="103.87519"
         id="tspan47570"
         style="stroke-width:0.352778">•</tspan></text>
    <text
       style="font-variant:normal;font-weight:normal;font-stretch:normal;font-size:4.23333px;font-family:Arial;-inkscape-font-specification:ArialMT;writing-mode:lr-tb;fill:#000000;fill-opacity:1;fill-rule:nonzero;stroke:none;stroke-width:0.352778"
       id="text47576"
       x="20.49984"
       y="103.87519"><tspan
         x="20.49984 21.685173 24.521505 25.706839 27.823507 30.194174 31.125505 33.453838 35.824501 37.009838 39.338169 42.894169 45.264835 46.196167 47.339169 50.895172 53.265835 55.340172 56.525505 58.642174 61.012833 63.341171 65.45784 67.828506 69.01384 71.384506 73.458412 75.829079 78.199745 80.316414 82.68708 83.618408 85.946747 88.317413 91.873413 92.762413 95.13308 96.318413 97.503738 99.832069 102.20274 103.59974 105.92809 107.11341 109.48409 110.88107 113.25174 114.39475 117.95074 120.32141 122.69208 124.76642 127.13708 128.53407 130.90474 132.09007 134.46074 135.34975 137.72041 139.83708 141.02242 142.4194 144.79007 145.72141 147.79575 148.98108 151.35175 153.46841 154.65375 155.83908 158.84474 159.77649 161.89316 164.26382 165.44917 167.81984 170.19051 171.12183 172.05316 174.16983"
         y="103.87519"
         sodipodi:role="line"
         id="tspan47574"
         style="stroke-width:0.352778">IV salbutamol may cause hypokalaemia therefore measure electrolytes twice daily</tspan></text>
    <text
       style="font-variant:normal;font-weight:normal;font-stretch:normal;font-size:4.23333px;font-family:Symbol;-inkscape-font-specification:SymbolMT;writing-mode:lr-tb;fill:#000000;fill-opacity:1;fill-rule:nonzero;stroke:none;stroke-width:0.352778"
       id="text47580"
       x="14.149839"
       y="109.03986"><tspan
         x="14.149839"
         y="109.03986"
         id="tspan47578"
         style="stroke-width:0.352778">•</tspan></text>
    <text
       style="font-variant:normal;font-weight:normal;font-stretch:normal;font-size:4.23333px;font-family:Arial;-inkscape-font-specification:ArialMT;writing-mode:lr-tb;fill:#000000;fill-opacity:1;fill-rule:nonzero;stroke:none;stroke-width:0.352778"
       id="text47586"
       x="20.49984"
       y="109.03986"><tspan
         x="20.49984 21.685173 24.521505 25.706839 27.823507 30.194174 31.125505 33.453838 35.824501 37.009838 39.338169 42.894169 45.264835 46.196167 47.3815 48.312836 50.429501 51.572502 53.943172 56.313835 57.499168 58.684502 60.758835 63.087593 66.643593 69.014259 71.34259 72.527504 73.459259 75.829926 76.761261 79.131927 80.317261 83.322929 84.254265 85.439598 87.810257 88.99559 90.180923 93.017265 94.160255 96.530922 100.08692 100.97593 103.3466 105.67492 108.04559 110.41626 112.49059 113.42193 114.35325 115.2846 117.65527 120.02592 121.21126 122.39659 123.58192 126.41826 127.60359 129.72026 132.09093 132.97992 135.35059 137.72125 138.86426 141.23492 144.7486 147.11926 148.05058 149.23593 150.16725 152.28435 153.46968 156.26283 157.65984 159.77649 160.70784 161.89316 164.26382 165.44917 167.56584 169.93651 173.49249 175.82083 178.1915 179.37683 180.30817 182.67883 183.61017 185.98083"
         y="109.03986"
         sodipodi:role="line"
         id="tspan47582"
         style="stroke-width:0.352778">IV salbutamol is not compatible with IV aminophylline. IV salbutamol is Y-site compatible</tspan><tspan
         x="20.49984 23.505507 24.436838 25.622171 27.992838 29.178171 31.548838 33.919502 35.104836 37.475502 39.592171 41.708836 42.640171 44.968502 48.524506 49.709839 50.641171 52.969501 54.154839 56.525505 58.642174 59.573502 61.901833 64.272507 66.389168 67.574501 68.759834 71.088165 73.458832 74.390167 76.4645 77.649834 78.581169 79.80883 80.994171 84.550171 85.481499 87.55584 89.926506 92.297173 93.482506 96.488159 97.419502 98.604836 100.9755 102.16084 104.23517 106.60583 108.9765 109.90783 112.23618 115.79218 116.97751 119.09417 121.46484 122.39616 124.76683 126.16383 127.09517 129.42351 131.79417 132.97951 135.35017 136.49316 138.86383 142.58916"
         y="113.90819"
         sodipodi:role="line"
         id="tspan47584"
         style="stroke-width:0.352778">with potassium infusions, only if mixed with sodium chloride 0.9%</tspan></text>
    <text
       style="font-variant:normal;font-weight:normal;font-stretch:normal;font-size:4.23333px;font-family:Symbol;-inkscape-font-specification:SymbolMT;writing-mode:lr-tb;fill:#000000;fill-opacity:1;fill-rule:nonzero;stroke:none;stroke-width:0.352778"
       id="text47590"
       x="14.149839"
       y="119.07286"><tspan
         x="14.149839"
         y="119.07286"
         id="tspan47588"
         style="stroke-width:0.352778">•</tspan></text>
    <text
       style="font-variant:normal;font-weight:normal;font-stretch:normal;font-size:4.23333px;font-family:Arial;-inkscape-font-specification:ArialMT;writing-mode:lr-tb;fill:#000000;fill-opacity:1;fill-rule:nonzero;stroke:none;stroke-width:0.352778"
       id="text47594"
       x="20.49984"
       y="119.07286"><tspan
         x="20.49984 23.801838 26.172506 28.289171 30.659838 31.802839 35.358837 37.687172 40.057835 42.428505 43.613834 44.799168 45.688171 48.016502 49.244171 51.614834 53.731503 54.662834 56.991173 59.361839 60.547165 62.875504 65.24617 67.574921 69.69117 70.876503 73.247169 74.643745 77.014412 78.199745 80.316414 81.50174 83.830078 86.200745 87.13208 89.502747 90.645744 91.831078 94.201744 95.598755 96.784081 99.154739 101.52541 102.66841 104.99674 107.36741 109.73808 111.13508 113.25217"
         y="119.07286"
         sodipodi:role="line"
         id="tspan47592"
         style="stroke-width:0.352778">Once made, infusion bags are stable for 24 hours</tspan></text>
    <text
       style="font-variant:normal;font-weight:normal;font-stretch:normal;font-size:4.23333px;font-family:Symbol;-inkscape-font-specification:SymbolMT;writing-mode:lr-tb;fill:#000000;fill-opacity:1;fill-rule:nonzero;stroke:none;stroke-width:0.352778"
       id="text47598"
       x="14.149839"
       y="124.19519"><tspan
         x="14.149839"
         y="124.19519"
         id="tspan47596"
         style="stroke-width:0.352778">•</tspan></text>
    <text
       style="font-variant:normal;font-weight:normal;font-stretch:normal;font-size:4.23333px;font-family:Arial;-inkscape-font-specification:ArialMT;writing-mode:lr-tb;fill:#000000;fill-opacity:1;fill-rule:nonzero;stroke:none;stroke-width:0.352778"
       id="text47602"
       x="20.49984"
       y="124.19519"><tspan
         x="20.49984 21.685173 24.013506 25.241171 27.611837 28.966505 32.522503 33.707836 36.036171 38.406837 39.592171 41.962837 43.14817 46.196167 49.244171 52.292171 53.477505 55.805836 58.176506 60.547165 61.732498 62.875504 65.24617 67.616837 68.80217 71.130501 73.501175 75.617409 77.988083 78.919411 80.104744 82.47541 83.406746 84.549751 86.92041 89.291077 90.47641 91.831078 94.201744 96.572411 98.689079 101.01741 102.20274 103.38807 105.71642 108.08707 111.60117"
         y="124.19519"
         sodipodi:role="line"
         id="tspan47600"
         style="stroke-width:0.352778">Inform both HDU and the hospital outreach team</tspan></text>
    <text
       style="font-variant:normal;font-weight:normal;font-stretch:normal;font-size:4.23333px;font-family:Symbol;-inkscape-font-specification:SymbolMT;writing-mode:lr-tb;fill:#000000;fill-opacity:1;fill-rule:nonzero;stroke:none;stroke-width:0.352778"
       id="text47606"
       x="14.149839"
       y="129.35985"><tspan
         x="14.149839"
         y="129.35985"
         id="tspan47604"
         style="stroke-width:0.352778">•</tspan></text>
    <text
       style="font-variant:normal;font-weight:normal;font-stretch:normal;font-size:4.23333px;font-family:Arial;-inkscape-font-specification:ArialMT;writing-mode:lr-tb;fill:#000000;fill-opacity:1;fill-rule:nonzero;stroke:none;stroke-width:0.352778"
       id="text47610"
       x="20.49984"
       y="129.35985"><tspan
         x="20.49984 23.082172 25.452837 26.84984 28.035173 30.40584 32.776505 33.961838 34.893169 37.221504 39.592171 40.777504 42.894169 44.079502 47.085171 48.016502 49.201836 51.572502 52.757835 54.874504 57.245171 59.615837 60.80117 62.156258 64.526924 65.45784 66.643173 69.01384 71.130501 73.247169 75.617836 77.734505 79.851173 81.036507 83.110832 85.481499 87.852165 88.995171 90.180504 92.55117 94.921829 96.064835 98.901169 100.0865 103.09216 106.14017 107.3255 109.69616 111.81284 112.99817 115.3265 118.8825 121.25317 122.43849 124.76683 127.1375 128.06883 130.39717 132.76784 133.69917 134.63049 137.00116 139.37183 140.55717 142.88551 145.21384 147.5845 148.76984 151.1405 152.53792 154.90858 157.23692 158.42226 160.53893 162.90959 165.23792 167.60858 168.75116"
         y="129.35985"
         sodipodi:role="line"
         id="tspan47608"
         style="stroke-width:0.352778">For patients with central access see the PICU asthma guideline and drug sheet</tspan></text>
    <text
       style="font-variant:normal;font-weight:normal;font-stretch:normal;font-size:4.23333px;font-family:Arial;-inkscape-font-specification:ArialMT;writing-mode:lr-tb;fill:#000000;fill-opacity:1;fill-rule:nonzero;stroke:none;stroke-width:0.352778"
       id="text47614"
       x="7.799839"
       y="143.32985"><tspan
         x="7.799839 10.636171 13.00684 13.938171 16.30884 18.679506 19.822506 22.150839 25.706839 28.077505 29.008837 30.19417 31.125505 33.49617 35.824505 38.195171 39.126503 41.497169 43.825504 45.010838 47.3815 49.709839 51.826927 54.19759 55.382923 57.753593 60.081924 62.452591 63.637505 64.780502 67.108833 68.336502 70.707169 72.823837 73.755173 76.083504 78.45417 79.639503 80.994164 82.22184 84.592499 85.989502 87.174835 89.545502 91.619835 93.990501 95.175835 96.10717 98.477829 99.66317 101.77983 104.15051 106.22484 108.5955 109.9925 112.36316 113.54852 115.87683 118.24751 120.61816 121.8035 122.73441 123.62341 124.80875 127.17941 128.57683 129.76216 132.13283 133.4875 135.85817 138.22884 139.41417 141.74249 144.11316 145.04451 147.41518 149.7435 150.92883 153.2995 155.41617 156.6015 158.92982 162.4435 164.81416 166.21117"
         y="143.32985"
         sodipodi:role="line"
         id="tspan47612"
         style="stroke-width:0.352778">Salbutamol loading dose and Infusion (for use in severe and life-threatening asthma)</tspan></text>
    <path
       d="M 7.7998389,144.09186 H 78.454523 v -0.29633 H 7.7998389 Z"
       style="fill:#000000;fill-opacity:1;fill-rule:nonzero;stroke:none;stroke-width:0.352778"
       id="path47616" />
    <text
       style="font-variant:normal;font-weight:normal;font-stretch:normal;font-size:4.23333px;font-family:Arial;-inkscape-font-specification:ArialMT;writing-mode:lr-tb;fill:#000000;fill-opacity:1;fill-rule:nonzero;stroke:none;stroke-width:0.352778"
       id="text47630"
       x="7.799839"
       y="152.43152"><tspan
         x="7.799839 10.424505 12.795172 13.726505 15.843172 17.028505 19.356838 21.727505 22.658838 24.987173 27.35784 28.289171 29.220507 31.591173 33.961838 35.104836 37.475506 39.846169 42.216835 44.333504 45.476505 47.847168 50.175926 51.360836 52.546169 54.916836 57.287498 59.361412 61.732079 63.848747 66.219414 67.362411 69.733078 70.918411 72.103745 74.432076 76.802742 77.988083 80.358749 82.433083 84.803741 85.989075 88.317413 89.502747 90.68808 93.016411 94.201744 96.318413 98.689079 99.620415 101.99108 104.36176 105.50475 107.87541 111.38907 113.75974 114.69109 115.87641 118.20474 120.57541 121.50674 123.87741 125.99408 127.17941 129.55008 131.62442 132.80974 134.88408 137.25475 139.58308 141.91142 144.28209 146.39917 147.5845 149.95517 152.32584 153.51117 154.44293 156.8136 157.99892 159.14192 161.51259 163.88326 165.06859 168.11659 170.48726 171.41859 172.34991 174.72058 176.07526 178.44592 180.81659 181.74792 183.86459"
         y="152.43152"
         sodipodi:role="line"
         id="tspan47618"
         style="stroke-width:0.352778">This guideline does not advocate the use of a salbutamol bolus as suggested in the Children’s</tspan><tspan
         x="7.799839 10.636171 13.684172 16.266506 17.451839 18.848839 21.219505 22.404839 25.96084 26.892172 29.008837 30.40584 32.776505 35.104836 36.501835 38.872505 42.428505 43.613834 45.730503 48.058838 49.201836 51.572502 52.969925 54.155258 56.525925 58.896591 60.039597 63.595589 64.526924 66.643593 68.040596 70.411263 72.739594 74.136589 76.507256 80.063263 81.248596 83.365257 85.693588 87.090591 88.275925 90.604263 92.720924 93.906265 94.837593 97.20826 99.324921 101.69559 102.62693 103.81226 106.14059 108.51126 110.88194 111.81326 112.99859 114.18392 116.51225 118.88292 120.06826 122.39659 123.58192 125.95259 128.32326 130.3976 131.58292 133.65726 136.02792 138.39859 141.40425 143.77492 144.96027 146.14558 148.51625 150.88692 152.03035 153.21568 154.40102 156.77168 157.70345 159.82011 161.00543 162.40244 164.7731 166.1701 168.54077 169.47211 171.54643 172.73177 174.84843 176.03377 178.40443 180.7751 182.89177"
         y="157.29985"
         sodipodi:role="line"
         id="tspan47620"
         style="stroke-width:0.352778">BNF (5 microgram/kg or 15 microgram/kg) as local audit data has shown that this rarely stops</tspan><tspan
         x="7.799839 10.170506 12.541172 14.911839 16.054838 18.383173 19.610838 20.753839 23.124504 25.495173 26.638174 29.008837 31.379503 32.310837 34.681503 36.755836 38.872505 40.057838 42.428505 43.613834 45.730503 48.10117 49.032501 49.921505 52.292171 53.477501 55.805836 58.176506 59.107834 61.4785 63.807259 64.992592 67.363258 69.733925 70.919258 72.062256 74.432922 75.618256 77.015259 79.385925 81.502594 83.87326 84.804596 86.878922 89.249588 90.434921 92.76326 93.948593 94.879929 97.250595 99.621254 101.99192 102.92326 105.29393 107.62226 108.80759 111.13593 113.50659 115.62326 117.99392 119.13692 121.50758 122.90459 124.08992 125.02126 127.34959 128.57726 130.94792 133.06459 133.95358 136.32425 138.69493 139.88026 141.0656 144.1136 146.48425 149.48993 151.8606 153.93535 156.30602 157.70302 158.88835 160.07368 162.44435 164.5191 166.88977 169.26044 170.65742 171.58878 173.95944 176.33011 178.44678 180.81744 183.18811"
         y="162.1682"
         sodipodi:role="line"
         id="tspan47622"
         style="stroke-width:0.352778">and often delays a child going on to receive a loading dose or infusion. However, experienced</tspan><tspan
         x="7.799839 9.9165058 12.287172 14.657839 16.774506 19.145172 20.076506 21.219505 23.590172 25.96084 27.146173 29.262838 30.40584 33.961838 36.3325 38.406837 39.592171 41.708836 42.894173 43.825504 44.756836 45.688171 46.873505 48.270927 50.641594 52.758259 55.128925 58.643021 62.199013 64.527351 66.898018 69.268684 70.454018 72.782349 73.967682 76.084343 78.455017 79.386345 81.714684 84.08535 85.270683 87.599014 91.155014 93.483345 94.41468 95.600014 97.97068 100.34134 101.27268 103.64335 105.76003 106.94534 107.87668 110.20502 111.39034 112.32169 114.69235 117.06302 117.99434 120.06868 121.00002 123.37068 125.74135 128.11201 129.04335 130.22868 132.34534 134.716 136.79034 139.16101 141.27768 142.46301 143.86043 146.23111 147.41602 149.74477 150.9301 152.11543 154.2321 156.60277 158.71944 161.0901 163.16443 164.34978 166.6781 167.90576 169.04877 172.56244 174.93311 177.30377 179.6321 181.02911 183.39978 184.5851 186.95576"
         y="167.03653"
         sodipodi:role="line"
         id="tspan47624"
         style="stroke-width:0.352778">consultants may still recommend a salbutamol bolus in individual cases (e.g. cases of moderate</tspan><tspan
         x="7.799839 10.170506 12.287172 13.472506 15.800838 19.356838 21.727505 22.912838 25.029505 25.96084 28.331507 31.337172 32.522503 33.707836 36.078503 37.263836 38.660839 41.031502 43.105839 45.476505 47.847168 50.175503 52.546169 53.731503 54.917259 57.287926 58.473259 59.362259 61.732925 64.103592 66.474258 67.405594 69.733925 72.104591 73.289925 75.660591 77.015259 79.385925 81.756592 83.87326 86.201591 88.572258 90.942924 91.87426 92.76326 95.133919 96.31926 98.689919 100.08692 101.27226 102.4576 104.78592 107.15659 108.55359 110.92426 113.29492 115.36926 116.76626 117.95116"
         y="171.90486"
         sodipodi:role="line"
         id="tspan47626"
         style="stroke-width:0.352778">asthma slow to respond to inhaled bronchodilator therapy).</tspan><tspan
         x="7.799839 10.382172 12.752838 14.149839 15.335173 17.705839 20.076506 21.219505 23.590172 24.775503 25.706839 28.077505 30.40584 32.776505 33.707836 36.078503 38.406837 39.592171 41.962833 44.333504 46.407837 48.778503 50.85326 52.038593 54.40926 56.77993 59.107834 60.293167 61.224922 63.553261 64.780922 67.151588 69.268257 70.199593 72.527924 74.89859 77.015259 78.157837"
         y="181.00653"
         sodipodi:role="line"
         id="tspan47628"
         style="stroke-width:0.352778">For both loading doses and infusions:</tspan></text>
    <text
       style="font-variant:normal;font-weight:normal;font-stretch:normal;font-size:4.23333px;font-family:Symbol;-inkscape-font-specification:SymbolMT;writing-mode:lr-tb;fill:#000000;fill-opacity:1;fill-rule:nonzero;stroke:none;stroke-width:0.352778"
       id="text47634"
       x="14.149839"
       y="190.40453"><tspan
         x="14.149839"
         y="190.40453"
         id="tspan47632"
         style="stroke-width:0.352778">•</tspan></text>
    <text
       style="font-variant:normal;font-weight:normal;font-stretch:normal;font-size:4.23333px;font-family:Arial;-inkscape-font-specification:ArialMT;writing-mode:lr-tb;fill:#000000;fill-opacity:1;fill-rule:nonzero;stroke:none;stroke-width:0.352778"
       id="text47642"
       x="20.49984"
       y="190.40453"><tspan
         x="20.49984 23.547838 25.918505 26.84984 27.781172 30.151838 31.548838 33.919502 36.290169 37.475502 39.803837 42.174503 44.54517 46.915836 48.312836 49.455837 51.826504 54.19717 55.382504 57.499168 59.827507 61.012833 62.409836 64.780502 67.151169 69.4795 71.850166 73.247169 74.432503 76.803169 79.173836 80.359169 82.433502 84.804169 87.174835 88.571838 90.688507 91.87384 94.202171 96.572845 98.689499 101.01785 103.3885 104.5315 106.90217 109.27283 111.60117 113.97183 115.15717 117.9935 120.78751 123.15817 125.99451 127.17984 130.1855 132.55617 133.4875 135.81584 138.18651 139.37183 140.55717 142.67384 145.04451 145.9335 148.05017 150.42084 151.35217 153.72284 154.90817 155.83951 158.21016 160.58083 161.97826 163.16359 164.34892 167.39735 168.32867 169.26001 171.63068 172.77368 175.14435 176.32968 178.658 181.02867"
         y="190.40453"
         sodipodi:role="line"
         id="tspan47636"
         style="stroke-width:0.352778">Children under 40 kg (under 11 years based upon APLS weight calculation): Dilute 10</tspan><tspan
         x="20.49984 24.05584 26.384172 27.569506 29.897837 31.125505 32.310837 33.242168 35.612835 36.798172 38.152836 40.523502 42.597836 44.968502 47.339169 49.709839 52.080502 54.19717 55.382504 57.456841 59.827507 60.758835 63.087593 65.45826 66.644012 68.971924 72.527924 74.89859 75.829926 77.015259 78.412254 80.782921 81.968254 84.042595 84.973923 87.344589 88.275925 90.392593 91.577927 93.906265 95.133919 96.276924 97.462265 99.832924 102.20359 103.3466 105.67492 106.86025 110.41626 112.74459 113.92992 114.86126 117.23192 118.41725 120.78792 121.93092 125.48692 126.41826 127.60359 129.72026 130.90559 132.3026 134.63092 137.0016 139.32993 140.51526 142.88593 144.28293 145.46826 148.51625 149.4476 150.63292 153.00359 154.18893 156.5596 158.88792 160.07326 163.62968 164.56059 166.67767 167.82068 170.14902 171.37668 172.56201 174.89035 176.07568 178.44635 182.21402"
         y="195.23053"
         sodipodi:role="line"
         id="tspan47638"
         style="stroke-width:0.352778">mg of intravenous salbutamol (2 vials of the 5 mg in 5 ml strength) with 40 mls of 0.9%</tspan><tspan
         x="20.49984 22.616505 24.987173 27.35784 28.289171 30.617506 34.173504 35.358837 37.475502 39.846169 40.777504 43.14817 44.54517 45.476505 47.804836 50.175503 51.360836 52.546169 54.874504 56.059837 58.388168 59.319504 61.394264 63.806839 64.992172 67.362831 68.548172 70.66526 73.035927 73.967262 76.295593 77.480927 78.412254 80.782921 83.153587 84.296593 86.624924 87.852592 88.99559 91.366257 93.736923 94.879929 98.435928 100.76426 101.94959 102.88092 105.25158 106.39459 108.76526 111.13593 112.27892 115.83493 116.76626 118.88292 120.06826 121.46526 123.83592 126.20659 128.53493 129.72026 133.27626 134.2076 136.32426 137.72125 140.09192 142.41983 143.81683 146.1875 149.70116 150.88651 154.4425 155.37384 156.77083"
         y="200.09886"
         sodipodi:role="line"
         id="tspan47640"
         style="stroke-width:0.352778">sodium chloride to give a solution of 10 mg in 50 mls (200 microgram/ml)</tspan></text>
    <text
       style="font-variant:normal;font-weight:normal;font-stretch:normal;font-size:4.23333px;font-family:Symbol;-inkscape-font-specification:SymbolMT;writing-mode:lr-tb;fill:#000000;fill-opacity:1;fill-rule:nonzero;stroke:none;stroke-width:0.352778"
       id="text47646"
       x="14.149839"
       y="210.13185"><tspan
         x="14.149839"
         y="210.13185"
         id="tspan47644"
         style="stroke-width:0.352778">•</tspan></text>
    <text
       style="font-variant:normal;font-weight:normal;font-stretch:normal;font-size:4.23333px;font-family:Arial;-inkscape-font-specification:ArialMT;writing-mode:lr-tb;fill:#000000;fill-opacity:1;fill-rule:nonzero;stroke:none;stroke-width:0.352778"
       id="text47654"
       x="20.49984"
       y="210.13185"><tspan
         x="20.49984 23.547838 25.918505 26.84984 27.781172 30.151838 31.548838 33.919502 36.290169 37.475502 39.846169 41.920506 44.291172 45.688171 46.873505 49.244171 51.614834 52.800167 54.916836 57.245171 58.430504 59.827507 62.155838 64.526505 65.711838 67.786591 70.157257 72.527924 73.925346 76.042015 77.227348 79.598015 80.995018 82.180351 84.55101 85.482346 87.853012 90.223679 91.620682 92.763695 95.134338 97.505013 99.579346 101.95001 104.32068 105.46368 107.83434 110.20501 112.53334 114.904 116.08936 118.92568 121.71968 124.09035 126.92668 128.11201 131.11769 133.48836 134.41968 136.74802 139.11868 140.30402 141.48935 143.60602 145.97668 146.86568 148.98235 151.35301 152.28435 154.65501 155.84035 156.77168 159.14235 161.51302 162.91002 164.09534 165.28069 168.32867 169.26001 170.19135 172.56201 173.70502 176.07568 177.26102 179.58934 181.96002 184.33069"
         y="210.13185"
         sodipodi:role="line"
         id="tspan47648"
         style="stroke-width:0.352778">Children over 40 kg (11 years or older based upon APLS weight calculation): Dilute 100</tspan><tspan
         x="20.49984 24.05584 26.384172 27.569506 29.897837 31.125505 32.310837 33.242168 35.612835 36.798172 38.152836 40.523502 42.597836 44.968502 47.339169 49.709839 52.080502 54.19717 55.382504 57.456841 59.827507 60.758835 63.087593 65.45826 66.644012 68.971924 72.527924 74.89859 75.829926 77.015259 78.412254 80.740593 83.111259 84.296593 86.370926 87.302261 89.672928 90.604263 92.720924 93.906265 96.276924 97.462265 98.647591 99.832924 102.16126 104.53193 105.67492 108.04559 109.23092 112.78692 115.11526 116.30059 117.23192 119.60259 120.74559 123.11626 124.25925 127.81526 128.74658 129.93193 132.0486 133.23392 134.63092 137.0016 139.37227 141.70059 142.88593 145.25659 146.65359 147.79659 150.80226 151.73358 152.91893 155.2896 156.47491 158.84558 161.21626 163.58693 164.77226 168.32826 169.2596 171.37627 172.51926 174.8476 176.07526 177.21826 179.58893 180.77426 183.14493 186.91258"
         y="215.00018"
         sodipodi:role="line"
         id="tspan47650"
         style="stroke-width:0.352778">mg of intravenous salbutamol (20 vials of the 5 mg in 5 ml strength) with 400 mls of 0.9%</tspan><tspan
         x="20.49984 22.616505 24.987173 27.35784 28.289171 30.617506 34.173504 35.358837 37.475502 39.846169 40.777504 43.14817 44.54517 45.476505 47.804836 50.175503 51.360836 52.546169 54.874504 56.059837 58.388168 59.319504 61.394264 63.806839 64.992172 67.362831 68.548172 70.66526 73.035927 73.967262 76.295593 77.480927 78.412254 80.782921 83.153587 84.296593 86.624924 87.852592 88.99559 91.366257 93.736923 96.10759 97.250595 100.80659 103.13493 104.32026 105.20926 107.57993 108.76526 111.13593 113.46426 115.83493 116.97794 120.53392 121.46526 123.58192 124.76726 126.16426 128.53493 130.90559 133.23392 134.41927 137.97525 138.90659 141.02325 142.42026 144.79092 147.11926 148.51625 150.88692 154.4425 155.58551 159.14149 160.07285 161.46983"
         y="219.86852"
         sodipodi:role="line"
         id="tspan47652"
         style="stroke-width:0.352778">sodium chloride to give a solution of 100 mg in 500 mls (200 microgram/ml)</tspan></text>
    <text
       style="font-variant:normal;font-weight:bold;font-stretch:normal;font-size:4.23333px;font-family:Arial;-inkscape-font-specification:Arial-BoldMT;writing-mode:lr-tb;fill:#000000;fill-opacity:1;fill-rule:nonzero;stroke:none;stroke-width:0.352778"
       id="text47658"
       x="7.799839"
       y="233.83852"><tspan
         x="7.799839 10.382172 12.964506 15.335173 17.917505 19.102839 21.685173 24.267506 25.452837 28.035173 30.617506 32.988171"
         y="233.83852"
         sodipodi:role="line"
         id="tspan47656"
         style="stroke-width:0.352778">Loading dose</tspan></text>
    <text
       style="font-variant:normal;font-weight:normal;font-stretch:normal;font-size:4.23333px;font-family:Arial;-inkscape-font-specification:ArialMT;writing-mode:lr-tb;fill:#000000;fill-opacity:1;fill-rule:nonzero;stroke:none;stroke-width:0.352778"
       id="text47664"
       x="35.358837"
       y="233.83852"><tspan
         x="35.358837 36.54417 37.729504 40.735168 43.105835 45.476501 46.661835 47.804836 50.133171 52.503834 53.689167 56.059837 58.388168 60.758835 61.901833 65.457832 66.389168 68.505836 69.902832 72.273499 74.601837 75.998833 78.369499 81.925499 83.068504 86.624504 87.55584 88.741173 90.858253 92.043594 93.44059 95.811249 98.181931 100.51025 101.69559 104.06626 105.25159 107.36826 109.73892 110.67027 112.99859 114.18392 115.11526 117.48592 119.85659 120.99959 123.37025 124.55559 125.69859 128.06926 129.21225 132.76825 133.69958 135.81625 137.21326 139.58392 141.91226 143.30925 145.67992 149.23593 151.3526 152.53792 154.65459 156.98293 158.16826 161.72383 162.65517 165.02583 166.21117 167.60817 169.97884 171.12183 173.49249"
         y="233.83852"
         sodipodi:role="line"
         id="tspan47660"
         style="stroke-width:0.352778">: Run the 200 microgram/ml strength solution at 5 micrograms/kg/min (1.5</tspan><tspan
         x="7.7998381 11.355839 12.28717 13.472506 15.58917 17.917505 19.102839 21.473505 23.844172 26.214838 27.611837 29.008837 30.151838 31.337172 33.707836 35.104836 36.290169 38.660835 39.803837 42.174503 44.54517 46.915836 48.312836"
         y="238.70686"
         sodipodi:role="line"
         id="tspan47662"
         style="stroke-width:0.352778">ml/kg/hour) for 1 hour</tspan></text>
    <text
       style="font-style:italic;font-variant:normal;font-weight:normal;font-stretch:normal;font-size:4.23333px;font-family:Arial;-inkscape-font-specification:Arial-ItalicMT;writing-mode:lr-tb;fill:#000000;fill-opacity:1;fill-rule:nonzero;stroke:none;stroke-width:0.352778"
       id="text47668"
       x="7.799839"
       y="247.76619"><tspan
         x="7.799839 10.636171 13.00684 15.123505 17.494171 18.891172 21.261839 22.404839 25.241171 28.289171 31.591173 32.776505 36.247837 38.618504 40.98917 41.920502 43.105839 45.476505 46.873505 47.804836 50.133171 52.503838 53.689171 56.059837 58.388596 60.759262 61.944595 64.061256 66.390015 68.760681 70.87735 71.808685 74.179352 76.550018 77.947021 79.132347 80.52935 82.857681 85.228348 87.599014 89.715683 90.647018 92.975349 95.346008 96.531349 97.462685 99.833344 102.16168 104.53235 105.46368 107.83435 110.20502 111.34801 113.71868 116.08936 118.20601 120.53435 121.71968 123.11667 125.48735 126.67268 129.00102 130.18634 131.11769 132.30301 133.48836 135.81668 137.93335 139.11868 140.51567 142.88635 146.35768 148.72835 149.91368 151.09901 153.46968 155.58635 157.95702 160.07368 162.19034 164.56102 165.95801 168.32867 169.26001 171.63068 172.77284"
         y="247.76619"
         sodipodi:role="line"
         id="tspan47666"
         style="stroke-width:0.352778">Ensure ECG monitoring and consider reducing loading dose rate if extreme tachycardia.</tspan></text>
    <text
       style="font-variant:normal;font-weight:bold;font-stretch:normal;font-size:4.23333px;font-family:Arial;-inkscape-font-specification:Arial-BoldMT;writing-mode:lr-tb;fill:#000000;fill-opacity:1;fill-rule:nonzero;stroke:none;stroke-width:0.352778"
       id="text49022"
       x="8.7905016"
       y="259.4588"><tspan
         x="8.7905016 9.9758348 12.558171 13.955174 16.537512 18.90818 20.093513 22.67585"
         y="259.4588"
         sodipodi:role="line"
         id="tspan49020"
         style="stroke-width:0.352778">Infusion</tspan></text>
    <text
       style="font-variant:normal;font-weight:normal;font-stretch:normal;font-size:4.23333px;font-family:Arial;-inkscape-font-specification:ArialMT;writing-mode:lr-tb;fill:#000000;fill-opacity:1;fill-rule:nonzero;stroke:none;stroke-width:0.352778"
       id="text49028"
       x="25.258186"
       y="259.4588"><tspan
         x="25.258186 26.44352 27.628853 30.422844 31.650505 32.79351 35.164177 36.56118 37.746513 38.931847 41.260185 43.630852 44.816177 45.747513 48.118179 50.44651 52.817177 53.748512 56.119179 58.44751 59.632835 62.00351 64.374176 66.490852 68.861511 70.046852 71.401512 73.772179 76.142845 78.513512 80.587845 82.958511 84.143845 85.286842 87.657516 90.028183 91.213516 92.102509 94.430847 95.658508 98.029175 100.14584 101.07716 103.40552 105.77618 106.96152 108.35851 110.72916 111.91451 114.24284 115.42818 116.61351 118.98415 120.12717 122.49784 123.68317 125.08018 127.45084 128.59383 132.14983 133.08116 135.15549 136.55249 138.92358 141.25192 142.64891 145.01917 148.57516 150.69183 151.87717 153.99384 156.32216 157.50749 161.06349 161.99483 164.36549 165.55083 166.94783 169.31848 170.4615 172.83217 174.22916 176.59982 177.74283 180.11349"
         y="259.4588"
         sodipodi:role="line"
         id="tspan49024"
         style="stroke-width:0.352778">: After the loading dose reduce the infusion rate to 1 -2 micrograms/kg/min (0.3-0.6</tspan><tspan
         x="8.7905169 12.346517 13.277837 14.46317 16.57984 18.90818 20.093513 22.46418 24.834846 27.205513 28.602516 29.999519 31.184853 32.327843 34.698509 35.883842 37.069176 39.397514 40.582848 44.096512 46.467178 48.541512 49.515182 53.071182 55.399506 58.955505 60.140846 61.537842 63.908508 65.051506 67.42218 68.607506 70.935844 72.121178 73.306511 75.677177 78.005516 81.561516 83.678177 86.006508 87.191841 90.747841 91.636848 94.007515 95.192848 96.589844 100.14584 102.51652 104.59085 105.52216 109.07817 111.40652 114.96249 116.10551 118.47617 120.84685 123.21751 124.14883 125.33418 126.5195 127.4085 129.73683 130.96449 133.29282 135.40948 136.34082 138.7115 141.08217 142.26749 143.66451 146.03516 147.22092 149.59158 150.98816 152.13116"
         y="264.32712"
         sodipodi:role="line"
         id="tspan49026"
         style="stroke-width:0.352778">ml/kg/hour), at a maximum rate of 20mcg/min (maximum adult infusion rate).</tspan></text>
    <text
       style="font-style:italic;font-variant:normal;font-weight:normal;font-stretch:normal;font-size:4.23333px;font-family:Arial;-inkscape-font-specification:Arial-ItalicMT;writing-mode:lr-tb;fill:#000000;fill-opacity:1;fill-rule:nonzero;stroke:none;stroke-width:0.352778"
       id="text49034"
       x="8.7905016"
       y="273.38647"><tspan
         x="8.7905016 11.626836 12.812169 15.860173 18.90818 20.093513 22.46418 24.834846 28.306175 29.237511 31.354179 33.470848 34.402168 36.772835 39.143501 40.32885 42.445503 44.816177 47.186836 49.55751 50.44651 52.817177 54.00251 56.373177 58.701508 59.886841 62.003929 64.374596 66.74527 68.861931 69.793266 72.121597 74.492264 75.889267 78.259933 80.588264 81.773598 82.704926 85.0756 86.260933 88.589264 90.95993 93.034264 94.219597 96.336258 98.706932 99.638268 100.5696 102.94025 104.12561 105.52259 107.89326 110.2216 112.59227 113.5236 114.9206 115.85191 118.2226 120.59325 121.77859 124.10693 126.4776 127.66294 128.59425 130.9649 132.10791 134.43625 136.55292 137.48425 139.85492 142.22559 143.41092 145.78159 146.92458"
         y="273.38647"
         sodipodi:role="line"
         id="tspan49030"
         style="stroke-width:0.352778">PICU admission should be considered in any child requiring an infusion of</tspan><tspan
         x="8.7905016 11.245839 13.616506 17.13018 18.061516 20.178169 21.575172 23.945839 26.316505 27.713509 30.084175 33.555504 34.740837 36.857506 39.228172 40.455849 43.927177 44.858513 47.229172 49.599838 50.785172 53.155846 54.298836"
         y="278.25479"
         sodipodi:role="line"
         id="tspan49032"
         style="stroke-width:0.352778">&gt;1microgram/kg/minute.</tspan></text>
    <text
       style="font-variant:normal;font-weight:normal;font-stretch:normal;font-size:4.23333px;font-family:Arial;-inkscape-font-specification:ArialMT;writing-mode:lr-tb;fill:#000000;fill-opacity:1;fill-rule:nonzero;stroke:none;stroke-width:0.352778"
       id="text49040"
       x="8.7905016"
       y="287.3988"><tspan
         x="8.7905016 11.626836 13.997502 17.00318 19.373848 20.770836 23.141502 24.326836 27.16317 29.533836 30.465172 32.835838 35.164177 36.34951 38.677849 42.233849 44.604507 45.535843 46.721176 47.864166 50.192513 52.266838 53.198166 55.315262 56.246597 57.473839 59.548599 60.733932 61.919266 63.104599 65.475266 67.591942 69.962601 72.036934 74.153603 76.524269 77.921265 80.291931 81.223267 83.593933 84.779266 85.9646 87.149933 89.520599 91.594933 93.965591 96.039932 98.410599 100.78127 103.15192 105.52259 107.89326 109.03627 110.2216 113.73527 116.10593 117.29127 119.61959 121.99026 124.36092 125.29227 126.22359 128.34026 129.52559 131.89626 134.01292 134.90192 137.27258 139.64325 141.76033 142.69124 144.80833 145.99367 147.3911 148.32201 150.69267 152.80934 153.99466 156.36533 157.50835 159.87901 161.06433 163.181 165.50934 169.02299 172.57901 174.90733 177.278 178.20934 180.28368"
         y="287.3988"
         sodipodi:role="line"
         id="tspan49036"
         style="stroke-width:0.352778">Beware Salbutamol toxicity: tachycardia, tachypnoea, metabolic acidosis (lactate commonly</tspan><tspan
         x="8.7905016 11.161168 12.092504 14.420842 16.79151 18.188515 19.373848 22.210182 23.395515 25.766182 27.840508 30.211174 32.581841 34.698509 37.069176 38.000511 40.371178 42.699509 46.255508 47.186836 49.55751 50.700508 52.817596 55.188255 57.558929 58.744263 61.114929 63.231178 65.305931 67.676598 69.073586 70.258926 73.264595 74.19593 75.381264 77.75193 78.937263 81.30793 83.678596 84.86393 87.192261 88.377594 89.562927 92.399269 93.542259 95.912926 98.2836 100.65427 101.83961 102.72858 105.09925 107.46992 109.84058 110.77193 113.10027 115.47092 116.65627 117.79926 120.16991 122.54058 123.93758 126.30826 128.67891 130.75325 131.89581"
         y="292.26712"
         sodipodi:role="line"
         id="tspan49038"
         style="stroke-width:0.352778">high) &amp; hypokalaemia can occur with both IV and inhaled therapy.</tspan></text>
    <text
       style="font-variant:normal;font-weight:bold;font-stretch:normal;font-size:4.23333px;font-family:Arial;-inkscape-font-specification:Arial-BoldMT;writing-mode:lr-tb;fill:#000000;fill-opacity:1;fill-rule:nonzero;stroke:none;stroke-width:0.352778"
       id="text49044"
       x="8.7905016"
       y="310.47046"><tspan
         x="8.7905016 11.753836 15.563832 16.749166 19.331505 21.913841 24.496178 27.16317 29.449593 30.634926 31.820259 33.005592 35.587929 37.958595 39.143929 40.329262 42.911598 44.308601 46.89093 49.261597 50.404602 52.986931 55.56926"
         y="310.47046"
         sodipodi:role="line"
         id="tspan49042"
         style="stroke-width:0.352778">Aminophylline infusion</tspan></text>
    <text
       style="font-style:italic;font-variant:normal;font-weight:bold;font-stretch:normal;font-size:4.23333px;font-family:Arial;-inkscape-font-specification:Arial-BoldItalicMT;writing-mode:lr-tb;fill:#000000;fill-opacity:1;fill-rule:nonzero;stroke:none;stroke-width:0.352778"
       id="text49048"
       x="56.754601"
       y="310.47046"><tspan
         x="56.754601 58.152016 60.734352 63.316689 64.713692 65.899033 67.084358 68.481346 69.666687 72.249023 74.831352 76.016685 77.413689 79.996025 82.366684 84.94902 87.531357 90.113693 92.484352 93.669685 94.855019 96.040352 98.622688 100.99335 102.3895"
         y="310.47046"
         sodipodi:role="line"
         id="tspan49046"
         style="stroke-width:0.352778">(not if on theophylline)</tspan></text>
    <text
       style="font-variant:normal;font-weight:normal;font-stretch:normal;font-size:4.23333px;font-family:Arial;-inkscape-font-specification:ArialMT;writing-mode:lr-tb;fill:#000000;fill-opacity:1;fill-rule:nonzero;stroke:none;stroke-width:0.352778"
       id="text49054"
       x="8.7905016"
       y="319.57211"><tspan
         x="8.7905016 11.838506 12.769841 13.701177 16.071844 17.257179 19.627846 20.813179 23.183846 25.512169 27.882835 31.438835 33.767174 34.952507 37.280846 38.466179 39.651512 40.836845 43.673172 44.816177 47.144508 50.700508 51.631836 54.00251 56.373177 58.701508 61.072166 63.146942 64.07827 65.009598 65.940926 68.3116 70.682259 71.867592 73.264595 75.635262 76.820595 78.894936 79.826263 82.19693 83.128265 85.244934 86.430267 88.800926 90.028603 91.213936 92.356926 94.685265 97.055931 98.241264 100.61193 102.94025 105.31092 106.45393 110.00993 112.33826 113.5236 114.45494 116.82561 118.01093 120.38158 122.70994 123.89526 127.45126 128.38258 129.56792 131.68459 132.8699 134.22458 136.55292 138.92358 141.25191 142.43724 144.80791 146.20491 147.39024 150.39592 151.32724 152.51259 154.88324 156.06857 158.43925 160.80992 163.18059 164.32358 167.87958 168.81091 170.92758 172.11292 174.48358 175.62659 177.95491 181.72258"
         y="319.57211"
         sodipodi:role="line"
         id="tspan49050"
         style="stroke-width:0.352778">Dilute 500mg of IV aminophylline (2 vials of the 250 mg in 10 ml strength) with 480 mls 0.9%</tspan><tspan
         x="8.7905016 10.90717 13.277837 15.648503 16.57984 18.90818 22.46418 23.649513 25.766182 28.136848 29.068169 31.438835 32.835838 33.767174 36.095512 38.466179 39.651512 40.836845 43.165176 44.35051 46.678841 47.610176 49.684509 52.097511 53.282852 55.653496 56.838837 58.955933 61.326599 62.257507 64.586266 65.771179 66.702927 69.073586 71.44426 72.587265 74.915596 76.143265 77.286263 79.656929 80.842262 84.398262 86.726601 87.869598 91.425598 92.356506"
         y="324.44046"
         sodipodi:role="line"
         id="tspan49052"
         style="stroke-width:0.352778">sodium chloride to give a solution of 1 mg/ml</tspan></text>
    <text
       style="font-variant:normal;font-weight:normal;font-stretch:normal;font-size:4.23333px;font-family:Arial;-inkscape-font-specification:ArialMT;writing-mode:lr-tb;fill:#000000;fill-opacity:1;fill-rule:nonzero;stroke:none;stroke-width:0.352778"
       id="text49058"
       x="8.7905016"
       y="333.54211"><tspan
         x="8.7905016 11.161168 13.531835 15.860173 18.230843 19.162178 21.532845 23.861183 25.046516 27.417168 29.787849 31.904503 34.232841 35.375847"
         y="333.54211"
         sodipodi:role="line"
         id="tspan49056"
         style="stroke-width:0.352778">Loading dose:</tspan></text>
    <path
       d="M 8.7905074,334.30413 H 34.233198 V 334.0078 H 8.7905074 Z"
       style="fill:#000000;fill-opacity:1;fill-rule:nonzero;stroke:none;stroke-width:0.352778"
       id="path49060" />
    <text
       style="font-variant:normal;font-weight:normal;font-stretch:normal;font-size:4.23333px;font-family:Symbol;-inkscape-font-specification:SymbolMT;writing-mode:lr-tb;fill:#000000;fill-opacity:1;fill-rule:nonzero;stroke:none;stroke-width:0.352778"
       id="text49064"
       x="15.140508"
       y="342.94012"><tspan
         x="15.140508"
         y="342.94012"
         id="tspan49062"
         style="stroke-width:0.352778">•</tspan></text>
    <text
       style="font-variant:normal;font-weight:normal;font-stretch:normal;font-size:4.23333px;font-family:Arial;-inkscape-font-specification:ArialMT;writing-mode:lr-tb;fill:#000000;fill-opacity:1;fill-rule:nonzero;stroke:none;stroke-width:0.352778"
       id="text49070"
       x="21.490517"
       y="342.94012"><tspan
         x="21.490517 23.861183 25.046516 28.602516 30.93084 32.116173 34.232841 36.56118 37.746513 39.143517 41.514168 42.699509 46.255508 47.186836 48.372177 50.488838 52.817177 54.214172 55.399506 57.770172 59.844505 62.215179 63.612183 64.797508 67.168182 69.538841 70.682259 74.238266 75.169174 77.539841 79.910507 81.053505 83.424171 85.54084 86.726173 88.123177 89.266174 90.493843 91.679176 94.684837 97.055504 97.986839 100.31518 102.68584 103.87118 105.05651 107.38483 109.45918 111.82983 113.22684 114.41218 116.78284 119.1535 120.33884 122.45552 124.78384 125.96918 127.15451 129.52515 131.89581 134.26648 135.45183 136.34082 138.71149 141.08215 143.45282 144.34183 146.71249 149.04082 150.22617 152.59683 154.96748 157.08415 159.45482 160.64015 162.71449 165.08516 167.45583 169.82649 170.71548 173.08615 174.27148 176.59982 178.97049"
         y="342.94012"
         sodipodi:role="line"
         id="tspan49066"
         style="stroke-width:0.352778">5 mg/kg (5 ml/kg) over 20 minutes (If weight over 66 kg then loading dose should be</tspan><tspan
         x="21.490517 23.81884 24.792503 26.866844 29.237511 31.608177 32.79351 35.164177 37.238503 39.609169 41.006172 42.191505 44.56218 46.932846 48.118179 51.674171 52.563179 54.933846 57.304512 58.44751 60.818176 62.934853 64.331841"
         y="347.80847"
         sodipodi:role="line"
         id="tspan49068"
         style="stroke-width:0.352778">given over 30 minutes)</tspan></text>
    <text
       style="font-variant:normal;font-weight:normal;font-stretch:normal;font-size:4.23333px;font-family:Symbol;-inkscape-font-specification:SymbolMT;writing-mode:lr-tb;fill:#000000;fill-opacity:1;fill-rule:nonzero;stroke:none;stroke-width:0.352778"
       id="text49074"
       x="15.140508"
       y="352.97311"><tspan
         x="15.140508"
         y="352.97311"
         id="tspan49072"
         style="stroke-width:0.352778">•</tspan></text>
    <text
       style="font-variant:normal;font-weight:normal;font-stretch:normal;font-size:4.23333px;font-family:Arial;-inkscape-font-specification:ArialMT;writing-mode:lr-tb;fill:#000000;fill-opacity:1;fill-rule:nonzero;stroke:none;stroke-width:0.352778"
       id="text49078"
       x="21.490517"
       y="352.97311"><tspan
         x="21.490517 25.004173 27.37484 29.449181 30.380516 33.936516 36.307182 39.863182 41.048515 43.376839 45.747513 47.864166 50.23484 51.420166 52.351509 54.468178 55.611176 57.981842 60.352509 62.68084 63.823853 67.379852 69.708176 70.893509 72.290932 74.661598 77.032265 79.361023 82.917023 83.848358 85.244507"
         y="352.97311"
         sodipodi:role="line"
         id="tspan49076"
         style="stroke-width:0.352778">Maximum dose is 500 mg (500ml)</tspan></text>
    <text
       style="font-variant:normal;font-weight:normal;font-stretch:normal;font-size:4.23333px;font-family:Symbol;-inkscape-font-specification:SymbolMT;writing-mode:lr-tb;fill:#000000;fill-opacity:1;fill-rule:nonzero;stroke:none;stroke-width:0.352778"
       id="text49082"
       x="15.140508"
       y="358.13779"><tspan
         x="15.140508"
         y="358.13779"
         id="tspan49080"
         style="stroke-width:0.352778">•</tspan></text>
    <text
       style="font-variant:normal;font-weight:normal;font-stretch:normal;font-size:4.23333px;font-family:Arial;-inkscape-font-specification:ArialMT;writing-mode:lr-tb;fill:#000000;fill-opacity:1;fill-rule:nonzero;stroke:none;stroke-width:0.352778"
       id="text49086"
       x="21.490517"
       y="358.13779"><tspan
         x="21.490517 24.326836 26.697502 28.814171 31.184837 32.581841 34.952507 36.095512 37.280846 39.651512 41.979836 43.165176 44.35051 47.186836 50.23484 53.536842 54.67984 57.050507 59.421165 61.749512 62.892509 65.009178 67.379852 68.565178 70.935844 72.33284 74.703506 75.88884 76.820175 79.148506 81.519173 82.66217 86.21817 88.588837 90.959503 91.890839 93.033844 95.40451 96.801506 97.732841 100.10351 102.43182 103.61676 105.94551 107.34251 109.71318 110.89806 111.82983 114.20051 115.38541 117.75608 118.68742 121.05809 123.13242 125.46117"
         y="358.13779"
         sodipodi:role="line"
         id="tspan49084"
         style="stroke-width:0.352778">Ensure that ECG and saturation monitoring are in place</tspan></text>
    <text
       style="font-style:italic;font-variant:normal;font-weight:normal;font-stretch:normal;font-size:4.23333px;font-family:Arial;-inkscape-font-specification:Arial-ItalicMT;writing-mode:lr-tb;fill:#000000;fill-opacity:1;fill-rule:nonzero;stroke:none;stroke-width:0.352778"
       id="text49092"
       x="8.7905016"
       y="372.02313"><tspan
         x="8.7905016 9.9758348 11.161168 12.346501 13.277837 15.394506 16.57984 17.511177 20.982506 23.353172 25.723839 27.120842 28.306175 30.676842 33.047508 34.232841 35.418175 36.56118 38.931847 40.11718 42.445503 44.816177 46.932846 49.303513 50.658173 53.028839 54.214172 55.399506 57.728256 60.09893 61.284691 62.470016 64.798363 65.983688 68.100357 70.471016 71.402359 73.773018 77.244354 79.615021 80.800354 81.731689 82.663025 86.176689 87.108017 88.29335 89.478683 90.410019 92.526688 93.712021 95.82869 98.199356 99.384689 100.57003 102.89835 105.26903 106.45436 107.63966 109.96802 112.33868 113.52402 114.45536 116.826 117.96902 120.33968 122.45636 123.38769 125.75835 128.12901 129.272 131.64267 133.97101 137.44234 139.813 140.99834 143.11501 145.48567 146.67101 147.85634 150.22701 152.59767 153.783 154.92601 157.29668 159.66734 160.85266 164.32401 166.69467 168.09167 170.46234 171.64767 172.83301 175.16133 177.532 179.90266 181.088 182.231 184.60167 186.97234"
         y="372.02313"
         sodipodi:role="line"
         id="tspan49088"
         style="stroke-width:0.352778">It is important to ensure that a volume limit is set on the infusion pump so that no more than the</tspan><tspan
         x="8.7905016 11.161168 12.346501 15.817845 18.188515 19.373848 21.490501 23.861183 25.046516 27.417168 29.787849 30.71917 33.089836 35.164177 36.34951 37.280846 39.397514 40.582848 42.953506 43.884842 46.001511 48.329842 50.700508 51.843925 54.2146 56.585266 57.771027 60.141685 61.538689 63.86702 65.052361 67.169022 69.539688 71.868019 74.238686 76.609352 77.540688 79.869026 82.239685 83.425018 84.568024 86.93869 88.124023 89.309357 91.637688 94.008354 95.151352 97.268021 99.638687 102.00935 103.19466 104.12603 106.45436 108.82503 111.19569 113.56636 115.68301 116.86835 117.75735 120.12801 121.31335 123.68401 125.80067 126.73202 129.06033 131.431"
         y="376.89148"
         sodipodi:role="line"
         id="tspan49090"
         style="stroke-width:0.352778">5 mg/kg bolus is given before changing to the continuous infusion</tspan></text>
    <text
       style="font-variant:normal;font-weight:normal;font-stretch:normal;font-size:4.23333px;font-family:Arial;-inkscape-font-specification:ArialMT;writing-mode:lr-tb;fill:#000000;fill-opacity:1;fill-rule:nonzero;stroke:none;stroke-width:0.352778"
       id="text49096"
       x="8.7905016"
       y="386.03546"><tspan
         x="8.7905016 9.9758348 12.304173 13.531835 15.902501 18.019173 18.950508 21.278847 23.649513 24.792503"
         y="386.03546"
         sodipodi:role="line"
         id="tspan49094"
         style="stroke-width:0.352778">Infusion:</tspan></text>
    <path
       d="M 8.7905074,386.79747 H 23.649508 v -0.29634 H 8.7905074 Z"
       style="fill:#000000;fill-opacity:1;fill-rule:nonzero;stroke:none;stroke-width:0.352778"
       id="path49098" />
    <text
       style="font-variant:normal;font-weight:normal;font-stretch:normal;font-size:4.23333px;font-family:Symbol;-inkscape-font-specification:SymbolMT;writing-mode:lr-tb;fill:#000000;fill-opacity:1;fill-rule:nonzero;stroke:none;stroke-width:0.352778"
       id="text49102"
       x="15.140508"
       y="395.43347"><tspan
         x="15.140508"
         y="395.43347"
         id="tspan49100"
         style="stroke-width:0.352778">•</tspan></text>
    <text
       style="font-variant:normal;font-weight:normal;font-stretch:normal;font-size:4.23333px;font-family:Arial;-inkscape-font-specification:ArialMT;writing-mode:lr-tb;fill:#000000;fill-opacity:1;fill-rule:nonzero;stroke:none;stroke-width:0.352778"
       id="text49106"
       x="21.490517"
       y="395.43347"><tspan
         x="21.490517 24.538506 26.909172 27.840508 28.771843 31.142509 32.539513 34.910179 37.280846 38.466179 40.794502 43.165176 45.535843 47.906509 49.303513 50.44651 52.817177 55.187836 56.373177 58.489838 60.818176 62.00351 63.146507 65.517166 66.702507 70.258507 72.587265 73.772171 75.889267 78.217598 79.402931 81.773598 84.101929 86.472595 87.869598 89.054932 90.451935 92.822601 93.965591 97.521599 98.452927 99.63826 101.75492 104.08327 105.26861 107.63924 110.00993 112.38061 113.7776 115.13184"
         y="395.43347"
         sodipodi:role="line"
         id="tspan49104"
         style="stroke-width:0.352778">Children under 40 kg: 1 mg/kg/hour (1 ml/kg/hour)</tspan></text>
    <text
       style="font-variant:normal;font-weight:normal;font-stretch:normal;font-size:4.23333px;font-family:Symbol;-inkscape-font-specification:SymbolMT;writing-mode:lr-tb;fill:#000000;fill-opacity:1;fill-rule:nonzero;stroke:none;stroke-width:0.352778"
       id="text49110"
       x="15.140508"
       y="400.59814"><tspan
         x="15.140508"
         y="400.59814"
         id="tspan49108"
         style="stroke-width:0.352778">•</tspan></text>
    <text
       style="font-variant:normal;font-weight:normal;font-stretch:normal;font-size:4.23333px;font-family:Arial;-inkscape-font-specification:ArialMT;writing-mode:lr-tb;fill:#000000;fill-opacity:1;fill-rule:nonzero;stroke:none;stroke-width:0.352778"
       id="text49114"
       x="21.490517"
       y="400.59814"><tspan
         x="21.490517 24.538506 26.909172 27.840508 28.771843 31.142509 32.539513 34.910179 37.280846 38.466179 40.836845 42.911179 45.281853 46.678841 47.864166 50.23484 52.605507 53.79084 55.907509 58.23584 59.421165 60.564178 62.934853 64.078262 66.448929 67.845512 70.216171 71.401505 74.957504 77.285843 78.471176 80.587845 82.916176 84.101509 86.472176 88.800507 91.171173 92.568176 93.75351 95.150505 97.521179 98.706512 101.07716 102.47417 104.80251 108.35851 109.28984 110.47517 112.59184 114.92017 116.10551 118.47617 120.84685 123.21748 124.61452 125.96918"
         y="400.59814"
         sodipodi:role="line"
         id="tspan49112"
         style="stroke-width:0.352778">Children over 40 kg: 0.5-1 mg/kg/hour (0.5-1ml/kg/hour)</tspan></text>
    <text
       style="font-variant:normal;font-weight:normal;font-stretch:normal;font-size:4.23333px;font-family:Arial;-inkscape-font-specification:ArialMT;writing-mode:lr-tb;fill:#000000;fill-opacity:1;fill-rule:nonzero;stroke:none;stroke-width:0.352778"
       id="text49118"
       x="8.7905016"
       y="414.56815"><tspan
         x="8.7905016 11.838506 14.209172 16.57984 17.511177 19.881844 21.067177 23.183846 25.554512 27.882835 30.253502 32.581841 34.952507 37.069176 39.439842 40.625175 41.514183 43.884842 46.255508 48.626183 50.700508 51.843506 52.775261 55.145927 57.516602 58.701508 59.632835 62.00351 63.146507 65.517166 67.88784 70.258507 71.44384 72.33284 74.703506 77.074173 78.217178 80.587845 81.98484 84.355507 86.683846 88.800507"
         y="414.56815"
         sodipodi:role="line"
         id="tspan49116"
         style="stroke-width:0.352778">Rapid sequence induction/intubation drugs</tspan></text>
    <path
       d="M 8.7905074,415.33013 H 88.800509 V 415.0338 H 8.7905074 Z"
       style="fill:#000000;fill-opacity:1;fill-rule:nonzero;stroke:none;stroke-width:0.352778"
       id="path49120" />
    <text
       style="font-variant:normal;font-weight:normal;font-stretch:normal;font-size:4.23333px;font-family:Symbol;-inkscape-font-specification:SymbolMT;writing-mode:lr-tb;fill:#000000;fill-opacity:1;fill-rule:nonzero;stroke:none;stroke-width:0.352778"
       id="text49124"
       x="15.140508"
       y="423.96613"><tspan
         x="15.140508"
         y="423.96613"
         id="tspan49122"
         style="stroke-width:0.352778">•</tspan></text>
    <text
       style="font-variant:normal;font-weight:normal;font-stretch:normal;font-size:4.23333px;font-family:Arial;-inkscape-font-specification:ArialMT;writing-mode:lr-tb;fill:#000000;fill-opacity:1;fill-rule:nonzero;stroke:none;stroke-width:0.352778"
       id="text49128"
       x="21.490517"
       y="423.96613"><tspan
         x="21.490517 24.326836 25.512169 26.909172 29.279839 31.650505 32.581841 34.910179 37.280846 38.466179 40.836845 43.165176 44.35051 47.906509 48.837837 50.954506 52.351509 54.722176 57.050507 58.44751 60.818176 64.331841 65.517601 67.634262 69.962166"
         y="423.96613"
         sodipodi:role="line"
         id="tspan49126"
         style="stroke-width:0.352778">Atropine 20 microgram/kg</tspan></text>
    <text
       style="font-variant:normal;font-weight:normal;font-stretch:normal;font-size:4.23333px;font-family:Symbol;-inkscape-font-specification:SymbolMT;writing-mode:lr-tb;fill:#000000;fill-opacity:1;fill-rule:nonzero;stroke:none;stroke-width:0.352778"
       id="text49132"
       x="15.140508"
       y="429.1308"><tspan
         x="15.140508"
         y="429.1308"
         id="tspan49130"
         style="stroke-width:0.352778">•</tspan></text>
    <text
       style="font-variant:normal;font-weight:normal;font-stretch:normal;font-size:4.23333px;font-family:Arial;-inkscape-font-specification:ArialMT;writing-mode:lr-tb;fill:#000000;fill-opacity:1;fill-rule:nonzero;stroke:none;stroke-width:0.352778"
       id="text49136"
       x="21.490517"
       y="429.1308"><tspan
         x="21.490517 24.326836 26.697502 27.882835 30.211174 33.767174 34.698509 37.026848 39.397514 40.582848 42.953506 44.35051 46.721176 47.864166 51.420166 53.748512 54.933846 57.050507 59.378853 60.564178 61.961166 64.331841 66.702507 67.88784 69.073166 71.44384 72.586838 74.957504 78.513504 80.841843 82.027176 84.143845 86.472176 87.657509 88.546509 89.77417 90.959503 93.414841 95.785507 98.156174 99.341507 101.41585 103.78651 106.15718 107.51184 109.62849 110.81384 113.14259 114.37025 115.5556 117.92625 120.25461 122.62527 123.97951"
         y="429.1308"
         sodipodi:role="line"
         id="tspan49134"
         style="stroke-width:0.352778">Ketamine 1-2 mg/kg (up to 3mg/kg if &gt;12 years of age)</tspan></text>
    <text
       style="font-variant:normal;font-weight:normal;font-stretch:normal;font-size:4.23333px;font-family:Symbol;-inkscape-font-specification:SymbolMT;writing-mode:lr-tb;fill:#000000;fill-opacity:1;fill-rule:nonzero;stroke:none;stroke-width:0.352778"
       id="text49140"
       x="15.140508"
       y="434.25314"><tspan
         x="15.140508"
         y="434.25314"
         id="tspan49138"
         style="stroke-width:0.352778">•</tspan></text>
    <text
       style="font-variant:normal;font-weight:normal;font-stretch:normal;font-size:4.23333px;font-family:Arial;-inkscape-font-specification:ArialMT;writing-mode:lr-tb;fill:#000000;fill-opacity:1;fill-rule:nonzero;stroke:none;stroke-width:0.352778"
       id="text49152"
       x="21.490517"
       y="434.25314"><tspan
         x="21.490517 24.326836 26.697502 28.771843 31.142509 34.698509 37.069176 38.212181 40.582848 42.953506 45.324165 46.213173 48.583839 52.097511 53.282852 55.653496 57.050507 59.421165 60.564178 64.077843 66.406166 67.591507 69.708176 72.078842"
         y="434.25314"
         sodipodi:role="line"
         id="tspan49142"
         style="stroke-width:0.352778">Suxamethonium 1-2 mg/kg</tspan><tspan
         x="8.7905016 9.9758348 12.346501 13.531835 15.860173 18.230843 20.601509 21.786842 22.718178 25.046516 27.417183 28.602516 30.93084 32.116173 33.301506 35.672173 36.857506 38.931847 41.302513 42.233849 43.165176 45.535843 46.721176 49.726852 50.6586 51.843506 54.214172 55.399506 57.770172 59.886841 61.029839 63.400513 66.914169 69.284836 70.470177 72.586838 74.915176 77.285843 79.656509 80.587845 82.958511 84.101509 86.472176 88.842842 89.77417 91.848511 93.033844 95.40451 97.775177 98.96051 101.28883 102.47417 103.65951 105.98782 109.54383 111.91451 113.05751 115.42815 117.79884 118.94183 121.31251 123.38684 124.57217 126.94284 129.31349 130.49883 132.86949 134.94383 137.3145 139.68517 141.08215 142.01349 144.38416 146.75482 148.87149 151.19981 153.57048 154.75583 156.87291 157.80424 158.73558 161.10625 162.03758 164.15425 165.08559 167.45625 169.82692 171.01224 174.01791 176.34583 178.71649 179.90182 180.83316 182.94981"
         y="448.22314"
         sodipodi:role="line"
         id="tspan49144"
         style="stroke-width:0.352778">Intubation of a child with asthma should only be attempted by an experienced clinician who is</tspan><tspan
         x="8.7905016 11.161168 12.558171 14.88651 16.114172 17.045507 19.162178 20.093513 22.46418 24.834846 26.02018 27.205513 28.094505 30.465172 31.650505 32.835838 35.164177 37.534843 38.677849 42.233849 44.604507 46.932846 49.303513 51.632256 54.00293 57.558929 59.887268 62.257942 63.443268 64.586266 66.914597 68.142265 69.327599 70.470596 72.841263 75.211929 76.397263 77.328598 78.217598 79.445267 81.815933 83.212509 84.355507 86.726173 88.123177 90.493843 92.86451 94.007507 96.378174 98.74884 99.680176 102.05085 104.37918 105.56451 107.68118 110.00951 113.56551 115.93618 116.86751 117.79884 119.9155 122.28617 123.4715 124.40285 126.7316 129.10225 131.21892 132.40425 133.59 135.91833 138.289 139.47433 140.65967 142.77634 145.10468 147.47534 148.66066 150.989 153.35966 154.54501 156.87334 159.244 161.36067 163.73134 166.05966 168.43034 169.61566 171.98633 173.38335 175.71167 178.08234 179.22449"
         y="453.09146"
         sodipodi:role="line"
         id="tspan49146"
         style="stroke-width:0.352778">proficient in the management of the life-threatening complications that can be encountered.</tspan><tspan
         x="8.7905016 9.9758348 12.346501 13.531835 15.860173 18.230843 20.601509 21.532845 22.718178 23.649513 26.02018 28.348503 29.533836 30.71917 33.047508 34.232841 35.418175 37.788841 40.11718 41.302513 42.233849 44.604507 45.789841 48.118179 50.44693 52.817596 54.00251 54.933846 57.304512 59.675171 60.818176 63.188843 64.585846 66.956512 69.284836 71.401505 72.586838 73.518173 74.449509 76.56617 77.751503 80.122177 82.492844 83.635841 86.006508 88.377174 90.747841 92.822174 95.192841 96.378174 97.309509 98.494843 99.680176 100.6115 102.72818 103.91351 106.28416 107.21551 109.33216 111.66051 112.84584 113.77718 117.33317 119.66151 122.03218 123.42915 124.61452 126.98518 129.31349 130.49883 131.68416 132.86949 135.19824 136.38359 138.75426 141.12491 143.24158 145.61224 147.00967 149.33801 150.52333 151.70868 154.037 156.40767 157.593 158.77834 161.10667 162.29201 164.66267 167.03334 167.92233 170.293 172.40967 173.595 175.92334 177.10867"
         y="462.19315"
         sodipodi:role="line"
         id="tspan49148"
         style="stroke-width:0.352778">In addition to the intubation drugs listed above it is also important to ensure that a bolus of</tspan><tspan
         x="8.7905016 11.161168 13.531835 17.087837 18.019173 19.204506 21.321175 23.649513 24.834846 27.16317 28.348503 29.533836 31.904503 33.047508 35.418175 39.185844 40.371178 42.487846 44.816177 47.186836 48.118179 50.44651 54.00251 55.187836 57.304512 59.675171 60.606087 62.976746 64.374176 65.305496 67.633842 70.004509 71.189842 72.121178 74.237846 75.42318 77.793846 79.868172 82.238838 83.170174 84.101509 86.472176 88.842842 89.77417 92.144844 93.287842 95.658508 96.589844 98.96051 101.33118 103.65951 104.84483 107.85052 108.78184 109.96717 112.33784 113.52318 115.89384 117.07918 118.47617 120.84685 122.9635 125.33417 127.45084 129.56749 130.49883 131.68416 134.01248 135.19783 136.12915 138.49982 140.82816"
         y="467.06146"
         sodipodi:role="line"
         id="tspan49150"
         style="stroke-width:0.352778">20ml/kg of 0.9% sodium chloride is available along with a resuscitation</tspan></text>
  </g>
</svg>
