<?xml version="1.0" encoding="UTF-8" standalone="no"?>
<!-- Created with Inkscape (http://www.inkscape.org/) -->

<svg
   width="210mm"
   height="297mm"
   viewBox="0 0 210 297"
   version="1.1"
   id="svg1549"
   inkscape:version="1.1 (c68e22c387, 2021-05-23)"
   sodipodi:docname="nls_fig_1_flowchart.svg"
   xmlns:inkscape="http://www.inkscape.org/namespaces/inkscape"
   xmlns:sodipodi="http://sodipodi.sourceforge.net/DTD/sodipodi-0.dtd"
   xmlns="http://www.w3.org/2000/svg"
   xmlns:svg="http://www.w3.org/2000/svg">
  <sodipodi:namedview
     id="namedview1551"
     pagecolor="#ffffff"
     bordercolor="#666666"
     borderopacity="1.0"
     inkscape:pageshadow="2"
     inkscape:pageopacity="0.0"
     inkscape:pagecheckerboard="0"
     inkscape:document-units="mm"
     showgrid="false"
     inkscape:zoom="0.69397447"
     inkscape:cx="396.26818"
     inkscape:cy="561.25984"
     inkscape:window-width="2560"
     inkscape:window-height="1513"
     inkscape:window-x="0"
     inkscape:window-y="0"
     inkscape:window-maximized="1"
     inkscape:current-layer="layer1" />
  <defs
     id="defs1546">
    <clipPath
       clipPathUnits="userSpaceOnUse"
       id="clipPath359">
      <path
         d="M 0,0 H 595.276 V 841.89 H 0 Z"
         id="path357" />
    </clipPath>
    <clipPath
       clipPathUnits="userSpaceOnUse"
       id="clipPath421">
      <path
         d="M 0,0 H 595.276 V 841.89 H 0 Z"
         id="path419" />
    </clipPath>
    <clipPath
       clipPathUnits="userSpaceOnUse"
       id="clipPath441">
      <path
         d="M 0,0 H 595.276 V 841.89 H 0 Z"
         id="path439" />
    </clipPath>
    <clipPath
       clipPathUnits="userSpaceOnUse"
       id="clipPath493">
      <path
         d="M 0,0 H 595.276 V 841.89 H 0 Z"
         id="path491" />
    </clipPath>
    <clipPath
       clipPathUnits="userSpaceOnUse"
       id="clipPath533">
      <path
         d="M 0,0 H 595.276 V 841.89 H 0 Z"
         id="path531" />
    </clipPath>
    <clipPath
       clipPathUnits="userSpaceOnUse"
       id="clipPath549">
      <path
         d="M 0,0 H 595.276 V 841.89 H 0 Z"
         id="path547" />
    </clipPath>
    <clipPath
       clipPathUnits="userSpaceOnUse"
       id="clipPath613">
      <path
         d="M 0,0 H 595.276 V 841.89 H 0 Z"
         id="path611" />
    </clipPath>
    <clipPath
       clipPathUnits="userSpaceOnUse"
       id="clipPath737">
      <path
         d="M 0,0 H 595.276 V 841.89 H 0 Z"
         id="path735" />
    </clipPath>
    <clipPath
       clipPathUnits="userSpaceOnUse"
       id="clipPath937">
      <path
         d="M 0,0 H 595.276 V 841.89 H 0 Z"
         id="path935" />
    </clipPath>
    <linearGradient
       x1="0"
       y1="0"
       x2="1"
       y2="0"
       gradientUnits="userSpaceOnUse"
       gradientTransform="matrix(0,575.1604,575.1604,0,500.20729,90.981323)"
       spreadMethod="pad"
       id="linearGradient1035">
      <stop
         style="stop-opacity:1;stop-color:#f8c6bc"
         offset="0"
         id="stop1027" />
      <stop
         style="stop-opacity:1;stop-color:#f8c6bc"
         offset="0"
         id="stop1029" />
      <stop
         style="stop-opacity:1;stop-color:#cdd3d7"
         offset="0.684818"
         id="stop1031" />
      <stop
         style="stop-opacity:1;stop-color:#769dc0"
         offset="1"
         id="stop1033" />
    </linearGradient>
    <clipPath
       clipPathUnits="userSpaceOnUse"
       id="clipPath1049">
      <path
         d="M 89.39,87.79 99.715,76.372 111.358,87.79 V 363.78 H 89.39 Z"
         id="path1047" />
    </clipPath>
    <linearGradient
       x1="0"
       y1="0"
       x2="1"
       y2="0"
       gradientUnits="userSpaceOnUse"
       gradientTransform="matrix(0,575.1604,575.1604,0,111.35825,76.37236)"
       spreadMethod="pad"
       id="linearGradient1067">
      <stop
         style="stop-opacity:1;stop-color:#f4ef92"
         offset="0"
         id="stop1055" />
      <stop
         style="stop-opacity:1;stop-color:#f4ef92"
         offset="0"
         id="stop1057" />
      <stop
         style="stop-opacity:1;stop-color:#e8f3fb"
         offset="0.33861968"
         id="stop1059" />
      <stop
         style="stop-opacity:1;stop-color:#e8f3fb"
         offset="0.601182"
         id="stop1061" />
      <stop
         style="stop-opacity:1;stop-color:#e8f3fb"
         offset="0.63069478"
         id="stop1063" />
      <stop
         style="stop-opacity:1;stop-color:#e8f3fb"
         offset="1"
         id="stop1065" />
    </linearGradient>
  </defs>
  <g
     inkscape:label="Layer 1"
     inkscape:groupmode="layer"
     id="layer1">
    <g
       id="g317"
       transform="matrix(0.35277777,0,0,-0.35277777,168.10831,203.17167)">
      <path
         d="M 0,0 17.131,-9.861"
         style="fill:none;stroke:#800939;stroke-width:0.709;stroke-linecap:round;stroke-linejoin:round;stroke-miterlimit:4;stroke-dasharray:0, 2.081;stroke-dashoffset:0;stroke-opacity:1"
         id="path319" />
    </g>
    <g
       id="g321"
       transform="matrix(0.35277777,0,0,-0.35277777,175.12746,206.49783)">
      <path
         d="M 0,0 19.572,9.991"
         style="fill:none;stroke:#800939;stroke-width:0.709;stroke-linecap:round;stroke-linejoin:round;stroke-miterlimit:4;stroke-dasharray:0, 2.093;stroke-dashoffset:0;stroke-opacity:1"
         id="path323" />
    </g>
    <g
       id="g325"
       transform="matrix(0.35277777,0,0,-0.35277777,182.36088,202.05502)">
      <path
         d="M 0,0 V 560.552"
         style="fill:none;stroke:#800939;stroke-width:0.709;stroke-linecap:round;stroke-linejoin:round;stroke-miterlimit:4;stroke-dasharray:0, 2.127;stroke-dashoffset:0;stroke-opacity:1"
         id="path327" />
    </g>
    <g
       id="g329"
       transform="matrix(0.35277777,0,0,-0.35277777,181.61645,3.9296969)">
      <path
         d="M 0,0 H -39.039"
         style="fill:none;stroke:#800939;stroke-width:0.709;stroke-linecap:round;stroke-linejoin:round;stroke-miterlimit:4;stroke-dasharray:0, 2.11;stroke-dashoffset:0;stroke-opacity:1"
         id="path331" />
    </g>
    <g
       id="g333"
       transform="matrix(0.35277777,0,0,-0.35277777,167.47218,4.6801609)">
      <path
         d="M 0,0 V -560.552"
         style="fill:none;stroke:#800939;stroke-width:0.709;stroke-linecap:round;stroke-linejoin:round;stroke-miterlimit:4;stroke-dasharray:0, 2.127;stroke-dashoffset:0;stroke-opacity:1"
         id="path335" />
    </g>
    <g
       id="g337"
       transform="matrix(0.35277777,0,0,-0.35277777,174.46988,206.83347)">
      <path
         d="m 0,0 v 0 m 22.368,11.418 v 0 m 0,563.742 v 0 m -42.204,0 v 0 m 0,-563.742 v 0"
         style="fill:none;stroke:#800939;stroke-width:0.709;stroke-linecap:round;stroke-linejoin:round;stroke-miterlimit:4;stroke-dasharray:none;stroke-opacity:1"
         id="path339" />
    </g>
    <text
       transform="rotate(90)"
       style="font-variant:normal;font-weight:normal;font-stretch:normal;font-size:3.88197px;font-family:Resus;-inkscape-font-specification:Resus-Regular;writing-mode:lr-tb;fill:#800939;fill-opacity:1;fill-rule:nonzero;stroke:none;stroke-width:0.352778"
       id="text343"
       x="8.7810621"
       y="-173.85815"><tspan
         x="8.7810621 11.05667 13.378085 14.30976 16.888939 18.923088 20.996059 21.927731 24.212269 25.260788 28.542603 30.867123 33.118664 34.050335 36.702106 38.905125"
         y="-173.85815"
         sodipodi:role="line"
         id="tspan341"
         style="stroke-width:0.352778">AT ALL TIMES ASK</tspan></text>
    <text
       transform="rotate(90)"
       style="font-variant:normal;font-weight:bold;font-stretch:normal;font-size:3.88197px;font-family:Resus;-inkscape-font-specification:Resus-Bold;writing-mode:lr-tb;fill:#800939;fill-opacity:1;fill-rule:nonzero;stroke:none;stroke-width:0.352778"
       id="text347"
       x="42.409946"
       y="-173.85815"><tspan
         x="42.409946 44.314823 45.48679 47.769382 48.701061 51.7057 54.030994 56.075245 58.513119 59.44479 62.449429 64.774727 67.100021 69.930367 72.255669 75.091827"
         y="-173.85815"
         sodipodi:role="line"
         id="tspan345"
         style="stroke-width:0.352778">“IS HELP NEEDED”</tspan></text>
    <g
       id="g353"
       transform="matrix(0.35277777,0,0,-0.35277777,-13.510758,238.55468)">
      <g
         id="g355"
         clip-path="url(#clipPath359)">
        <g
           id="g361"
           transform="translate(50.0466,632.7097)">
          <path
             d="m 0,0 v -172.482 c 0,-4.695 4.007,-8.502 8.949,-8.502 h 82.475 c 4.943,0 8.949,3.807 8.949,8.502 V 0 Z"
             style="fill:#fcd7cc;fill-opacity:1;fill-rule:nonzero;stroke:none"
             id="path363" />
        </g>
      </g>
    </g>
    <text
       style="font-variant:normal;font-weight:bold;font-stretch:normal;font-size:2.99861px;font-family:Resus;-inkscape-font-specification:Resus-Bold;writing-mode:lr-tb;fill:#800939;fill-opacity:1;fill-rule:nonzero;stroke:none;stroke-width:0.352778"
       id="text367"
       x="10.408881"
       y="23.196125"><tspan
         x="10.408881 12.303702 13.281249 14.961072 16.481068 18.133301 18.852968 20.692915 22.54426 24.384207 25.615137 26.424162 28.140566 29.942732 30.662397 31.475321 33.277489"
         y="23.196125"
         sodipodi:role="line"
         id="tspan365"
         style="stroke-width:0.352778">Place undried in</tspan></text>
    <text
       style="font-variant:normal;font-weight:bold;font-stretch:normal;font-size:2.99861px;font-family:Resus;-inkscape-font-specification:Resus-Bold;writing-mode:lr-tb;fill:#800939;fill-opacity:1;fill-rule:nonzero;stroke:none;stroke-width:0.352778"
       id="text371"
       x="11.918382"
       y="26.371128"><tspan
         x="11.918382 13.761329 14.738875 16.471771 17.895811 19.153429 19.962454 21.46176 22.181425 24.586313 25.818743 27.518953 29.321119 30.040789 31.767988"
         y="26.371128"
         sodipodi:role="line"
         id="tspan369"
         style="stroke-width:0.352778">plastic wrap +</tspan></text>
    <text
       style="font-variant:normal;font-weight:bold;font-stretch:normal;font-size:2.99861px;font-family:Resus;-inkscape-font-specification:Resus-Bold;writing-mode:lr-tb;fill:#800939;fill-opacity:1;fill-rule:nonzero;stroke:none;stroke-width:0.352778"
       id="text375"
       x="13.102056"
       y="29.546127"><tspan
         x="13.102056 14.334485 16.022703 17.86265 18.671675 20.371889 22.189947 23.43437 24.154036 26.005381 27.693598 29.338934"
         y="29.546127"
         sodipodi:role="line"
         id="tspan373"
         style="stroke-width:0.352778">radiant heat</tspan></text>
    <text
       style="font-variant:normal;font-weight:bold;font-stretch:normal;font-size:2.99861px;font-family:Resus;-inkscape-font-specification:Resus-Bold;writing-mode:lr-tb;fill:#800939;fill-opacity:1;fill-rule:nonzero;stroke:none;stroke-width:0.352778"
       id="text379"
       x="10.452519"
       y="49.421131"><tspan
         x="10.452519 11.383288 13.234632 14.667068 16.511211 17.324135 18.536774 20.25318 22.055346 22.775011 24.567579 26.283686 27.878645 29.722792 31.430502"
         y="49.421131"
         sodipodi:role="line"
         id="tspan377"
         style="stroke-width:0.352778">Inspired oxygen</tspan></text>
    <text
       style="font-variant:normal;font-weight:normal;font-stretch:normal;font-size:2.99861px;font-family:Resus;-inkscape-font-specification:Resus-Regular;writing-mode:lr-tb;fill:#800939;fill-opacity:1;fill-rule:nonzero;stroke:none;stroke-width:0.352778"
       id="text383"
       x="7.3040838"
       y="53.096127"><tspan
         x="7.3040838 8.9821062 10.832549 12.220906 13.842854 15.569755 16.289421 18.601049 20.266779 21.917215 23.506178 24.852552 25.572222 27.198366 28.887484 30.275843 32.019836 33.793217"
         y="53.096127"
         sodipodi:role="line"
         id="tspan381"
         style="stroke-width:0.352778">28–31 weeks 21–30%</tspan></text>
    <text
       style="font-variant:normal;font-weight:normal;font-stretch:normal;font-size:2.99861px;font-family:Resus;-inkscape-font-specification:Resus-Regular;writing-mode:lr-tb;fill:#800939;fill-opacity:1;fill-rule:nonzero;stroke:none;stroke-width:0.352778"
       id="text387"
       x="10.862023"
       y="56.271122"><tspan
         x="10.862023 12.589223 13.30889 14.986913 16.714111 17.433779 19.745108 21.410837 23.061274 24.650236 25.996611 26.71628 28.460272 30.233648"
         y="56.271122"
         sodipodi:role="line"
         id="tspan385"
         style="stroke-width:0.352778">&lt; 28 weeks 30%</tspan></text>
    <text
       style="font-variant:normal;font-weight:normal;font-stretch:normal;font-size:2.99861px;font-family:Resus;-inkscape-font-specification:Resus-Regular;writing-mode:lr-tb;fill:#800939;fill-opacity:1;fill-rule:nonzero;stroke:none;stroke-width:0.352778"
       id="text391"
       x="9.0840235"
       y="70.296112"><tspan
         x="9.0840235 9.9248343 11.031322 11.750989 13.523467 14.255128 15.837195 16.568855 18.358427 20.106617 20.826284 21.557943 23.307936 24.471395 25.385672 26.980631 28.194769 28.92943 30.711206 32.480385 33.864246 34.604904"
         y="70.296112"
         sodipodi:role="line"
         id="tspan389"
         style="stroke-width:0.352778">If giving inflations,</tspan></text>
    <text
       style="font-variant:normal;font-weight:normal;font-stretch:normal;font-size:2.99861px;font-family:Resus;-inkscape-font-specification:Resus-Regular;writing-mode:lr-tb;fill:#800939;fill-opacity:1;fill-rule:nonzero;stroke:none;stroke-width:0.352778"
       id="text395"
       x="7.423358"
       y="73.471115"><tspan
         x="7.423358 8.8156118 10.049541 11.702676 12.956094 14.158538 14.878203 17.219519 17.947582 19.16172 20.90991 21.629576 23.324991 25.052191 25.771856 27.260069 29.97381 30.693476"
         y="73.471115"
         sodipodi:role="line"
         id="tspan393"
         style="stroke-width:0.352778">start with 25 cm H</tspan></text>
    <text
       style="font-variant:normal;font-weight:normal;font-stretch:normal;font-size:1.74819px;font-family:Resus;-inkscape-font-specification:Resus-Regular;writing-mode:lr-tb;fill:#800939;fill-opacity:1;fill-rule:nonzero;stroke:none;stroke-width:0.352778"
       id="text399"
       x="32.958755"
       y="74.469658"><tspan
         x="32.958755"
         y="74.469658"
         id="tspan397"
         style="stroke-width:0.352778">2</tspan></text>
    <text
       style="font-variant:normal;font-weight:normal;font-stretch:normal;font-size:2.99861px;font-family:Resus;-inkscape-font-specification:Resus-Regular;writing-mode:lr-tb;fill:#800939;fill-opacity:1;fill-rule:nonzero;stroke:none;stroke-width:0.352778"
       id="text403"
       x="33.963078"
       y="73.471115"><tspan
         x="33.963078"
         y="73.471115"
         id="tspan401"
         style="stroke-width:0.352778">O</tspan></text>
    <path
       d="M 49.553913,43.144368 H 133.24797 V 33.14453 H 49.553913 Z"
       style="fill:#0b4476;fill-opacity:1;fill-rule:nonzero;stroke:none;stroke-width:0.352778"
       id="path405" />
    <text
       style="font-variant:normal;font-weight:bold;font-stretch:normal;font-size:2.99861px;font-family:Resus;-inkscape-font-specification:Resus-Bold;writing-mode:lr-tb;fill:#ffffff;fill-opacity:1;fill-rule:nonzero;stroke:none;stroke-width:0.352778"
       id="text409"
       x="86.660736"
       y="37.362514"><tspan
         x="86.660736 88.786453 90.207794 91.629135 93.332649 94.75399 96.142349"
         y="37.362514"
         sodipodi:role="line"
         id="tspan407"
         style="stroke-width:0.352778">Assess</tspan></text>
    <text
       style="font-variant:normal;font-weight:normal;font-stretch:normal;font-size:2.99861px;font-family:Resus;-inkscape-font-specification:Resus-Regular;writing-mode:lr-tb;fill:#ffffff;fill-opacity:1;fill-rule:nonzero;stroke:none;stroke-width:0.352778"
       id="text413"
       x="67.847908"
       y="41.037548"><tspan
         x="67.847908 69.774521 71.551498 72.407898 74.191475 75.96125 76.926506 77.66716 78.386833 79.562584 81.34436 83.133934 84.757378 85.498039 86.217705 88.003677 89.14975 90.786987 92.382248 93.59639 95.369453 96.100227 97.889793 99.669769 100.41042 101.1301 102.91967 104.55721 106.21035 107.46346 108.66591 109.38557 110.57121 112.16647 113.34404"
         y="41.037548"
         sodipodi:role="line"
         id="tspan411"
         style="stroke-width:0.352778">Colour, tone, breathing, heart rate</tspan></text>
    <g
       id="g415"
       transform="matrix(0.35277777,0,0,-0.35277777,-13.510758,238.55468)">
      <g
         id="g417"
         clip-path="url(#clipPath421)">
        <g
           id="g423"
           transform="translate(186.9471,621.95)">
          <path
             d="m 0,0 c -4.518,0 -8.181,-3.663 -8.181,-8.181 v -11.985 c 0,-4.518 3.663,-8.18 8.181,-8.18 h 220.881 c 4.518,0 8.181,3.662 8.181,8.18 v 11.985 c 0,4.518 -3.663,8.181 -8.181,8.181 z"
             style="fill:#cbd5e6;fill-opacity:1;fill-rule:nonzero;stroke:none"
             id="path425" />
        </g>
      </g>
    </g>
    <text
       style="font-variant:normal;font-weight:normal;font-stretch:normal;font-size:2.99861px;font-family:Resus;-inkscape-font-specification:Resus-Regular;writing-mode:lr-tb;fill:#231f20;fill-opacity:1;fill-rule:nonzero;stroke:none;stroke-width:0.352778"
       id="text429"
       x="75.822449"
       y="23.36253"><tspan
         x="75.822449 77.502571 78.736504 80.389633 81.643059 82.845497 83.565163 85.053673 85.91008 87.702652 89.19117 90.717453 91.437119 92.588585 93.308243 95.097527 96.840317 98.017868 99.628128 100.34779 101.56193 102.29269 105.05082"
         y="23.36253"
         sodipodi:role="line"
         id="tspan427"
         style="stroke-width:0.352778">Start clock / note time</tspan></text>
    <text
       style="font-variant:normal;font-weight:bold;font-stretch:normal;font-size:2.99861px;font-family:Resus;-inkscape-font-specification:Resus-Bold;writing-mode:lr-tb;fill:#231f20;fill-opacity:1;fill-rule:nonzero;stroke:none;stroke-width:0.352778"
       id="text433"
       x="67.272217"
       y="27.037525"><tspan
         x="67.272217 69.518776 70.828865 72.439117 73.878456 75.029922 75.749588 78.15477 79.387199 81.087418 82.902473 83.697105 84.416771 85.840813 87.098427 87.911354 90.720154 92.558899 93.536446 95.181786 96.418114 98.100334 98.894966 99.614639 101.18261 102.89272 104.60043 106.40259 107.12225 109.52444 111.22466 112.45528"
         y="27.037525"
         sodipodi:role="line"
         id="tspan431"
         style="stroke-width:0.352778">Dry / wrap, stimulate, keep warm</tspan></text>
    <g
       id="g435"
       transform="matrix(0.35277777,0,0,-0.35277777,-13.510758,238.55468)">
      <g
         id="g437"
         clip-path="url(#clipPath441)">
        <g
           id="g443"
           transform="translate(186.9472,247.9316)">
          <path
             d="m 0,0 c -4.518,0 -8.181,-3.663 -8.181,-8.181 v -51.582 c 0,-4.518 3.663,-8.181 8.181,-8.181 h 220.881 c 4.518,0 8.181,3.663 8.181,8.181 v 51.582 c 0,4.518 -3.663,8.181 -8.181,8.181 z"
             style="fill:#fcfadd;fill-opacity:1;fill-rule:nonzero;stroke:none"
             id="path445" />
        </g>
      </g>
    </g>
    <text
       style="font-variant:normal;font-weight:bold;font-stretch:normal;font-size:2.99861px;font-family:Resus;-inkscape-font-specification:Resus-Bold;writing-mode:lr-tb;fill:#231f20;fill-opacity:1;fill-rule:nonzero;stroke:none;stroke-width:0.352778"
       id="text449"
       x="61.254776"
       y="155.4424"><tspan
         x="61.254776 62.170853 63.319321 64.038986 65.890327 67.579445 69.279655 70.571159 71.815582 72.535248 73.767677 75.413017 76.649345 78.301582 79.021248 79.835968 81.224327 81.943993 83.790237 85.605598 86.850021 87.569687 89.414734 91.099953 92.336273 94.046387 95.632057 96.904953 98.605179 100.44812 101.38039 103.03262 103.75229 105.59524 106.79768 107.51735 109.24454 109.96422 111.75618 113.48338 114.20305 117.00556 117.81847"
         y="155.4424"
         sodipodi:role="line"
         id="tspan447"
         style="stroke-width:0.352778">If heart rate is not detectable or &lt; 60 min</tspan></text>
    <text
       style="font-variant:normal;font-weight:bold;font-stretch:normal;font-size:1.74819px;font-family:Resus;-inkscape-font-specification:Resus-Bold;writing-mode:lr-tb;fill:#231f20;fill-opacity:1;fill-rule:nonzero;stroke:none;stroke-width:0.352778"
       id="text453"
       x="119.72999"
       y="154.44385"><tspan
         x="119.72999 120.22123"
         y="154.44385"
         sodipodi:role="line"
         id="tspan451"
         style="stroke-width:0.352778">-1</tspan></text>
    <text
       style="font-variant:normal;font-weight:bold;font-stretch:normal;font-size:2.99861px;font-family:Resus;-inkscape-font-specification:Resus-Bold;writing-mode:lr-tb;fill:#231f20;fill-opacity:1;fill-rule:nonzero;stroke:none;stroke-width:0.352778"
       id="text457"
       x="69.524414"
       y="158.61739"><tspan
         x="69.524414 71.176651 72.403084 73.639412 75.347122 76.549561 77.269226 79.019218 80.746422 81.466087 82.887131 84.597237 86.108536 87.951477 89.802826 91.652069 93.040428 93.760086 95.575447 96.723915 97.443588 99.034348 100.74206 102.56012 103.81743 104.62376 105.6013 107.24664 108.50426 109.31329 111.15623 112.9584"
         y="158.61739"
         sodipodi:role="line"
         id="tspan455"
         style="stroke-width:0.352778">after 30 seconds of ventilation</tspan></text>
    <text
       style="font-variant:normal;font-weight:normal;font-stretch:normal;font-size:2.99861px;font-family:Resus;-inkscape-font-specification:Resus-Regular;writing-mode:lr-tb;fill:#231f20;fill-opacity:1;fill-rule:nonzero;stroke:none;stroke-width:0.352778"
       id="text461"
       x="51.554058"
       y="162.29239"><tspan
         x="51.554058 52.993393"
         y="162.29239"
         sodipodi:role="line"
         id="tspan459"
         style="stroke-width:0.352778">•</tspan></text>
    <text
       style="font-variant:normal;font-weight:normal;font-stretch:normal;font-size:2.99861px;font-family:Resus;-inkscape-font-specification:Resus-Regular;writing-mode:lr-tb;fill:#231f20;fill-opacity:1;fill-rule:nonzero;stroke:none;stroke-width:0.352778"
       id="text465"
       x="54.554047"
       y="162.29239"><tspan
         x="54.554047 56.227272 57.809334 59.598907 61.08622 62.864998 64.006866 65.788643 67.561417 68.284088 69.658951 71.269203 71.988869 73.716072 74.435738 75.92305 77.712616 79.360054 80.752312 81.954758 82.674423 84.126045 85.907822 88.655144 90.441124 91.587196 93.234627 94.595695 95.954063 96.688728 98.470505 100.23849 101.58487 102.30453 103.48058 105.22878 105.94843 107.67564 108.39531 109.9324 111.58284 113.33282 114.54726 115.26991 116.1842 117.77946 118.9939 119.72855 121.51003"
         y="162.29239"
         sodipodi:role="line"
         id="tspan463"
         style="stroke-width:0.352778">Synchronise 3 chest compressions to 1 ventilation</tspan></text>
    <text
       style="font-variant:normal;font-weight:normal;font-stretch:normal;font-size:2.99861px;font-family:Resus;-inkscape-font-specification:Resus-Regular;writing-mode:lr-tb;fill:#231f20;fill-opacity:1;fill-rule:nonzero;stroke:none;stroke-width:0.352778"
       id="text469"
       x="51.554058"
       y="165.96741"><tspan
         x="51.554058 52.993393"
         y="165.96741"
         sodipodi:role="line"
         id="tspan467"
         style="stroke-width:0.352778">•</tspan></text>
    <text
       style="font-variant:normal;font-weight:normal;font-stretch:normal;font-size:2.99861px;font-family:Resus;-inkscape-font-specification:Resus-Regular;writing-mode:lr-tb;fill:#231f20;fill-opacity:1;fill-rule:nonzero;stroke:none;stroke-width:0.352778"
       id="text473"
       x="54.554047"
       y="165.96741"><tspan
         x="54.554047 55.407753 57.197319 58.685829 59.831902 61.469444 63.170555 64.545418 66.15567 66.875336 68.596237 70.241882 71.78167 73.564941 75.215378 76.963562 77.683235 78.858986 80.607178 81.326843 82.969185 84.798035 86.571411"
         y="165.96741"
         sodipodi:role="line"
         id="tspan471"
         style="stroke-width:0.352778">Increase oxygen to 100%</tspan></text>
    <text
       style="font-variant:normal;font-weight:normal;font-stretch:normal;font-size:2.99861px;font-family:Resus;-inkscape-font-specification:Resus-Regular;writing-mode:lr-tb;fill:#231f20;fill-opacity:1;fill-rule:nonzero;stroke:none;stroke-width:0.352778"
       id="text477"
       x="51.554058"
       y="169.6424"><tspan
         x="51.554058 52.993393"
         y="169.6424"
         sodipodi:role="line"
         id="tspan475"
         style="stroke-width:0.352778">•</tspan></text>
    <text
       style="font-variant:normal;font-weight:normal;font-stretch:normal;font-size:2.99861px;font-family:Resus;-inkscape-font-specification:Resus-Regular;writing-mode:lr-tb;fill:#231f20;fill-opacity:1;fill-rule:nonzero;stroke:none;stroke-width:0.352778"
       id="text481"
       x="54.554047"
       y="169.6424"><tspan
         x="54.554047 56.480652 58.262428 60.030411 61.389977 62.130638 63.91391 65.564049 66.712517 67.432182 68.162941 69.912933 71.122871 72.892654 74.675323 76.270584 77.484726 78.219383 80.00116 81.749352 82.469017 83.196777 84.303268 85.022934 86.8125 88.555298 89.757736 90.477409 92.117943 93.012733 94.158493 95.796043 97.42849 99.202454 100.75874 101.47841 103.26167 105.04346 106.83302 108.44328 109.16296 110.94443 112.0929 112.81255 113.72684 115.37997 116.63758 118.21966 120.00922 121.7925 123.43005 125.07029 125.92489"
         y="169.6424"
         sodipodi:role="line"
         id="tspan479"
         style="stroke-width:0.352778">Consider intubation if not already done or laryngeal</tspan></text>
    <text
       style="font-variant:normal;font-weight:normal;font-stretch:normal;font-size:2.99861px;font-family:Resus;-inkscape-font-specification:Resus-Regular;writing-mode:lr-tb;fill:#231f20;fill-opacity:1;fill-rule:nonzero;stroke:none;stroke-width:0.352778"
       id="text485"
       x="54.554047"
       y="172.8174"><tspan
         x="54.554047 57.296577 58.997688 60.361153 61.887451 62.607117 63.334877 64.441368 65.161034 66.950607 68.693398 69.895836 70.615509 72.414375 74.185654 75.546722 76.906288 77.636749 79.418526 80.273132"
         y="172.8174"
         sodipodi:role="line"
         id="tspan483"
         style="stroke-width:0.352778">mask if not possible</tspan></text>
    <g
       id="g487"
       transform="matrix(0.35277777,0,0,-0.35277777,-13.510758,238.55468)">
      <g
         id="g489"
         clip-path="url(#clipPath493)">
        <g
           id="g495"
           transform="translate(186.9472,128.9644)">
          <path
             d="m 0,0 c -4.518,0 -8.181,-3.663 -8.181,-8.181 v -36.23 c 0,-4.518 3.663,-8.181 8.181,-8.181 h 220.881 c 4.518,0 8.181,3.663 8.181,8.181 v 36.23 c 0,4.518 -3.663,8.181 -8.181,8.181 z"
             style="fill:#fcfadd;fill-opacity:1;fill-rule:nonzero;stroke:none"
             id="path497" />
        </g>
      </g>
    </g>
    <text
       style="font-variant:normal;font-weight:bold;font-stretch:normal;font-size:2.99861px;font-family:Resus;-inkscape-font-specification:Resus-Bold;writing-mode:lr-tb;fill:#231f20;fill-opacity:1;fill-rule:nonzero;stroke:none;stroke-width:0.352778"
       id="text501"
       x="53.881859"
       y="198.12865"><tspan
         x="53.881859 54.797935 55.946404 56.666069 57.923691 59.775032 61.427269 62.146935 63.997978 65.687096 67.387306 68.679108 69.923531 70.643196 71.875626 73.520966 74.757294 76.409531 77.129196 78.341537 80.04924 82.848442 84.544464 85.357384 87.208725 88.597084 89.31675 91.1633 92.978653 94.223076 94.942734 96.787788 98.473007 99.70903 101.41914 103.00481 104.27772 105.97794 107.82088 108.75314 110.40537 111.12505 112.96799 114.17043 114.89011 116.6173 117.33697 119.12923 120.85644 121.5761 124.3783 125.19123"
         y="198.12865"
         sodipodi:role="line"
         id="tspan499"
         style="stroke-width:0.352778">If the heart rate remains not detectable or &lt; 60 min</tspan></text>
    <text
       style="font-variant:normal;font-weight:bold;font-stretch:normal;font-size:1.74819px;font-family:Resus;-inkscape-font-specification:Resus-Bold;writing-mode:lr-tb;fill:#231f20;fill-opacity:1;fill-rule:nonzero;stroke:none;stroke-width:0.352778"
       id="text505"
       x="127.10287"
       y="197.1301"><tspan
         x="127.10287 127.59411"
         y="197.1301"
         sodipodi:role="line"
         id="tspan503"
         style="stroke-width:0.352778">-1</tspan></text>
    <text
       style="font-variant:normal;font-weight:bold;font-stretch:normal;font-size:2.99861px;font-family:Resus;-inkscape-font-specification:Resus-Bold;writing-mode:lr-tb;fill:#231f20;fill-opacity:1;fill-rule:nonzero;stroke:none;stroke-width:0.352778"
       id="text509"
       x="51.554058"
       y="201.80363"><tspan
         x="51.554058 52.993393"
         y="201.80363"
         sodipodi:role="line"
         id="tspan507"
         style="stroke-width:0.352778">•</tspan></text>
    <text
       style="font-variant:normal;font-weight:bold;font-stretch:normal;font-size:2.99861px;font-family:Resus;-inkscape-font-specification:Resus-Bold;writing-mode:lr-tb;fill:#231f20;fill-opacity:1;fill-rule:nonzero;stroke:none;stroke-width:0.352778"
       id="text513"
       x="54.554047"
       y="201.80363"><tspan
         x="54.554047 56.534325 58.267227 59.688271 61.224457 63.063202 64.040451 65.740662 66.943108 67.662773 69.342598 70.862595 72.382591 74.086098 75.507141 76.895195 77.614861 79.315079 81.165222 82.967384 83.68705 85.527 86.769325 88.619469 90.46962"
         y="201.80363"
         sodipodi:role="line"
         id="tspan511"
         style="stroke-width:0.352778">Vascular access and drugs</tspan></text>
    <text
       style="font-variant:normal;font-weight:normal;font-stretch:normal;font-size:2.99861px;font-family:Resus;-inkscape-font-specification:Resus-Regular;writing-mode:lr-tb;fill:#231f20;fill-opacity:1;fill-rule:nonzero;stroke:none;stroke-width:0.352778"
       id="text517"
       x="51.554058"
       y="205.47862"><tspan
         x="51.554058 52.993393"
         y="205.47862"
         sodipodi:role="line"
         id="tspan515"
         style="stroke-width:0.352778">•</tspan></text>
    <text
       style="font-variant:normal;font-weight:normal;font-stretch:normal;font-size:2.99861px;font-family:Resus;-inkscape-font-specification:Resus-Regular;writing-mode:lr-tb;fill:#231f20;fill-opacity:1;fill-rule:nonzero;stroke:none;stroke-width:0.352778"
       id="text521"
       x="54.554047"
       y="205.47862"><tspan
         x="54.554047 56.480652 58.262428 60.030411 61.389977 62.130638 63.91391 65.564049 66.712517 67.432182 69.174973 70.389107 72.17868 73.829117 74.977585 75.69725 76.831024 78.463173 80.026649 81.202698 82.984474 84.182724 85.529099 86.248764 87.874016 88.602379 90.380859 91.121506 91.841164 93.626846 95.41642 97.067749 98.83754 101.59566 103.33845 104.55259 106.34216 108.12394 109.30959 111.03888 112.62933 113.37"
         y="205.47862"
         sodipodi:role="line"
         id="tspan519"
         style="stroke-width:0.352778">Consider other factors e.g. pneumothorax,</tspan></text>
    <text
       style="font-variant:normal;font-weight:normal;font-stretch:normal;font-size:2.99861px;font-family:Resus;-inkscape-font-specification:Resus-Regular;writing-mode:lr-tb;fill:#231f20;fill-opacity:1;fill-rule:nonzero;stroke:none;stroke-width:0.352778"
       id="text525"
       x="54.554047"
       y="208.65363"><tspan
         x="54.554047 56.275848 57.857918 59.656784 61.38308 62.918671 64.696846 65.611122 67.243568 68.894005 71.635635 72.358002 74.041115 74.781776 75.501442 76.953369 78.735146 80.524719 82.307693 83.958122 85.731201 86.459267 87.691696 89.33194 90.186539 90.906204 92.559349 94.358208 96.139984 97.318436 100.06216 101.70241 102.59689 103.32494 104.60265"
         y="208.65363"
         sodipodi:role="line"
         id="tspan523"
         style="stroke-width:0.352778">hypovolaemia, congenital abormality</tspan></text>
    <g
       id="g527"
       transform="matrix(0.35277777,0,0,-0.35277777,-13.510758,238.55468)">
      <g
         id="g529"
         clip-path="url(#clipPath533)">
        <g
           id="g535"
           transform="translate(186.9472,279.1128)">
          <path
             d="m 0,0 c -4.518,0 -8.181,-3.663 -8.181,-8.181 v -3.481 c 0,-4.518 3.663,-8.181 8.181,-8.181 h 220.881 c 4.518,0 8.181,3.663 8.181,8.181 v 3.481 c 0,4.518 -3.663,8.181 -8.181,8.181 z"
             style="fill:#fcfadd;fill-opacity:1;fill-rule:nonzero;stroke:none"
             id="path537" />
        </g>
      </g>
    </g>
    <text
       style="font-variant:normal;font-weight:normal;font-stretch:normal;font-size:2.99861px;font-family:Resus;-inkscape-font-specification:Resus-Regular;writing-mode:lr-tb;fill:#231f20;fill-opacity:1;fill-rule:nonzero;stroke:none;stroke-width:0.352778"
       id="text541"
       x="56.789352"
       y="144.64545"><tspan
         x="56.789352 59.138466 60.928032 62.38266 63.992912 64.712585 66.19989 67.989166 69.636604 71.028854 72.2313 72.950966 73.67363 75.020004 75.73967 78.497795 80.224098 81.806168 82.536926 84.3265 86.074684 86.79435 88.245979 90.028053 91.777748 92.99218 93.722946 95.503815 97.287094 98.897346 99.61702 101.1541 102.80453 104.55453 105.76896 106.49162 107.40591 109.00087 110.21531 110.94997 112.73174 114.47993 115.1996 116.98557 118.13165 119.76917 121.36443 122.57888 124.34686"
         y="144.64545"
         sodipodi:role="line"
         id="tspan539"
         style="stroke-width:0.352778">Once chest is moving continue ventilation breaths</tspan></text>
    <g
       id="g543"
       transform="matrix(0.35277777,0,0,-0.35277777,-13.510758,238.55468)">
      <g
         id="g545"
         clip-path="url(#clipPath549)">
        <g
           id="g551"
           transform="translate(186.9472,502.3228)">
          <path
             d="m 0,0 c -4.518,0 -8.181,-3.663 -8.181,-8.181 v -34.662 c 0,-4.518 3.663,-8.181 8.181,-8.181 h 220.881 c 4.518,0 8.181,3.663 8.181,8.181 v 34.662 c 0,4.518 -3.663,8.181 -8.181,8.181 z"
             style="fill:#fcd7cc;fill-opacity:1;fill-rule:nonzero;stroke:none"
             id="path553" />
        </g>
      </g>
    </g>
    <text
       style="font-variant:normal;font-weight:bold;font-stretch:normal;font-size:2.99861px;font-family:Resus;-inkscape-font-specification:Resus-Bold;writing-mode:lr-tb;fill:#231f20;fill-opacity:1;fill-rule:nonzero;stroke:none;stroke-width:0.352778"
       id="text557"
       x="73.10141"
       y="65.889427"><tspan
         x="73.10141 74.017487 75.165955 75.88562 77.725868 79.458763 80.891197 82.735641 83.548271 85.399612 87.201775 87.92144 89.072906 89.79258 91.63913 93.454483 94.698906 95.418579 97.266319 98.478943 100.16807 101.8131 103.07072 104.91517 105.7281 107.57944"
         y="65.889427"
         sodipodi:role="line"
         id="tspan555"
         style="stroke-width:0.352778">If gasping / not breathing</tspan></text>
    <text
       style="font-variant:normal;font-weight:bold;font-stretch:normal;font-size:2.99861px;font-family:Resus;-inkscape-font-specification:Resus-Bold;writing-mode:lr-tb;fill:#231f20;fill-opacity:1;fill-rule:nonzero;stroke:none;stroke-width:0.352778"
       id="text561"
       x="51.554058"
       y="69.564423"><tspan
         x="51.554058 52.993393"
         y="69.564423"
         sodipodi:role="line"
         id="tspan559"
         style="stroke-width:0.352778">•</tspan></text>
    <text
       style="font-variant:normal;font-weight:bold;font-stretch:normal;font-size:2.99861px;font-family:Resus;-inkscape-font-specification:Resus-Bold;writing-mode:lr-tb;fill:#231f20;fill-opacity:1;fill-rule:nonzero;stroke:none;stroke-width:0.352778"
       id="text565"
       x="54.554047"
       y="69.564423"><tspan
         x="54.554047 56.748131 57.557755 59.148514 60.800751 61.520416 63.24762 63.967285 64.779907 66.597969 67.804611 68.782158 70.42749 71.685112 72.494133 74.337082 76.188423 77.576782 78.296448 79.360954 81.110947 82.838142 83.557808 85.101799 87.857521 88.577187"
         y="69.564423"
         sodipodi:role="line"
         id="tspan563"
         style="stroke-width:0.352778">Give 5 inflations (30 cm H</tspan></text>
    <text
       style="font-variant:normal;font-weight:bold;font-stretch:normal;font-size:1.74819px;font-family:Resus;-inkscape-font-specification:Resus-Bold;writing-mode:lr-tb;fill:#231f20;fill-opacity:1;fill-rule:nonzero;stroke:none;stroke-width:0.352778"
       id="text569"
       x="90.897804"
       y="70.562958"><tspan
         x="90.897804"
         y="70.562958"
         id="tspan567"
         style="stroke-width:0.352778">2</tspan></text>
    <text
       style="font-variant:normal;font-weight:bold;font-stretch:normal;font-size:2.99861px;font-family:Resus;-inkscape-font-specification:Resus-Bold;writing-mode:lr-tb;fill:#231f20;fill-opacity:1;fill-rule:nonzero;stroke:none;stroke-width:0.352778"
       id="text573"
       x="91.909645"
       y="69.564423"><tspan
         x="91.909645 94.185295 95.237808 95.957474 97.396805 98.116463 99.54052 100.81342 102.51334 103.80514 105.04955 105.76923 106.58215 108.38432 109.10397 110.8 111.61292"
         y="69.564423"
         sodipodi:role="line"
         id="tspan571"
         style="stroke-width:0.352778">O) – start in air</tspan></text>
    <text
       style="font-variant:normal;font-weight:normal;font-stretch:normal;font-size:2.99861px;font-family:Resus;-inkscape-font-specification:Resus-Regular;writing-mode:lr-tb;fill:#231f20;fill-opacity:1;fill-rule:nonzero;stroke:none;stroke-width:0.352778"
       id="text577"
       x="51.554058"
       y="73.239418"><tspan
         x="51.554058 52.993393"
         y="73.239418"
         sodipodi:role="line"
         id="tspan575"
         style="stroke-width:0.352778">•</tspan></text>
    <text
       style="font-variant:normal;font-weight:normal;font-stretch:normal;font-size:2.99861px;font-family:Resus;-inkscape-font-specification:Resus-Regular;writing-mode:lr-tb;fill:#231f20;fill-opacity:1;fill-rule:nonzero;stroke:none;stroke-width:0.352778"
       id="text581"
       x="54.554047"
       y="73.239418"><tspan
         x="54.554047 56.6036 58.389572 60.171341 60.979767 62.536049 63.255714 65.098358 66.858543 68.618729 70.477867 71.197533 73.033287 74.618355 76.345551 77.065216 78.553726 81.267471 81.987137"
         y="73.239418"
         sodipodi:role="line"
         id="tspan579"
         style="stroke-width:0.352778">Apply PEEP 5–6 cm H</tspan></text>
    <text
       style="font-variant:normal;font-weight:normal;font-stretch:normal;font-size:1.74819px;font-family:Resus;-inkscape-font-specification:Resus-Regular;writing-mode:lr-tb;fill:#231f20;fill-opacity:1;fill-rule:nonzero;stroke:none;stroke-width:0.352778"
       id="text585"
       x="84.252434"
       y="74.237953"><tspan
         x="84.252434"
         y="74.237953"
         id="tspan583"
         style="stroke-width:0.352778">2</tspan></text>
    <text
       style="font-variant:normal;font-weight:normal;font-stretch:normal;font-size:2.99861px;font-family:Resus;-inkscape-font-specification:Resus-Regular;writing-mode:lr-tb;fill:#231f20;fill-opacity:1;fill-rule:nonzero;stroke:none;stroke-width:0.352778"
       id="text589"
       x="85.266205"
       y="73.239418"><tspan
         x="85.266205 86.990112 87.730766 88.450432 89.178497 90.284973 91.004646 92.803215 94.574493 95.93557 97.295135 98.025894 99.807663 100.66228 102.27253"
         y="73.239418"
         sodipodi:role="line"
         id="tspan587"
         style="stroke-width:0.352778">0, if possible</tspan></text>
    <text
       style="font-variant:normal;font-weight:normal;font-stretch:normal;font-size:2.99861px;font-family:Resus;-inkscape-font-specification:Resus-Regular;writing-mode:lr-tb;fill:#231f20;fill-opacity:1;fill-rule:nonzero;stroke:none;stroke-width:0.352778"
       id="text593"
       x="51.554058"
       y="76.914444"><tspan
         x="51.554058 52.993393"
         y="76.914444"
         sodipodi:role="line"
         id="tspan591"
         style="stroke-width:0.352778">•</tspan></text>
    <text
       style="font-variant:normal;font-weight:normal;font-stretch:normal;font-size:2.99861px;font-family:Resus;-inkscape-font-specification:Resus-Regular;writing-mode:lr-tb;fill:#231f20;fill-opacity:1;fill-rule:nonzero;stroke:none;stroke-width:0.352778"
       id="text597"
       x="54.554047"
       y="76.914444"><tspan
         x="54.554047 56.6036 58.39077 60.172546 60.980972 62.537247 63.256912 65.014702 66.814766"
         y="76.914444"
         sodipodi:role="line"
         id="tspan595"
         style="stroke-width:0.352778">Apply SpO</tspan></text>
    <text
       style="font-variant:normal;font-weight:normal;font-stretch:normal;font-size:1.74819px;font-family:Resus;-inkscape-font-specification:Resus-Regular;writing-mode:lr-tb;fill:#231f20;fill-opacity:1;fill-rule:nonzero;stroke:none;stroke-width:0.352778"
       id="text601"
       x="69.027809"
       y="77.912971"><tspan
         x="69.027809"
         y="77.912971"
         id="tspan599"
         style="stroke-width:0.352778">2</tspan></text>
    <text
       style="font-variant:normal;font-weight:normal;font-stretch:normal;font-size:2.99861px;font-family:Resus;-inkscape-font-specification:Resus-Regular;writing-mode:lr-tb;fill:#231f20;fill-opacity:1;fill-rule:nonzero;stroke:none;stroke-width:0.352778"
       id="text605"
       x="70.75441"
       y="76.914444"><tspan
         x="70.75441 72.394951 73.51403 74.473587 75.193253 76.956436 78.863556 80.971581"
         y="76.914444"
         sodipodi:role="line"
         id="tspan603"
         style="stroke-width:0.352778">+/- ECG</tspan></text>
    <g
       id="g607"
       transform="matrix(0.35277777,0,0,-0.35277777,-13.510758,238.55468)">
      <g
         id="g609"
         clip-path="url(#clipPath613)">
        <g
           id="g615"
           transform="translate(186.9471,541.5767)">
          <path
             d="m 0,0 c -4.518,0 -8.181,-3.663 -8.181,-8.181 v -11.985 c 0,-4.518 3.663,-8.18 8.181,-8.18 h 220.881 c 4.518,0 8.181,3.662 8.181,8.18 v 11.985 c 0,4.518 -3.663,8.181 -8.181,8.181 z"
             style="fill:#fcd7cc;fill-opacity:1;fill-rule:nonzero;stroke:none"
             id="path617" />
        </g>
      </g>
    </g>
    <text
       style="font-variant:normal;font-weight:bold;font-stretch:normal;font-size:2.99861px;font-family:Resus;-inkscape-font-specification:Resus-Bold;writing-mode:lr-tb;fill:#231f20;fill-opacity:1;fill-rule:nonzero;stroke:none;stroke-width:0.352778"
       id="text621"
       x="75.172035"
       y="51.716442"><tspan
         x="75.172035 77.014381 78.865723 80.294563 82.134514 83.347153 84.999382 85.719048 87.419266 89.221428 89.941093 91.78405 93.634186 95.341896 97.144058 97.863724 99.559738 100.37267 101.67136 104.07355 105.70119 107.31145"
         y="51.716442"
         sodipodi:role="line"
         id="tspan619"
         style="stroke-width:0.352778">Ensure an open airway</tspan></text>
    <text
       style="font-variant:normal;font-weight:normal;font-stretch:normal;font-size:2.99861px;font-family:Resus;-inkscape-font-specification:Resus-Regular;writing-mode:lr-tb;fill:#231f20;fill-opacity:1;fill-rule:nonzero;stroke:none;stroke-width:0.352778"
       id="text625"
       x="74.851852"
       y="55.391438"><tspan
         x="74.851852 76.717293 77.863358 79.492508 80.670959 82.321396 83.500153 86.186302 86.974937 87.694611 89.145935 90.927719 92.695389 94.05497 94.795616 96.578896 98.22934 99.3778 100.09746 102.02257 103.74527 105.77232"
         y="55.391438"
         sodipodi:role="line"
         id="tspan623"
         style="stroke-width:0.352778">Preterm: consider CPAP</tspan></text>
    <path
       d="M 49.553913,15.348655 H 133.24797 V 3.8047079 H 49.553913 Z"
       style="fill:#800939;fill-opacity:1;fill-rule:nonzero;stroke:none;stroke-width:0.352778"
       id="path627" />
    <text
       style="font-variant:normal;font-weight:bold;font-stretch:normal;font-size:4.93889px;font-family:Resus;-inkscape-font-specification:Resus-Bold;writing-mode:lr-tb;fill:#ffffff;fill-opacity:1;fill-rule:nonzero;stroke:none;stroke-width:0.352778"
       id="text631"
       x="85.622406"
       y="9.727706"><tspan
         x="85.622406 88.886024 90.153343 92.214836 94.210144"
         y="9.727706"
         sodipodi:role="line"
         id="tspan629"
         style="stroke-width:0.352778">Birth</tspan></text>
    <text
       style="font-variant:normal;font-weight:normal;font-stretch:normal;font-size:2.99861px;font-family:Resus;-inkscape-font-specification:Resus-Regular;writing-mode:lr-tb;fill:#ffffff;fill-opacity:1;fill-rule:nonzero;stroke:none;stroke-width:0.352778"
       id="text635"
       x="69.96888"
       y="12.902705"><tspan
         x="69.96888 72.176758 73.827194 74.74147 76.310944 77.867226 78.586891 80.038521 81.82029 82.970558 84.71875 85.438416 86.926926 87.841202 89.494339 92.241653 94.022537 94.753593 96.54287 98.291054 99.010727 99.7388 100.84528 101.56495 103.36382 105.13509 106.49617 107.85573 108.58649 110.36826 111.22287"
         y="12.902705"
         sodipodi:role="line"
         id="tspan633"
         style="stroke-width:0.352778">Delay cord clamping if possible</tspan></text>
    <path
       d="m 49.553913,93.119928 h 83.694057 v -9.99984 H 49.553913 Z"
       style="fill:#0b4476;fill-opacity:1;fill-rule:nonzero;stroke:none;stroke-width:0.352778"
       id="path637" />
    <text
       style="font-variant:normal;font-weight:bold;font-stretch:normal;font-size:2.99861px;font-family:Resus;-inkscape-font-specification:Resus-Bold;writing-mode:lr-tb;fill:#ffffff;fill-opacity:1;fill-rule:nonzero;stroke:none;stroke-width:0.352778"
       id="text641"
       x="85.029808"
       y="87.337852"><tspan
         x="85.029808 86.995399 88.684517 90.417419 91.838753 93.260094 94.963608 96.384949"
         y="87.337852"
         sodipodi:role="line"
         id="tspan639"
         style="stroke-width:0.352778">Reassess</tspan></text>
    <text
       style="font-variant:normal;font-weight:normal;font-stretch:normal;font-size:2.99861px;font-family:Resus;-inkscape-font-specification:Resus-Regular;writing-mode:lr-tb;fill:#ffffff;fill-opacity:1;fill-rule:nonzero;stroke:none;stroke-width:0.352778"
       id="text645"
       x="55.242279"
       y="91.012856"><tspan
         x="55.242279 56.083092 57.189575 57.909241 59.698814 61.447006 62.166672 62.89743 64.686707 66.175217 67.321281 68.958824 70.659935 72.035103 73.645355 74.365021 75.095779 76.843971 77.563644 79.352913 80.990456 82.643585 83.897003 85.099449 85.819115 87.004768 88.600029 89.777283 91.400734 92.141388 92.861053 93.717453 95.510025 97.291809 98.8181 99.537758 100.63736 102.41943 103.56789 104.28756 105.77578 107.56535 109.21278 110.60505 111.80748 112.52715 115.28526 117.01157 118.54836 120.19878 122.95692 124.60735 126.35734"
         y="91.012856"
         sodipodi:role="line"
         id="tspan643"
         style="stroke-width:0.352778">If no increase in heart rate, look for chest movement</tspan></text>
    <path
       d="m 49.553913,135.94609 h 83.694057 v -9.99984 H 49.553913 Z"
       style="fill:#0b4476;fill-opacity:1;fill-rule:nonzero;stroke:none;stroke-width:0.352778"
       id="path647" />
    <text
       style="font-variant:normal;font-weight:bold;font-stretch:normal;font-size:2.99861px;font-family:Resus;-inkscape-font-specification:Resus-Bold;writing-mode:lr-tb;fill:#ffffff;fill-opacity:1;fill-rule:nonzero;stroke:none;stroke-width:0.352778"
       id="text651"
       x="85.029808"
       y="130.1642"><tspan
         x="85.029808 86.995399 88.684517 90.417419 91.838753 93.260094 94.963608 96.384949"
         y="130.1642"
         sodipodi:role="line"
         id="tspan649"
         style="stroke-width:0.352778">Reassess</tspan></text>
    <text
       style="font-variant:normal;font-weight:normal;font-stretch:normal;font-size:2.99861px;font-family:Resus;-inkscape-font-specification:Resus-Regular;writing-mode:lr-tb;fill:#ffffff;fill-opacity:1;fill-rule:nonzero;stroke:none;stroke-width:0.352778"
       id="text655"
       x="55.242279"
       y="133.8392"><tspan
         x="55.242279 56.083092 57.189575 57.909241 59.698814 61.447006 62.166672 62.89743 64.686707 66.175217 67.321281 68.958824 70.659935 72.035103 73.645355 74.365021 75.095779 76.843971 77.563644 79.352913 80.990456 82.643585 83.897003 85.099449 85.819115 87.004768 88.600029 89.777283 91.400734 92.141388 92.861053 93.717453 95.510025 97.291809 98.8181 99.537758 100.63736 102.41943 103.56789 104.28756 105.77578 107.56535 109.21278 110.60505 111.80748 112.52715 115.28526 117.01157 118.54836 120.19878 122.95692 124.60735 126.35734"
         y="133.8392"
         sodipodi:role="line"
         id="tspan653"
         style="stroke-width:0.352778">If no increase in heart rate, look for chest movement</tspan></text>
    <path
       d="m 49.553913,189.0589 h 83.694057 v -9.99984 H 49.553913 Z"
       style="fill:#0b4476;fill-opacity:1;fill-rule:nonzero;stroke:none;stroke-width:0.352778"
       id="path657" />
    <text
       style="font-variant:normal;font-weight:bold;font-stretch:normal;font-size:2.99861px;font-family:Resus;-inkscape-font-specification:Resus-Bold;writing-mode:lr-tb;fill:#ffffff;fill-opacity:1;fill-rule:nonzero;stroke:none;stroke-width:0.352778"
       id="text661"
       x="62.166145"
       y="183.52689"><tspan
         x="62.166145 64.131729 65.820847 67.553749 68.974792 70.395828 72.099342 73.520386 74.908737 75.62841 77.479752 79.168564 80.868782 82.160583 83.405006 84.124672 85.357101 87.002441 88.238762 89.890999 90.610664 92.31089 94.161919 95.964088 96.683754 98.227737 100.07908 101.78259 103.20663 104.45106 105.17072 107.97533 109.758 111.34877 113.05647 115.86587 117.57359 119.39164 120.63605"
         y="183.52689"
         sodipodi:role="line"
         id="tspan659"
         style="stroke-width:0.352778">Reassess heart rate and chest movement</tspan></text>
    <text
       style="font-variant:normal;font-weight:bold;font-stretch:normal;font-size:2.99861px;font-family:Resus;-inkscape-font-specification:Resus-Bold;writing-mode:lr-tb;fill:#ffffff;fill-opacity:1;fill-rule:nonzero;stroke:none;stroke-width:0.352778"
       id="text665"
       x="79.220551"
       y="186.70189"><tspan
         x="79.220551 80.872787 82.463547 84.171257 85.481346 87.091606 87.811272 89.561256 91.28846 92.008125 93.429169 95.139275 96.650574 98.493523 100.34486 102.19411"
         y="186.70189"
         sodipodi:role="line"
         id="tspan663"
         style="stroke-width:0.352778">every 30 seconds</tspan></text>
    <g
       id="g667"
       transform="matrix(0.35277777,0,0,-0.35277777,91.401045,124.53055)">
      <path
         d="M 0,0 V 6.895"
         style="fill:none;stroke:#f58d7a;stroke-width:1.966;stroke-linecap:butt;stroke-linejoin:miter;stroke-miterlimit:4;stroke-dasharray:none;stroke-opacity:1"
         id="path669" />
    </g>
    <g
       id="g671"
       transform="matrix(0.35277777,0,0,-0.35277777,91.401045,126.09816)">
      <path
         d="M 0,0 -5.756,6.191 H 5.756 Z"
         style="fill:#f58d7a;fill-opacity:1;fill-rule:nonzero;stroke:none"
         id="path673" />
    </g>
    <g
       id="g675"
       transform="matrix(0.35277777,0,0,-0.35277777,91.401045,138.52229)">
      <path
         d="M 0,0 V 6.895"
         style="fill:none;stroke:#829cc1;stroke-width:1.966;stroke-linecap:butt;stroke-linejoin:miter;stroke-miterlimit:4;stroke-dasharray:none;stroke-opacity:1"
         id="path677" />
    </g>
    <g
       id="g679"
       transform="matrix(0.35277777,0,0,-0.35277777,91.401045,140.08989)">
      <path
         d="M 0,0 -5.756,6.191 H 5.756 Z"
         style="fill:#829cc1;fill-opacity:1;fill-rule:nonzero;stroke:none"
         id="path681" />
    </g>
    <g
       id="g683"
       transform="matrix(0.35277777,0,0,-0.35277777,91.401045,95.552218)">
      <path
         d="M 0,0 V 6.895"
         style="fill:none;stroke:#829cc1;stroke-width:1.966;stroke-linecap:butt;stroke-linejoin:miter;stroke-miterlimit:4;stroke-dasharray:none;stroke-opacity:1"
         id="path685" />
    </g>
    <g
       id="g687"
       transform="matrix(0.35277777,0,0,-0.35277777,91.401045,97.119828)">
      <path
         d="M 0,0 -5.756,6.191 H 5.756 Z"
         style="fill:#829cc1;fill-opacity:1;fill-rule:nonzero;stroke:none"
         id="path689" />
    </g>
    <g
       id="g691"
       transform="matrix(0.35277777,0,0,-0.35277777,91.401045,59.930875)">
      <path
         d="M 0,0 V 6.895"
         style="fill:none;stroke:#f7a593;stroke-width:1.966;stroke-linecap:butt;stroke-linejoin:miter;stroke-miterlimit:4;stroke-dasharray:none;stroke-opacity:1"
         id="path693" />
    </g>
    <g
       id="g695"
       transform="matrix(0.35277777,0,0,-0.35277777,91.401045,61.498479)">
      <path
         d="M 0,0 -5.756,6.191 H 5.756 Z"
         style="fill:#f7a593;fill-opacity:1;fill-rule:nonzero;stroke:none"
         id="path697" />
    </g>
    <g
       id="g699"
       transform="matrix(0.35277777,0,0,-0.35277777,91.401045,177.49132)">
      <path
         d="M 0,0 V 6.895"
         style="fill:none;stroke:#f4ef92;stroke-width:1.966;stroke-linecap:butt;stroke-linejoin:miter;stroke-miterlimit:4;stroke-dasharray:none;stroke-opacity:1"
         id="path701" />
    </g>
    <g
       id="g703"
       transform="matrix(0.35277777,0,0,-0.35277777,91.401045,179.05892)">
      <path
         d="M 0,0 -5.756,6.191 H 5.756 Z"
         style="fill:#f4ef92;fill-opacity:1;fill-rule:nonzero;stroke:none"
         id="path705" />
    </g>
    <g
       id="g707"
       transform="matrix(0.35277777,0,0,-0.35277777,91.401045,214.04463)">
      <path
         d="M 0,0 V 6.895"
         style="fill:none;stroke:#f4ef92;stroke-width:1.966;stroke-linecap:butt;stroke-linejoin:miter;stroke-miterlimit:4;stroke-dasharray:none;stroke-opacity:1"
         id="path709" />
    </g>
    <g
       id="g711"
       transform="matrix(0.35277777,0,0,-0.35277777,91.401045,215.61224)">
      <path
         d="M 0,0 -5.756,6.191 H 5.756 Z"
         style="fill:#f4ef92;fill-opacity:1;fill-rule:nonzero;stroke:none"
         id="path713" />
    </g>
    <g
       id="g715"
       transform="matrix(0.35277777,0,0,-0.35277777,91.401045,191.4913)">
      <path
         d="M 0,0 V 6.895"
         style="fill:none;stroke:#829cc1;stroke-width:1.966;stroke-linecap:butt;stroke-linejoin:miter;stroke-miterlimit:4;stroke-dasharray:none;stroke-opacity:1"
         id="path717" />
    </g>
    <g
       id="g719"
       transform="matrix(0.35277777,0,0,-0.35277777,91.401045,193.05891)">
      <path
         d="M 0,0 -5.756,6.191 H 5.756 Z"
         style="fill:#829cc1;fill-opacity:1;fill-rule:nonzero;stroke:none"
         id="path721" />
    </g>
    <g
       id="g723"
       transform="matrix(0.35277777,0,0,-0.35277777,91.401045,149.52232)">
      <path
         d="M 0,0 V 6.895"
         style="fill:none;stroke:#f4ef92;stroke-width:1.966;stroke-linecap:butt;stroke-linejoin:miter;stroke-miterlimit:4;stroke-dasharray:none;stroke-opacity:1"
         id="path725" />
    </g>
    <g
       id="g727"
       transform="matrix(0.35277777,0,0,-0.35277777,91.401045,151.08992)">
      <path
         d="M 0,0 -5.756,6.191 H 5.756 Z"
         style="fill:#f4ef92;fill-opacity:1;fill-rule:nonzero;stroke:none"
         id="path729" />
    </g>
    <g
       id="g731"
       transform="matrix(0.35277777,0,0,-0.35277777,-13.510758,238.55468)">
      <g
         id="g733"
         clip-path="url(#clipPath737)">
        <g
           id="g739"
           transform="translate(186.9472,65.0337)">
          <path
             d="m 0,0 c -4.518,0 -8.181,-3.663 -8.181,-8.181 v -11.985 c 0,-4.518 3.663,-8.18 8.181,-8.18 h 220.881 c 4.518,0 8.181,3.662 8.181,8.18 v 11.985 c 0,4.518 -3.663,8.181 -8.181,8.181 z"
             style="fill:#e6f1de;fill-opacity:1;fill-rule:nonzero;stroke:none"
             id="path741" />
        </g>
      </g>
    </g>
    <text
       style="font-variant:normal;font-weight:normal;font-stretch:normal;font-size:2.99861px;font-family:Resus;-inkscape-font-specification:Resus-Regular;writing-mode:lr-tb;fill:#231f20;fill-opacity:1;fill-rule:nonzero;stroke:none;stroke-width:0.352778"
       id="text745"
       x="68.254807"
       y="219.83022"><tspan
         x="68.254807 70.567932 72.366798 74.135078 75.730339 76.9076 78.517853 79.237518 81.020195 82.673325 83.819397 85.469833 87.219818 88.481934 89.828316 90.547974 92.200813 93.990387 95.738579 96.458237 98.241516 99.89196 101.67793 102.85669 103.59134 105.22049 106.32697 107.04664 108.2239 109.86143 111.51456"
         y="219.83022"
         sodipodi:role="line"
         id="tspan743"
         style="stroke-width:0.352778">Update parents and debrief team</tspan></text>
    <text
       style="font-variant:normal;font-weight:normal;font-stretch:normal;font-size:2.99861px;font-family:Resus;-inkscape-font-specification:Resus-Regular;writing-mode:lr-tb;fill:#231f20;fill-opacity:1;fill-rule:nonzero;stroke:none;stroke-width:0.352778"
       id="text749"
       x="78.972054"
       y="223.50522"><tspan
         x="78.972054 80.898659 82.679832 85.426559 87.207741 88.062645 89.69149 90.869049 92.479294 93.198959 94.345039 96.010757 97.462685 99.243866 100.39413 102.16211"
         y="223.50522"
         sodipodi:role="line"
         id="tspan747"
         style="stroke-width:0.352778">Complete records</tspan></text>
    <g
       id="g751"
       transform="matrix(0.35277777,0,0,-0.35277777,91.401045,31.576962)">
      <path
         d="M 0,0 V 6.895"
         style="fill:none;stroke:#829cc1;stroke-width:1.966;stroke-linecap:butt;stroke-linejoin:miter;stroke-miterlimit:4;stroke-dasharray:none;stroke-opacity:1"
         id="path753" />
    </g>
    <g
       id="g755"
       transform="matrix(0.35277777,0,0,-0.35277777,91.401045,33.144565)">
      <path
         d="M 0,0 -5.756,6.191 H 5.756 Z"
         style="fill:#829cc1;fill-opacity:1;fill-rule:nonzero;stroke:none"
         id="path757" />
    </g>
    <g
       id="g759"
       transform="matrix(0.35277777,0,0,-0.35277777,91.401045,45.576983)">
      <path
         d="M 0,0 V 6.895"
         style="fill:none;stroke:#829cc1;stroke-width:1.966;stroke-linecap:butt;stroke-linejoin:miter;stroke-miterlimit:4;stroke-dasharray:none;stroke-opacity:1"
         id="path761" />
    </g>
    <g
       id="g763"
       transform="matrix(0.35277777,0,0,-0.35277777,91.401045,47.144586)">
      <path
         d="M 0,0 -5.756,6.191 H 5.756 Z"
         style="fill:#829cc1;fill-opacity:1;fill-rule:nonzero;stroke:none"
         id="path765" />
    </g>
    <g
       id="g767"
       transform="matrix(0.35277777,0,0,-0.35277777,91.401045,17.781164)">
      <path
         d="M 0,0 V 6.895"
         style="fill:none;stroke:#800939;stroke-width:1.966;stroke-linecap:butt;stroke-linejoin:miter;stroke-miterlimit:4;stroke-dasharray:none;stroke-opacity:1"
         id="path769" />
    </g>
    <g
       id="g771"
       transform="matrix(0.35277777,0,0,-0.35277777,91.401045,19.348767)">
      <path
         d="M 0,0 -5.756,6.191 H 5.756 Z"
         style="fill:#800939;fill-opacity:1;fill-rule:nonzero;stroke:none"
         id="path773" />
    </g>
    <path
       d="M 4.3143974,15.178969 H 39.384388 V 3.9743939 H 4.3143974 Z"
       style="fill:#800939;fill-opacity:1;fill-rule:nonzero;stroke:none;stroke-width:0.352778"
       id="path795" />
    <text
       style="font-variant:normal;font-weight:bold;font-stretch:normal;font-size:4.07247px;font-family:Resus;-inkscape-font-specification:Resus-Bold;writing-mode:lr-tb;fill:#ffffff;fill-opacity:1;fill-rule:nonzero;stroke:none;stroke-width:0.352778"
       id="text799"
       x="14.040305"
       y="8.8042746"><tspan
         x="14.040305 16.561161 18.157568 20.396202 22.022745 24.293959 25.915617 29.658213"
         y="8.8042746"
         sodipodi:role="line"
         id="tspan797"
         style="stroke-width:0.352778">Preterm</tspan></text>
    <text
       style="font-variant:normal;font-weight:bold;font-stretch:normal;font-size:4.07247px;font-family:Resus;-inkscape-font-specification:Resus-Bold;writing-mode:lr-tb;fill:#ffffff;fill-opacity:1;fill-rule:nonzero;stroke:none;stroke-width:0.352778"
       id="text803"
       x="11.504573"
       y="13.216147"><tspan
         x="11.504573 13.850314 14.827706 17.049236 19.394978 20.372368 23.543192 25.817663 28.088877 30.308779"
         y="13.216147"
         sodipodi:role="line"
         id="tspan801"
         style="stroke-width:0.352778">&lt; 32 weeks</tspan></text>
    <path
       d="M 4.3143974,15.178969 H 39.384388 V 3.9743939 H 4.3143974 Z"
       style="fill:none;stroke:#800939;stroke-width:0.339372;stroke-linecap:butt;stroke-linejoin:miter;stroke-miterlimit:4;stroke-dasharray:none;stroke-opacity:1"
       id="path805" />
    <path
       d="M 4.1926894,82.254728 H 39.506096 v 8.00099 H 4.1926894 Z"
       style="fill:#d3d2d2;fill-opacity:1;fill-rule:nonzero;stroke:none;stroke-width:0.352778"
       id="path807" />
    <path
       d="M 4.1926894,90.255718 H 21.849216 v 5.57636 H 4.1926894 Z m 0,5.57636 H 21.849216 v 5.576362 H 4.1926894 Z m 0,5.576362 H 21.849216 v 5.57636 H 4.1926894 Z"
       style="fill:#e9e9e9;fill-opacity:1;fill-rule:nonzero;stroke:none;stroke-width:0.352778"
       id="path809" />
    <g
       id="g811"
       transform="matrix(0.35277777,0,0,-0.35277777,4.1445704,82.254728)">
      <path
         d="M 0,0 H 50.187"
         style="fill:none;stroke:#918f90;stroke-width:0.273;stroke-linecap:butt;stroke-linejoin:miter;stroke-miterlimit:10;stroke-dasharray:none;stroke-opacity:1"
         id="path813" />
    </g>
    <g
       id="g815"
       transform="matrix(0.35277777,0,0,-0.35277777,4.1926894,90.207608)">
      <path
         d="M 0,0 V 22.407"
         style="fill:none;stroke:#918f90;stroke-width:0.273;stroke-linecap:butt;stroke-linejoin:miter;stroke-miterlimit:10;stroke-dasharray:none;stroke-opacity:1"
         id="path817" />
    </g>
    <g
       id="g819"
       transform="matrix(0.35277777,0,0,-0.35277777,21.849287,82.254728)">
      <path
         d="M 0,0 H 50.187"
         style="fill:none;stroke:#918f90;stroke-width:0.273;stroke-linecap:butt;stroke-linejoin:miter;stroke-miterlimit:10;stroke-dasharray:none;stroke-opacity:1"
         id="path821" />
    </g>
    <g
       id="g823"
       transform="matrix(0.35277777,0,0,-0.35277777,39.50592,90.207608)">
      <path
         d="M 0,0 V 22.407"
         style="fill:none;stroke:#918f90;stroke-width:0.273;stroke-linecap:butt;stroke-linejoin:miter;stroke-miterlimit:10;stroke-dasharray:none;stroke-opacity:1"
         id="path825" />
    </g>
    <g
       id="g827"
       transform="matrix(0.35277777,0,0,-0.35277777,4.1445704,90.255718)">
      <path
         d="M 0,0 H 50.187"
         style="fill:none;stroke:#918f90;stroke-width:0.273;stroke-linecap:butt;stroke-linejoin:miter;stroke-miterlimit:10;stroke-dasharray:none;stroke-opacity:1"
         id="path829" />
    </g>
    <g
       id="g831"
       transform="matrix(0.35277777,0,0,-0.35277777,4.1926894,95.783998)">
      <path
         d="M 0,0 V 15.534"
         style="fill:none;stroke:#918f90;stroke-width:0.273;stroke-linecap:butt;stroke-linejoin:miter;stroke-miterlimit:10;stroke-dasharray:none;stroke-opacity:1"
         id="path833" />
    </g>
    <g
       id="g835"
       transform="matrix(0.35277777,0,0,-0.35277777,21.849287,90.255718)">
      <path
         d="M 0,0 H 50.187"
         style="fill:none;stroke:#918f90;stroke-width:0.273;stroke-linecap:butt;stroke-linejoin:miter;stroke-miterlimit:10;stroke-dasharray:none;stroke-opacity:1"
         id="path837" />
    </g>
    <g
       id="g839"
       transform="matrix(0.35277777,0,0,-0.35277777,21.849287,95.783998)">
      <path
         d="M 0,0 V 15.534"
         style="fill:none;stroke:#918f90;stroke-width:0.273;stroke-linecap:butt;stroke-linejoin:miter;stroke-miterlimit:10;stroke-dasharray:none;stroke-opacity:1"
         id="path841" />
    </g>
    <g
       id="g843"
       transform="matrix(0.35277777,0,0,-0.35277777,39.50592,95.783998)">
      <path
         d="M 0,0 V 15.534"
         style="fill:none;stroke:#918f90;stroke-width:0.273;stroke-linecap:butt;stroke-linejoin:miter;stroke-miterlimit:10;stroke-dasharray:none;stroke-opacity:1"
         id="path845" />
    </g>
    <g
       id="g847"
       transform="matrix(0.35277777,0,0,-0.35277777,4.1445704,95.832118)">
      <path
         d="M 0,0 H 50.187"
         style="fill:none;stroke:#918f90;stroke-width:0.273;stroke-linecap:butt;stroke-linejoin:miter;stroke-miterlimit:10;stroke-dasharray:none;stroke-opacity:1"
         id="path849" />
    </g>
    <g
       id="g851"
       transform="matrix(0.35277777,0,0,-0.35277777,4.1926894,101.36039)">
      <path
         d="M 0,0 V 15.534"
         style="fill:none;stroke:#918f90;stroke-width:0.273;stroke-linecap:butt;stroke-linejoin:miter;stroke-miterlimit:10;stroke-dasharray:none;stroke-opacity:1"
         id="path853" />
    </g>
    <g
       id="g855"
       transform="matrix(0.35277777,0,0,-0.35277777,21.849287,95.832118)">
      <path
         d="M 0,0 H 50.187"
         style="fill:none;stroke:#918f90;stroke-width:0.273;stroke-linecap:butt;stroke-linejoin:miter;stroke-miterlimit:10;stroke-dasharray:none;stroke-opacity:1"
         id="path857" />
    </g>
    <g
       id="g859"
       transform="matrix(0.35277777,0,0,-0.35277777,21.849287,101.36039)">
      <path
         d="M 0,0 V 15.534"
         style="fill:none;stroke:#918f90;stroke-width:0.273;stroke-linecap:butt;stroke-linejoin:miter;stroke-miterlimit:10;stroke-dasharray:none;stroke-opacity:1"
         id="path861" />
    </g>
    <g
       id="g863"
       transform="matrix(0.35277777,0,0,-0.35277777,39.50592,101.36039)">
      <path
         d="M 0,0 V 15.534"
         style="fill:none;stroke:#918f90;stroke-width:0.273;stroke-linecap:butt;stroke-linejoin:miter;stroke-miterlimit:10;stroke-dasharray:none;stroke-opacity:1"
         id="path865" />
    </g>
    <g
       id="g867"
       transform="matrix(0.35277777,0,0,-0.35277777,4.1445704,101.40848)">
      <path
         d="M 0,0 H 50.187"
         style="fill:none;stroke:#918f90;stroke-width:0.273;stroke-linecap:butt;stroke-linejoin:miter;stroke-miterlimit:10;stroke-dasharray:none;stroke-opacity:1"
         id="path869" />
    </g>
    <g
       id="g871"
       transform="matrix(0.35277777,0,0,-0.35277777,4.1926894,106.93679)">
      <path
         d="M 0,0 V 15.534"
         style="fill:none;stroke:#918f90;stroke-width:0.273;stroke-linecap:butt;stroke-linejoin:miter;stroke-miterlimit:10;stroke-dasharray:none;stroke-opacity:1"
         id="path873" />
    </g>
    <g
       id="g875"
       transform="matrix(0.35277777,0,0,-0.35277777,21.849287,101.40848)">
      <path
         d="M 0,0 H 50.187"
         style="fill:none;stroke:#918f90;stroke-width:0.273;stroke-linecap:butt;stroke-linejoin:miter;stroke-miterlimit:10;stroke-dasharray:none;stroke-opacity:1"
         id="path877" />
    </g>
    <g
       id="g879"
       transform="matrix(0.35277777,0,0,-0.35277777,21.849287,106.93679)">
      <path
         d="M 0,0 V 15.534"
         style="fill:none;stroke:#918f90;stroke-width:0.273;stroke-linecap:butt;stroke-linejoin:miter;stroke-miterlimit:10;stroke-dasharray:none;stroke-opacity:1"
         id="path881" />
    </g>
    <g
       id="g883"
       transform="matrix(0.35277777,0,0,-0.35277777,39.50592,106.93679)">
      <path
         d="M 0,0 V 15.534"
         style="fill:none;stroke:#918f90;stroke-width:0.273;stroke-linecap:butt;stroke-linejoin:miter;stroke-miterlimit:10;stroke-dasharray:none;stroke-opacity:1"
         id="path885" />
    </g>
    <g
       id="g887"
       transform="matrix(0.35277777,0,0,-0.35277777,4.1445704,106.98487)">
      <path
         d="M 0,0 H 50.187"
         style="fill:none;stroke:#918f90;stroke-width:0.273;stroke-linecap:butt;stroke-linejoin:miter;stroke-miterlimit:10;stroke-dasharray:none;stroke-opacity:1"
         id="path889" />
    </g>
    <g
       id="g891"
       transform="matrix(0.35277777,0,0,-0.35277777,21.849287,106.98487)">
      <path
         d="M 0,0 H 50.187"
         style="fill:none;stroke:#918f90;stroke-width:0.273;stroke-linecap:butt;stroke-linejoin:miter;stroke-miterlimit:10;stroke-dasharray:none;stroke-opacity:1"
         id="path893" />
    </g>
    <text
       style="font-variant:normal;font-weight:normal;font-stretch:normal;font-size:2.99861px;font-family:Resus;-inkscape-font-specification:Resus-Regular;writing-mode:lr-tb;fill:#231f20;fill-opacity:1;fill-rule:nonzero;stroke:none;stroke-width:0.352778"
       id="text897"
       x="14.120244"
       y="85.723236"><tspan
         x="14.120244 16.13471 17.589035 19.043362 20.693796 22.445288 23.679216 25.33235 27.113825 27.968729 29.578981"
         y="85.723236"
         sodipodi:role="line"
         id="tspan895"
         style="stroke-width:0.352778">Acceptable</tspan></text>
    <text
       style="font-variant:normal;font-weight:normal;font-stretch:normal;font-size:2.99861px;font-family:Resus;-inkscape-font-specification:Resus-Regular;writing-mode:lr-tb;fill:#231f20;fill-opacity:1;fill-rule:nonzero;stroke:none;stroke-width:0.352778"
       id="text901"
       x="10.788363"
       y="88.898232"><tspan
         x="10.788363 12.574336 13.720405 15.464398 16.55859 18.336767 20.120041 21.683516 22.915945 24.556185 25.41049 26.130156 27.888243 29.688307"
         y="88.898232"
         sodipodi:role="line"
         id="tspan899"
         style="stroke-width:0.352778">pre-ductal SpO</tspan></text>
    <text
       style="font-variant:normal;font-weight:normal;font-stretch:normal;font-size:1.74819px;font-family:Resus;-inkscape-font-specification:Resus-Regular;writing-mode:lr-tb;fill:#231f20;fill-opacity:1;fill-rule:nonzero;stroke:none;stroke-width:0.352778"
       id="text905"
       x="31.903276"
       y="89.896767"><tspan
         x="31.903276"
         y="89.896767"
         id="tspan903"
         style="stroke-width:0.352778">2</tspan></text>
    <text
       style="font-variant:normal;font-weight:normal;font-stretch:normal;font-size:2.99861px;font-family:Resus;-inkscape-font-specification:Resus-Regular;writing-mode:lr-tb;fill:#231f20;fill-opacity:1;fill-rule:nonzero;stroke:none;stroke-width:0.352778"
       id="text909"
       x="9.1873159"
       y="94.366707"><tspan
         x="9.1873159 10.914515 11.634183 14.375813 15.106574"
         y="94.366707"
         sodipodi:role="line"
         id="tspan907"
         style="stroke-width:0.352778">2 min</tspan></text>
    <text
       style="font-variant:normal;font-weight:normal;font-stretch:normal;font-size:2.99861px;font-family:Resus;-inkscape-font-specification:Resus-Regular;writing-mode:lr-tb;fill:#231f20;fill-opacity:1;fill-rule:nonzero;stroke:none;stroke-width:0.352778"
       id="text913"
       x="27.691782"
       y="94.366707"><tspan
         x="27.691782 29.39559 31.071814"
         y="94.366707"
         sodipodi:role="line"
         id="tspan911"
         style="stroke-width:0.352778">65%</tspan></text>
    <text
       style="font-variant:normal;font-weight:normal;font-stretch:normal;font-size:2.99861px;font-family:Resus;-inkscape-font-specification:Resus-Regular;writing-mode:lr-tb;fill:#231f20;fill-opacity:1;fill-rule:nonzero;stroke:none;stroke-width:0.352778"
       id="text917"
       x="9.1873159"
       y="99.943108"><tspan
         x="9.1873159 10.914515 11.634183 14.375813 15.106574"
         y="99.943108"
         sodipodi:role="line"
         id="tspan915"
         style="stroke-width:0.352778">5 min</tspan></text>
    <text
       style="font-variant:normal;font-weight:normal;font-stretch:normal;font-size:2.99861px;font-family:Resus;-inkscape-font-specification:Resus-Regular;writing-mode:lr-tb;fill:#231f20;fill-opacity:1;fill-rule:nonzero;stroke:none;stroke-width:0.352778"
       id="text921"
       x="27.677706"
       y="99.943108"><tspan
         x="27.677706 29.4097 31.085924"
         y="99.943108"
         sodipodi:role="line"
         id="tspan919"
         style="stroke-width:0.352778">85%</tspan></text>
    <text
       style="font-variant:normal;font-weight:normal;font-stretch:normal;font-size:2.99861px;font-family:Resus;-inkscape-font-specification:Resus-Regular;writing-mode:lr-tb;fill:#231f20;fill-opacity:1;fill-rule:nonzero;stroke:none;stroke-width:0.352778"
       id="text925"
       x="8.3661566"
       y="105.51949"><tspan
         x="8.3661566 10.009395 11.736596 12.456262 15.197892 15.928653"
         y="105.51949"
         sodipodi:role="line"
         id="tspan923"
         style="stroke-width:0.352778">10 min</tspan></text>
    <text
       style="font-variant:normal;font-weight:normal;font-stretch:normal;font-size:2.99861px;font-family:Resus;-inkscape-font-specification:Resus-Regular;writing-mode:lr-tb;fill:#231f20;fill-opacity:1;fill-rule:nonzero;stroke:none;stroke-width:0.352778"
       id="text929"
       x="27.594625"
       y="105.51949"><tspan
         x="27.594625 29.39649 31.168669"
         y="105.51949"
         sodipodi:role="line"
         id="tspan927"
         style="stroke-width:0.352778">90%</tspan></text>
    <g
       id="g931"
       transform="matrix(0.35277777,0,0,-0.35277777,-13.510758,238.55468)">
      <g
         id="g933"
         clip-path="url(#clipPath937)">
        <g
           id="g939"
           transform="translate(186.9472,400.4868)">
          <path
             d="m 0,0 c -4.518,0 -8.181,-3.663 -8.181,-8.181 v -54.012 c 0,-4.518 3.663,-8.181 8.181,-8.181 h 220.881 c 4.518,0 8.181,3.663 8.181,8.181 v 54.012 c 0,4.518 -3.663,8.181 -8.181,8.181 z"
             style="fill:#fcd7cc;fill-opacity:1;fill-rule:nonzero;stroke:none"
             id="path941" />
        </g>
      </g>
    </g>
    <text
       style="font-variant:normal;font-weight:bold;font-stretch:normal;font-size:2.99861px;font-family:Resus;-inkscape-font-specification:Resus-Bold;writing-mode:lr-tb;fill:#231f20;fill-opacity:1;fill-rule:nonzero;stroke:none;stroke-width:0.352778"
       id="text945"
       x="73.2416"
       y="101.55303"><tspan
         x="73.2416 74.157677 75.306145 76.02581 77.283432 79.134773 80.787003 81.506676 83.050659 84.901703 86.605209 88.029251 89.273674 89.99334 90.808067 92.196419 92.916084 94.762634 96.577988 97.822418 98.542084 101.34669 103.12936 104.77499 105.58791 107.43927"
         y="101.55303"
         sodipodi:role="line"
         id="tspan943"
         style="stroke-width:0.352778">If the chest is not moving</tspan></text>
    <text
       style="font-variant:normal;font-weight:normal;font-stretch:normal;font-size:2.99861px;font-family:Resus;-inkscape-font-specification:Resus-Regular;writing-mode:lr-tb;fill:#231f20;fill-opacity:1;fill-rule:nonzero;stroke:none;stroke-width:0.352778"
       id="text949"
       x="51.554058"
       y="105.22807"><tspan
         x="51.554058 52.993393"
         y="105.22807"
         sodipodi:role="line"
         id="tspan947"
         style="stroke-width:0.352778">•</tspan></text>
    <text
       style="font-variant:normal;font-weight:normal;font-stretch:normal;font-size:2.99861px;font-family:Resus;-inkscape-font-specification:Resus-Regular;writing-mode:lr-tb;fill:#231f20;fill-opacity:1;fill-rule:nonzero;stroke:none;stroke-width:0.352778"
       id="text953"
       x="54.554047"
       y="105.22807"><tspan
         x="54.554047 56.50164 58.291214 59.95694 61.44545 62.971748 63.691414 66.43364 68.134758 69.498222 71.063202 71.803856 72.523521 74.313095 75.950638 77.582779 79.330971 80.050636 81.703766 83.49334 85.241531 85.961197 86.70755 88.299217 90.623138 91.342804 93.141373 94.912643 96.272224 97.00029 98.214424 98.949074 100.73086"
         y="105.22807"
         sodipodi:role="line"
         id="tspan951"
         style="stroke-width:0.352778">Check mask, head and jaw position</tspan></text>
    <text
       style="font-variant:normal;font-weight:normal;font-stretch:normal;font-size:2.99861px;font-family:Resus;-inkscape-font-specification:Resus-Regular;writing-mode:lr-tb;fill:#231f20;fill-opacity:1;fill-rule:nonzero;stroke:none;stroke-width:0.352778"
       id="text957"
       x="51.554058"
       y="108.90305"><tspan
         x="51.554058 52.993393"
         y="108.90305"
         sodipodi:role="line"
         id="tspan955"
         style="stroke-width:0.352778">•</tspan></text>
    <text
       style="font-variant:normal;font-weight:normal;font-stretch:normal;font-size:2.99861px;font-family:Resus;-inkscape-font-specification:Resus-Regular;writing-mode:lr-tb;fill:#231f20;fill-opacity:1;fill-rule:nonzero;stroke:none;stroke-width:0.352778"
       id="text961"
       x="54.554047"
       y="108.90305"><tspan
         x="54.554047 56.281242 57.000916 58.800079 60.450516 61.649956 63.025124 64.806595 66.554787 67.274452 68.637924 70.4077 72.193672 73.992844 75.77462 77.028038"
         y="108.90305"
         sodipodi:role="line"
         id="tspan959"
         style="stroke-width:0.352778">2 person support</tspan></text>
    <text
       style="font-variant:normal;font-weight:normal;font-stretch:normal;font-size:2.99861px;font-family:Resus;-inkscape-font-specification:Resus-Regular;writing-mode:lr-tb;fill:#231f20;fill-opacity:1;fill-rule:nonzero;stroke:none;stroke-width:0.352778"
       id="text965"
       x="51.554058"
       y="112.57806"><tspan
         x="51.554058 52.993393"
         y="112.57806"
         sodipodi:role="line"
         id="tspan963"
         style="stroke-width:0.352778">•</tspan></text>
    <text
       style="font-variant:normal;font-weight:normal;font-stretch:normal;font-size:2.99861px;font-family:Resus;-inkscape-font-specification:Resus-Regular;writing-mode:lr-tb;fill:#231f20;fill-opacity:1;fill-rule:nonzero;stroke:none;stroke-width:0.352778"
       id="text969"
       x="54.554047"
       y="112.57806"><tspan
         x="54.554047 56.480652 58.262428 60.030411 61.389977 62.130638 63.91391 65.564049 66.712517 67.432182 68.795647 70.578926 72.142395 73.356537 74.091194 75.872971 77.653847 78.394501 79.114166 80.028145 81.681282 82.938896 84.520966 86.310539 88.093811 89.731354 91.371887 92.226494 92.946159 95.68869 97.389503 98.752975 100.35064 101.52399 102.73811 103.92377 105.55621 107.04472 108.83401 110.47155 112.11208 112.96669 113.68636 114.89629 116.66607 118.46494"
         y="112.57806"
         sodipodi:role="line"
         id="tspan967"
         style="stroke-width:0.352778">Consider suction, laryngeal mask/tracheal tube</tspan></text>
    <text
       style="font-variant:normal;font-weight:normal;font-stretch:normal;font-size:2.99861px;font-family:Resus;-inkscape-font-specification:Resus-Regular;writing-mode:lr-tb;fill:#231f20;fill-opacity:1;fill-rule:nonzero;stroke:none;stroke-width:0.352778"
       id="text973"
       x="51.554058"
       y="116.25304"><tspan
         x="51.554058 52.993393"
         y="116.25304"
         sodipodi:role="line"
         id="tspan971"
         style="stroke-width:0.352778">•</tspan></text>
    <text
       style="font-variant:normal;font-weight:normal;font-stretch:normal;font-size:2.99861px;font-family:Resus;-inkscape-font-specification:Resus-Regular;writing-mode:lr-tb;fill:#231f20;fill-opacity:1;fill-rule:nonzero;stroke:none;stroke-width:0.352778"
       id="text977"
       x="54.554047"
       y="116.25304"><tspan
         x="54.554047 56.485748 58.136185 59.935051 61.572594 63.167854 64.3703 65.089966 65.820427 67.570717 68.733879 69.648155 71.243416 72.45755 73.192215 74.973984 76.722176 77.441841 79.227814 80.373886 82.011429 83.606689 84.820824 86.588806"
         y="116.25304"
         sodipodi:role="line"
         id="tspan975"
         style="stroke-width:0.352778">Repeat inflation breaths</tspan></text>
    <text
       style="font-variant:normal;font-weight:normal;font-stretch:normal;font-size:2.99861px;font-family:Resus;-inkscape-font-specification:Resus-Regular;writing-mode:lr-tb;fill:#231f20;fill-opacity:1;fill-rule:nonzero;stroke:none;stroke-width:0.352778"
       id="text981"
       x="51.906837"
       y="119.92803"><tspan
         x="51.906837 53.346169"
         y="119.92803"
         sodipodi:role="line"
         id="tspan979"
         style="stroke-width:0.352778">•</tspan></text>
    <text
       style="font-variant:normal;font-weight:normal;font-stretch:normal;font-size:2.99861px;font-family:Resus;-inkscape-font-specification:Resus-Regular;writing-mode:lr-tb;fill:#231f20;fill-opacity:1;fill-rule:nonzero;stroke:none;stroke-width:0.352778"
       id="text985"
       x="54.906822"
       y="119.92803"><tspan
         x="54.906822 56.833427 58.615204 60.383186 61.741554 62.482216 64.265488 65.915924 67.064392 67.784058 68.514816 70.304092 71.791405 72.937469 74.575012 76.276123 77.634491 78.365257 80.154831 81.903023 82.622688 83.83712 85.626694 87.236946 87.956612 88.687378 90.437065 91.600525 92.514793 94.110069 95.324493 96.059158 97.840935 99.589127 100.3088 102.09476 103.24084 104.88828 106.24905 107.6125 109.38229 110.52836"
         y="119.92803"
         sodipodi:role="line"
         id="tspan983"
         style="stroke-width:0.352778">Consider increasing the inflation pressure</tspan></text>
    <g
       id="g987"
       transform="matrix(0.35277777,0,0,-0.35277777,143.8934,73.031528)">
      <path
         d="M 0,0 8.113,-8.971"
         style="fill:none;stroke:#0b4476;stroke-width:0.709;stroke-linecap:round;stroke-linejoin:round;stroke-miterlimit:4;stroke-dasharray:0, 2.199;stroke-dashoffset:0;stroke-opacity:1"
         id="path989" />
    </g>
    <g
       id="g991"
       transform="matrix(0.35277777,0,0,-0.35277777,147.52898,75.980568)">
      <path
         d="M 0,0 9.46,9.277"
         style="fill:none;stroke:#0b4476;stroke-width:0.709;stroke-linecap:round;stroke-linejoin:round;stroke-miterlimit:4;stroke-dasharray:0, 2.038;stroke-dashoffset:0;stroke-opacity:1"
         id="path993" />
    </g>
    <g
       id="g995"
       transform="matrix(0.35277777,0,0,-0.35277777,151.12305,71.708498)">
      <path
         d="M 0,0 V 191.778"
         style="fill:none;stroke:#0b4476;stroke-width:0.709;stroke-linecap:round;stroke-linejoin:round;stroke-miterlimit:4;stroke-dasharray:0, 2.119;stroke-dashoffset:0;stroke-opacity:1"
         id="path997" />
    </g>
    <g
       id="g999"
       transform="matrix(0.35277777,0,0,-0.35277777,150.34803,3.6796839)">
      <path
         d="M 0,0 H -18.673"
         style="fill:none;stroke:#0b4476;stroke-width:0.709;stroke-linecap:round;stroke-linejoin:round;stroke-miterlimit:4;stroke-dasharray:0, 2.197;stroke-dashoffset:0;stroke-opacity:1"
         id="path1001" />
    </g>
    <g
       id="g1003"
       transform="matrix(0.35277777,0,0,-0.35277777,143.37305,4.4272549)">
      <path
         d="M 0,0 V -191.778"
         style="fill:none;stroke:#0b4476;stroke-width:0.709;stroke-linecap:round;stroke-linejoin:round;stroke-miterlimit:4;stroke-dasharray:0, 2.119;stroke-dashoffset:0;stroke-opacity:1"
         id="path1005" />
    </g>
    <g
       id="g1007"
       transform="matrix(0.35277777,0,0,-0.35277777,147.01555,76.484058)">
      <path
         d="m 0,0 v 0 m 11.643,11.418 v 0 m 0,194.957 v 0 m -21.968,0 v 0 m 0,-194.957 v 0"
         style="fill:none;stroke:#0b4476;stroke-width:0.709;stroke-linecap:round;stroke-linejoin:round;stroke-miterlimit:4;stroke-dasharray:none;stroke-opacity:1"
         id="path1009" />
    </g>
    <text
       transform="rotate(90)"
       style="font-variant:normal;font-weight:bold;font-stretch:normal;font-size:3.88197px;font-family:Resus;-inkscape-font-specification:Resus-Bold;writing-mode:lr-tb;fill:#0b4476;fill-opacity:1;fill-rule:nonzero;stroke:none;stroke-width:0.352778"
       id="text1013"
       x="5.4060736"
       y="-145.93437"><tspan
         x="5.4060736 8.0415373 10.43283 12.824122 15.331874 18.231316 20.905991 21.837662 24.119869 26.355881 27.287552 29.562386 31.855076 34.31818 37.344173 40.349209 43.165966"
         y="-145.93437"
         sodipodi:role="line"
         id="tspan1011"
         style="stroke-width:0.352778">APPROX 60 SECONDS</tspan></text>
    <g
       id="g1015"
       transform="matrix(0.35277777,0,0,-0.35277777,-13.510758,238.55468)">
      <g
         id="g1017">
        <g
           id="g1023">
          <g
             id="g1025">
            <path
               d="m 478.239,102.399 10.325,-11.418 11.643,11.418 v 563.743 h -21.968 z"
               style="fill:url(#linearGradient1035);stroke:none"
               id="path1037" />
          </g>
        </g>
      </g>
    </g>
    <text
       transform="rotate(90)"
       style="font-variant:normal;font-weight:bold;font-stretch:normal;font-size:3.88197px;font-family:Resus;-inkscape-font-specification:Resus-Bold;writing-mode:lr-tb;fill:#ffffff;fill-opacity:1;fill-rule:nonzero;stroke:none;stroke-width:0.352778"
       id="text1041"
       x="5.4060736"
       y="-157.87657"><tspan
         x="5.4060736 8.7562094 11.392066 12.54423 15.518207 17.556629 20.192482 21.344261 24.36055 25.292221 27.586853 29.91293 33.263065 35.653584 37.979656 40.624828 42.97031 45.280079 48.290936 50.814213"
         y="-157.87657"
         sodipodi:role="line"
         id="tspan1039"
         style="stroke-width:0.352778">MAINTAIN TEMPERATURE</tspan></text>
    <g
       id="g1043"
       transform="matrix(0.35277777,0,0,-0.35277777,-13.510758,238.55468)">
      <g
         id="g1045"
         clip-path="url(#clipPath1049)">
        <g
           id="g1051">
          <g
             id="g1053">
            <path
               d="M 89.39,87.79 99.715,76.372 111.358,87.79 V 363.78 H 89.39 Z"
               style="fill:url(#linearGradient1067);stroke:none"
               id="path1069" />
          </g>
        </g>
      </g>
    </g>
    <text
       transform="rotate(90)"
       style="font-variant:normal;font-weight:bold;font-stretch:normal;font-size:3.52778px;font-family:Resus;-inkscape-font-specification:Resus-Bold;writing-mode:lr-tb;fill:#0b4476;fill-opacity:1;fill-rule:nonzero;stroke:none;stroke-width:0.352778"
       id="text1073"
       x="112.55466"
       y="-20.860346"><tspan
         x="112.55466 114.65369 115.68874 117.78777 120.20501 122.35554 124.45457 126.57829 127.42495 130.07538 132.63408 134.68619 137.23148 139.35979 142.10088"
         y="-20.860346"
         sodipodi:role="line"
         id="tspan1071"
         style="stroke-width:0.352778">TITRATE OXYGEN</tspan></text>
    <text
       transform="rotate(90)"
       style="font-variant:normal;font-weight:normal;font-stretch:normal;font-size:3.52778px;font-family:Resus;-inkscape-font-specification:Resus-Regular;writing-mode:lr-tb;fill:#0b4476;fill-opacity:1;fill-rule:nonzero;stroke:none;stroke-width:0.352778"
       id="text1077"
       x="142.95061"
       y="-20.860346"><tspan
         x="142.95061 144.95403 147.65984 148.5065 150.78757 153.02699 155.71234 156.68141 158.83513 161.19485 163.30447 164.15114 165.98206 168.34178 170.60167 173.09476 175.23824 177.34784 178.19452 180.23145 182.3199 184.42563 187.11732 189.49187 191.58032 193.67264 194.67311 197.38492 200.08684"
         y="-20.860346"
         sodipodi:role="line"
         id="tspan1075"
         style="stroke-width:0.352778">TO ACHIEVE TARGET SATURATIONS</tspan></text>
    <g
       id="g1079"
       transform="matrix(0.35277777,0,0,-0.35277777,91.401045,81.628258)">
      <path
         d="M 0,0 V 6.895"
         style="fill:none;stroke:#f7a593;stroke-width:1.966;stroke-linecap:butt;stroke-linejoin:miter;stroke-miterlimit:4;stroke-dasharray:none;stroke-opacity:1"
         id="path1081" />
    </g>
    <g
       id="g1083"
       transform="matrix(0.35277777,0,0,-0.35277777,91.401045,83.195868)">
      <path
         d="M 0,0 -5.756,6.191 H 5.756 Z"
         style="fill:#f7a593;fill-opacity:1;fill-rule:nonzero;stroke:none"
         id="path1085" />
    </g>
  </g>
</svg>
